<svg xmlns="http://www.w3.org/2000/svg" width="108.366" height="43.286" viewBox="0 0 108.366 43.286">
  <g id="fb-live-icon" transform="translate(-558.5 -5528.929)">
    <g id="Rectangle_659" data-name="Rectangle 659" transform="translate(558.5 5528.929)" fill="#fff" stroke="#3f51b5" stroke-width="1">
      <rect width="108.366" height="43.286" rx="6" stroke="none"/>
      <rect x="0.5" y="0.5" width="107.366" height="42.286" rx="5.5" fill="none"/>
    </g>
    <g id="Group_1995" data-name="Group 1995" transform="translate(598.214 5563.219) rotate(90)">
      <path id="Path_25963" data-name="Path 25963" d="M0,0H5.348" transform="translate(0.004 5.358)" fill="none" stroke="#3f51b5" stroke-linecap="round" stroke-width="1.5"/>
      <path id="Path_25964" data-name="Path 25964" d="M4,0,0,.414" transform="translate(3.942 0.396) rotate(163)" fill="none" stroke="#3f51b5" stroke-linecap="round" stroke-width="1.5"/>
      <path id="Path_25965" data-name="Path 25965" d="M4,.413,0,0" transform="translate(0.121 9.151) rotate(17)" fill="none" stroke="#3f51b5" stroke-linecap="round" stroke-width="1.5"/>
    </g>
    <g id="Group_2002" data-name="Group 2002" transform="translate(587.5 5538.625) rotate(-90)">
      <path id="Path_25963-2" data-name="Path 25963" d="M0,0H5.348" transform="translate(0.004 5.357)" fill="none" stroke="#3f51b5" stroke-linecap="round" stroke-width="1.5"/>
      <path id="Path_25964-2" data-name="Path 25964" d="M4,.414,0,0" transform="translate(3.821 10.714) rotate(-163)" fill="none" stroke="#3f51b5" stroke-linecap="round" stroke-width="1.5"/>
      <path id="Path_25965-2" data-name="Path 25965" d="M4,0,0,.413" transform="translate(0 1.168) rotate(-17)" fill="none" stroke="#3f51b5" stroke-linecap="round" stroke-width="1.5"/>
    </g>
    <g id="icons8-facebook" transform="translate(620.183 5526.572)">
      <path id="Path_25959" data-name="Path 25959" d="M42,37a5,5,0,0,1-5,5H11a5,5,0,0,1-5-5V11a5,5,0,0,1,5-5H37a5,5,0,0,1,5,5Z" fill="#3f51b5"/>
      <path id="Path_25960" data-name="Path 25960" d="M34.368,25H31V38H26V25H23V21h3V18.59C26,15.082,27.459,13,31.592,13H35v4H32.713C31.1,17,31,17.6,31,18.723V21h4Z" fill="#fff"/>
    </g>
    <g id="Group_2127" data-name="Group 2127" transform="translate(-921.535 4518.193)">
      <path id="Path_26007" data-name="Path 26007" d="M1485.4,1036.194v-14.815h3.5V1033.6h6.693v2.594Z" transform="translate(2.633 3.827)" fill="#3f51b5"/>
      <path id="Path_26008" data-name="Path 26008" d="M1505.211,1036.194v-14.815h3.9v14.815Z" transform="translate(-2.844 3.827)" fill="#3f51b5"/>
      <path id="Path_26009" data-name="Path 26009" d="M1525.162,1021.379h3.534l-5.611,14.816h-3.816l-5.6-14.816h3.534l3.1,8.817q.26.78.537,1.819t.344,1.444a23.567,23.567,0,0,1,.847-3.264Z" transform="translate(-2.169 3.827)" fill="#3f51b5"/>
      <path id="Path_26010" data-name="Path 26010" d="M1549.114,1036.194h-9.5v-14.815h9.5v2.574h-6.006v3.253h5.588v2.573h-5.588v3.82h6.006Z" transform="translate(-7.851 3.828)" fill="#3f51b5"/>
    </g>
  </g>
</svg>
