<svg xmlns="http://www.w3.org/2000/svg" width="304.263" height="105.206" viewBox="0 0 304.263 105.206">
  <g id="footer_logo" data-name="footer logo" transform="translate(-159.188 -43.89)">
    <g id="Group_1471" data-name="Group 1471" transform="translate(159.188 43.89)">
      <path id="Path_1" data-name="Path 1" d="M97.54,48.218c0-.109,0-.227-.008-.329a48.767,48.767,0,0,0-97.519,0v.253C0,48.356,0,48.564,0,48.784V49.5a2.394,2.394,0,0,1,.013.313,48.8,48.8,0,0,0,33.7,45.5A6.4,6.4,0,0,0,35.053,92.9l.013-.026V92.8c.1-.482.225-.987.349-1.6l.086-.3c.609-2.518,1.34-4.871,1.351-4.907.183-.634.337-1.124.469-1.453a8.834,8.834,0,0,1,.948-1.583,2.5,2.5,0,0,1,2.054-.987,3.4,3.4,0,0,1,1.084.176l.671.278-.031-.716a5.054,5.054,0,0,0-.077-.724A32.666,32.666,0,0,1,33.815,78.1v-.155a32.67,32.67,0,0,1,5.029-60.266l-.046-.133A32.844,32.844,0,0,1,63.72,19.588v.148a32.685,32.685,0,0,1-5.014,60.282l.039.137A32.548,32.548,0,0,1,43.622,81.3c-1.81,3.762-2.139,10.006-2.139,13.944,0,.509-.035,1.177-.086,1.907A48.8,48.8,0,0,0,97.53,49.824c.008-.087.008-.165.008-.253,0-.211.015-.418.015-.642v-.143C97.555,48.587,97.54,48.407,97.54,48.218Z" transform="translate(0)" fill="#cda8cf"/>
      <path id="Path_2" data-name="Path 2" d="M55.466,7.93A47.475,47.475,0,0,0,41.242,100.7a7.432,7.432,0,0,0,.494-1.17l.013-.026v-.077c.1-.482.225-.987.349-1.6l.086-.3c.609-2.518,1.34-4.871,1.351-4.907.183-.634.337-1.124.469-1.453a8.835,8.835,0,0,1,.948-1.583,2.5,2.5,0,0,1,2.054-.987,3.4,3.4,0,0,1,1.084.176l.671.278-.031-.716a4.266,4.266,0,0,0-.678-2.269l3.127.273-.015.133c-2.579,3.379-3,10.888-3,15.387,0,.132,0,.295-.01.446A47.467,47.467,0,1,0,55.466,7.93Z" transform="translate(-6.683 -6.625)" fill="#5e2568"/>
      <path id="Path_3" data-name="Path 3" d="M93.27,126.658A33.426,33.426,0,1,1,126.7,160.087,33.434,33.434,0,0,1,93.27,126.658" transform="translate(-77.921 -77.879)" fill="#cda8cf" fill-rule="evenodd"/>
      <path id="Path_4" data-name="Path 4" d="M219.54,498.513c0-4.5.426-12.013,3-15.387l.015-.133-3.127-.273a4.265,4.265,0,0,1,.678,2.269l.031.716-.671-.278a3.406,3.406,0,0,0-1.085-.176,2.5,2.5,0,0,0-2.054.987,8.833,8.833,0,0,0-.948,1.583c-.132.329-.286.823-.469,1.453-.012.036-.742,2.39-1.351,4.907l-.086.3c-.124.606-.249,1.116-.349,1.6v.078Z" transform="translate(-178.056 -403.28)" fill="#fff" fill-rule="evenodd"/>
      <path id="Path_5" data-name="Path 5" d="M101.62,133.668a32.053,32.053,0,1,1,32.059,32.044,32.062,32.062,0,0,1-32.059-32.044" transform="translate(-84.896 -84.888)" fill="#fff" fill-rule="evenodd"/>
      <path id="Path_6" data-name="Path 6" d="M116.67,145.081a29.475,29.475,0,1,1,29.474,29.481,29.475,29.475,0,0,1-29.474-29.481" transform="translate(-97.47 -96.585)" fill="#d5c195" fill-rule="evenodd"/>
      <path id="Path_7" data-name="Path 7" d="M159.983,143.824a34.553,34.553,0,0,0-7.062,6.364l2.5.165s.823-.568,1.045-.018-.342.987-.342.987l-1.8.025.907.609-1.285,1.621.031,2.567c0,.482,1.2,1.165,1.2,1.165a9.57,9.57,0,0,0,2.442.658c.77-.013,3.4-.411,5.067-.43s1.553,1.781,1.553,1.781a4.437,4.437,0,0,0-2.177-.867,17.459,17.459,0,0,0-5.059.143,4.3,4.3,0,0,1-2.368-.38,2.787,2.787,0,0,0,.127,4.034c1.136,1.168,3.765.987,5.35.13a4.327,4.327,0,0,1,3.476.011,11.9,11.9,0,0,1-5.256,1.884c-2.492.507-4.3-.188-5.447-2.06a5.639,5.639,0,0,1,1.325-4.4,13.383,13.383,0,0,0-1.132-1.233c-.283-.207-.377-1.8-.517-2.218s-.927-1.934-.927-1.934a2.264,2.264,0,0,1,.079-2.852,51.966,51.966,0,0,1,7.417-6.224q-.658-2.222,1.678-3.923l3.517-2.269q2.8-8.327,10.791-8.082-8.585,1.929-9.051,8.47-7.2,3.469-6.089,6.277" transform="translate(-126.296 -107.827)" fill="#5e2568" fill-rule="evenodd"/>
      <path id="Path_8" data-name="Path 8" d="M222.883,217.357l-3.485-.647a8.3,8.3,0,0,1-1.338,3.013,5.122,5.122,0,0,1,4.427-1.453Z" transform="translate(-182.174 -181.047)" fill="#5e2568" fill-rule="evenodd"/>
      <path id="Path_9" data-name="Path 9" d="M235.91,224.287a24.423,24.423,0,0,0-6.221,21.01c.29-5.8,1.623-10.414,4.888-16.754.538-1.045,7.481-10.664,7.481-10.664l-4.381,4.443q.349-3.155,4.254-8.816c-.658-4.977-2.172-8-4.585-9.036,1.916,2.06,3.044,5.266,3.346,9.622a15.565,15.565,0,0,0-4.782,10.2" transform="translate(-191.608 -170.821)" fill="#5e2568" fill-rule="evenodd"/>
      <path id="Path_10" data-name="Path 10" d="M256.36,138.441l2.842-1.432q2.962-5.218,11.666-5.172-11.08-1.21-14.508,6.6" transform="translate(-214.172 -110.005)" fill="#5e2568" fill-rule="evenodd"/>
      <path id="Path_11" data-name="Path 11" d="M317.58,141.212q11.131,1.5,16.967,10.1-5.223-11.442-16.967-10.1" transform="translate(-265.317 -117.855)" fill="#5e2568" fill-rule="evenodd"/>
      <path id="Path_12" data-name="Path 12" d="M316.1,165.01q1.656-7.847-2.562-8.64c2.095,1.595,2.468,3.981,1.152,7.137Z" transform="translate(-261.942 -130.637)" fill="#5e2568" fill-rule="evenodd"/>
      <path id="Path_13" data-name="Path 13" d="M290.733,166.5l-.094-2.139-1.929.925c.038-3.222.908-4.772,2.633-4.619q2.414,1.252,1.254,5.059c-.514.94-1.131,1.2-1.868.783" transform="translate(-241.197 -134.219)" fill="#5e2568" fill-rule="evenodd"/>
      <path id="Path_14" data-name="Path 14" d="M354.482,167.61a12.737,12.737,0,0,1,1.086,2.541s2.765-.329,5.924,3.716c-1.975-4.991-5.6-5.977-7.012-6.254" transform="translate(-296.144 -140.027)" fill="#5e2568" fill-rule="evenodd"/>
      <path id="Path_15" data-name="Path 15" d="M366.927,192.4l-.987-2.829a7.424,7.424,0,0,1,4.67,4.247c-1.85-1.935-3.446-1.6-3.676-1.419" transform="translate(-305.718 -158.373)" fill="#5e2568" fill-rule="evenodd"/>
      <path id="Path_16" data-name="Path 16" d="M337,173.9a16.972,16.972,0,0,1,3.247,9.971c.151,6.306,1.175,8.65,2.727,11.465-1.458-4.651-.658-8.643-.612-11.934s-2.577-7.3-5.362-9.5" transform="translate(-281.542 -145.282)" fill="#5e2568" fill-rule="evenodd"/>
      <path id="Path_17" data-name="Path 17" d="M380.24,219a16.7,16.7,0,0,1,.36,8.047,13.754,13.754,0,0,0,1.424,9.734c1.221,2.353,3.142,3.811,3.991,1.08a8.565,8.565,0,0,0-.979-7,5.437,5.437,0,0,1-1.688,6.864c-.945-1.55-.76-3.291-.714-6.352s.755-8.08-2.393-12.37" transform="translate(-317.665 -182.96)" fill="#5e2568" fill-rule="evenodd"/>
      <path id="Path_18" data-name="Path 18" d="M336.273,312.541c.033-.556.063-1.247.033-2.077-4.588-5.232-2.821-14.265-2.821-14.265-1.916,5.355-.1,12.542,1.787,15.14a13.248,13.248,0,0,0,1,1.2" transform="translate(-277.924 -247.456)" fill="#5e2568" fill-rule="evenodd"/>
      <path id="Path_19" data-name="Path 19" d="M374.1,232.583c-3.851-3.961-3.387-6.583-3.387-6.583-.987,5.171,1.453,7.05,3.161,9.26s3.754,4.608,3.375,8.087c-2,10.717-7.784,12.194-11.377,10.2a7.867,7.867,0,0,1-.239,1.907c2.408,1.534,5.831,1.864,9.874-3.046,6.115-7.43,2.436-15.887-1.412-19.83" transform="translate(-305.46 -188.808)" fill="#5e2568" fill-rule="evenodd"/>
      <path id="Path_20" data-name="Path 20" d="M365.31,321.32s-.838.713-.374,3.482.565,6.342-1.876,5.832c0,0,.987,2.539,2.3,1.5s1.364-3.2.7-5.118a14.182,14.182,0,0,1-.754-5.7" transform="translate(-303.312 -268.441)" fill="#5e2568" fill-rule="evenodd"/>
      <path id="Path_21" data-name="Path 21" d="M347.379,353.092s-.741.95-.688,4.647-.207,4.919-1.962,3.785c0,0,.367,3.04,1.688,2.419s2-3.542,1.646-5.393-1.206-3.533-.691-5.46" transform="translate(-287.999 -294.983)" fill="#5e2568" fill-rule="evenodd"/>
      <path id="Path_22" data-name="Path 22" d="M309.987,381.49a22.744,22.744,0,0,0-.533,4.3c-.036,2.228-1.122,4.608-3,5.074s-2.447-1.152-2.171-2.276c0,0-1.193,4.2,2.385,4.509,2.728.219,4.259-3.263,3.849-6.277a32.167,32.167,0,0,1-.527-5.325" transform="translate(-254.046 -318.71)" fill="#5e2568" fill-rule="evenodd"/>
      <path id="Path_23" data-name="Path 23" d="M265.457,309.967s1.7,12.907-4.165,18.338c-2.758,2.556-6.528,1.861-5.3-5.162,0,0-2.421,9.084,2.883,8.6s8.78-11.355,6.583-21.784" transform="translate(-213.403 -258.951)" fill="#5e2568" fill-rule="evenodd"/>
      <path id="Path_24" data-name="Path 24" d="M244.553,390.9s-3.079,5.238-.658,9.677a2.567,2.567,0,0,0,3.456.717c-1.855,2-4.032,1.526-5.07-.584-1.512-3.115.727-8.264,2.282-9.81" transform="translate(-201.99 -326.571)" fill="#5e2568" fill-rule="evenodd"/>
      <path id="Path_25" data-name="Path 25" d="M330.913,227.514s4.7,9.943.225,18.242a19.618,19.618,0,0,0-.6-15.491s.015-.29-.413.232c-.337.439-.894,1.366-1.34.514s1.685-4.366,2.123-3.5" transform="translate(-274.631 -189.958)" fill="#5e2568" fill-rule="evenodd"/>
      <path id="Path_26" data-name="Path 26" d="M410.664,207.14s4.312,3.55,5.037,14.421c0,0-.457-7.1-4.623-11.416-.079,2.337.451,4.412.795,4.721s.571-1.445.38-2.449c.92,2.069,1,3.695.314,3.974s-2.658-3.217-1.9-9.252" transform="translate(-342.941 -173.052)" fill="#5e2568" fill-rule="evenodd"/>
      <path id="Path_27" data-name="Path 27" d="M280.761,368.183a17.326,17.326,0,0,0,1.583-1.883c.109,3.62-.036,4.55-2.274,7.521a8.564,8.564,0,0,0,.691-5.638" transform="translate(-233.98 -306.019)" fill="#5e2568" fill-rule="evenodd"/>
      <path id="Path_28" data-name="Path 28" d="M256.127,331.772c.26-.535,2.579-1.626,3.66-.164.416.706-3.245,6.44-8.707,8.788a20.9,20.9,0,0,0,6.109-6.418c.9-1.594-1.619-1.122-1.061-2.212" transform="translate(-209.76 -276.425)" fill="#5e2568" fill-rule="evenodd"/>
      <path id="Path_29" data-name="Path 29" d="M227.958,558.07c.718-.29.841.061-.237.472-6.869,2.646-14.623,2.458-21.535,1a101.6,101.6,0,0,1-15.1-4.231l.658-1.461s35.342,4.573,36.2,4.219" transform="translate(-159.642 -462.705)" fill="#deca95" fill-rule="evenodd"/>
      <path id="Path_30" data-name="Path 30" d="M206.222,479.3l.458-1.06c.706.341,7.526,3.683,11.191,4.937,7.907,2.722,15.12,4.468,20.334,4.468a41.041,41.041,0,0,0,7.422-.621,28.034,28.034,0,0,0,5.687-1.665c1.2-.5,3.166-2.6,3.928-3.578.451-.573.823-.923.848-.6.507,4.662-4.972,7.814-12.654,8.813-7.807,1.014-15.282-2.543-22.546-4.182-9.5-2.162-14.669-6.505-14.669-6.505" transform="translate(-172.283 -399.538)" fill="#cda8cf" fill-rule="evenodd"/>
      <path id="Path_31" data-name="Path 31" d="M206.23,481.827l.546-.867c.711.329,7.437,3.48,11.1,4.739,7.907,2.724,15.12,4.47,20.334,4.47a40.008,40.008,0,0,0,7.422-.629,26.485,26.485,0,0,0,7.751-2.633c.36-.133-.082.364-.244.509-2.217,2-7.514,3.4-10,3.714-7.817,1-14.984-1.152-22.244-2.812-9.5-2.151-14.669-6.5-14.669-6.5" transform="translate(-172.292 -401.81)" fill="#deca95" fill-rule="evenodd"/>
      <path id="Path_32" data-name="Path 32" d="M236.595,495.334l.551.834s.224.258-1.761,1.884c-1.578,1.3-4.924,3.9-7.093,4.684-6.892,2.5-14.235,2.008-21.413.38a82.991,82.991,0,0,1-14.959-4.71l3.339-10.886a105.251,105.251,0,0,0,10.358,4.67c7.985,2.74,12.836,4.292,20.615,4.358a33.335,33.335,0,0,0,10.368-1.214" transform="translate(-160.337 -407.291)" fill="#cda8cf" fill-rule="evenodd"/>
      <path id="Path_33" data-name="Path 33" d="M211.689,504.148c8.1,2.781,13.091,4.379,21.048,4.43,7.183.069,9.645-1.034,9.645-1.034s-4.461,4.078-8.408,5.538c-5.148,1.914-13.562,1.777-20.571.1a104.665,104.665,0,0,1-13.684-4.165l2.8-8.979a81.024,81.024,0,0,0,9.176,4.114" transform="translate(-166.853 -417.751)" fill="#deca95" fill-rule="evenodd"/>
      <path id="Path_34" data-name="Path 34" d="M269.144,473.88s-4.608,2.483-4.48,17.176c.049,5.949,1.532,8.65,1.532,8.65l-7.29-4.659-7.206,4.69s.78-6.11.78-8.6.1-13.144,3.685-15.833a.475.475,0,0,1,.4-.133,28.824,28.824,0,0,0,12.575-1.282" transform="translate(-210.279 -395.895)" fill="#deca95" fill-rule="evenodd"/>
      <path id="Path_35" data-name="Path 35" d="M246.78,497.743l.107-1.432c.02-.165.765-6.11.765-8.541,0-4.995.517-13.718,3.932-16.36a1.186,1.186,0,0,1,.815-.316h.125l.23.03c.7.059,1.9.164,3.4.164a24.667,24.667,0,0,0,8.632-1.428l.581,1.282c-.031.02-4.638,2.264-4.57,16.175.056,6.828.857,6.5,1.152,7.818l.92,2.539-8.079-5.156Zm8.019-6.293,6.36,3.777c-1-3.081-1.274-2.725-1.316-7.517-.066-8.956,1.6-13.528,3.021-15.771a28.619,28.619,0,0,1-6.711.76h0c-1.56,0-2.788-.112-3.523-.164l-.164-.02c-2.128,1.616-3.369,7.321-3.706,15.24-.12,2.888-.494,3.826-.844,8.051Z" transform="translate(-206.168 -392.537)" fill="#cda8cf"/>
      <path id="Path_36" data-name="Path 36" d="M270.418,500.628l-4.888,3.237.028-.329c.439-4.32.352-2.952.352-4.608,0-7.789,1.233-13.276,3.456-15.469l.214.226c-2.162,2.124-3.362,7.539-3.362,15.239,0,1.626.109-.165-.321,4.316l4.521-2.977,4.741,3.127c-.806-2.214-1.17-2.049-1.152-4.534.1-6.64.838-12.055,2.559-15.646l.278.135c-1.7,3.547-2.567,8.9-2.51,15.511.013,1.96.658,3.127,1.517,5.821Z" transform="translate(-221.832 -403.69)" fill="#cda8cf"/>
      <path id="Path_37" data-name="Path 37" d="M173.148,489.481c.12-.535.239-1.078.375-1.614a1.089,1.089,0,0,1,.076-.329c.619-2.562,1.359-4.921,1.359-4.921.173-.6.337-1.14.482-1.509a10.547,10.547,0,0,1,1.005-1.69,3.291,3.291,0,0,1,3.686-.946c-.077-2.378-1.81-3.755-4.5-3.537s-3.62,3.253-3.668,4.687-1.7,2.251-2.6,2.908c-.936.643-2.051.747-2.645,1.409-.625.658.806,1.906,2.187,1.394l1.086-.415a8.637,8.637,0,0,1-1.27,3.578,2.73,2.73,0,0,1-2.882.735s-.248,3.914,3.387,3.8c2.273-.074,3.393-1.868,3.92-3.514v-.039" transform="translate(-138.547 -396.757)" fill="#deca95" fill-rule="evenodd"/>
      <path id="Path_38" data-name="Path 38" d="M166.733,491.177h0a3.481,3.481,0,0,1-2.633-1.025,4.765,4.765,0,0,1-1.055-3.278l.033-.6.584.186a2.8,2.8,0,0,0,.811.12,1.822,1.822,0,0,0,1.532-.691,6.922,6.922,0,0,0,1.032-2.561l-.293.122a2.451,2.451,0,0,1-.846.165,2.27,2.27,0,0,1-2.036-1.162,1.025,1.025,0,0,1,.155-1.139,4.026,4.026,0,0,1,1.537-.9,5.992,5.992,0,0,0,1.21-.591,5.807,5.807,0,0,1,.494-.329c.836-.556,1.863-1.251,1.891-2.2.054-1.57,1.134-4.886,4.1-5.136.194-.012.4-.025.587-.025,2.653,0,4.354,1.535,4.425,4.024l.031.716-.671-.278a3.406,3.406,0,0,0-1.084-.176,2.505,2.505,0,0,0-2.054.987,8.8,8.8,0,0,0-.948,1.585c-.132.329-.286.823-.469,1.452-.012.036-.742,2.389-1.351,4.907l-.086.3c-.123.606-.248,1.116-.349,1.6v.077l-.013.026c-.764,2.409-2.312,3.775-4.359,3.843Zm-2.74-3.7a3.491,3.491,0,0,0,.8,2.034,2.5,2.5,0,0,0,1.944.726h.137c2.046-.066,3.025-1.726,3.482-3.127v-.044c.107-.494.224-1.014.364-1.609a1.6,1.6,0,0,1,.092-.407c.617-2.521,1.354-4.876,1.359-4.9.191-.658.351-1.18.494-1.54l.016-.03a9.8,9.8,0,0,1,1.061-1.776,3.456,3.456,0,0,1,2.8-1.338,4.072,4.072,0,0,1,.729.061c-.306-1.565-1.549-2.468-3.43-2.468-.148,0-.329,0-.509.015-2.35.2-3.194,2.943-3.242,4.243-.028,1.43-1.346,2.3-2.3,2.944-.184.11-.329.217-.48.318a6.015,6.015,0,0,1-1.407.7,3.35,3.35,0,0,0-1.175.658c-.01.011-.028.036,0,.125a1.386,1.386,0,0,0,1.183.6,1.48,1.48,0,0,0,.509-.091l1.8-.7-.092.772a9.094,9.094,0,0,1-1.358,3.82,2.751,2.751,0,0,1-2.284,1.068A2.542,2.542,0,0,1,163.993,487.477Z" transform="translate(-136.206 -394.433)" fill="#cda8cf"/>
      <path id="Path_39" data-name="Path 39" d="M288.7,500.2l-.968-.347V496.89h.143a12.839,12.839,0,0,0,1.939,1.845,2.486,2.486,0,0,0,1.376.535,1.1,1.1,0,0,0,.783-.3.928.928,0,0,0,.3-.691,1.171,1.171,0,0,0-.206-.666,1.426,1.426,0,0,0-.642-.446v-.122a1.631,1.631,0,0,1,1.045.469,1.3,1.3,0,0,1,.369.956,1.416,1.416,0,0,1-.385,1.01,1.242,1.242,0,0,1-.94.415,1.8,1.8,0,0,1-.745-.179,4.984,4.984,0,0,1-1.275-.885c-.67-.616-1.061-.987-1.21-1.152v1.316a2.906,2.906,0,0,0,.035.556.942.942,0,0,0,.114.29.775.775,0,0,0,.267.22Z" transform="translate(-240.379 -415.119)" fill="#5e2568"/>
      <path id="Path_40" data-name="Path 40" d="M285.875,521.156a3.829,3.829,0,0,1,1.47.267,2.139,2.139,0,0,1,.917.694,1.237,1.237,0,0,1,.244.686,1.336,1.336,0,0,1-.592,1.037,3.166,3.166,0,0,1-1.983.563,4,4,0,0,1-1.481-.24,1.858,1.858,0,0,1-.872-.645,1.264,1.264,0,0,1-.286-.755,1.368,1.368,0,0,1,.841-1.18A3.48,3.48,0,0,1,285.875,521.156Zm-.1.727a4.642,4.642,0,0,0-1.684.257c-.375.143-.559.344-.559.63a.615.615,0,0,0,.184.408,1.068,1.068,0,0,0,.6.329,7.207,7.207,0,0,0,1.789.165,4.879,4.879,0,0,0,1.428-.178,1.276,1.276,0,0,0,.6-.347.546.546,0,0,0,.125-.362.592.592,0,0,0-.227-.453,1.9,1.9,0,0,0-.971-.358,8.012,8.012,0,0,0-1.293-.091Z" transform="translate(-236.67 -435.391)" fill="#5e2568"/>
      <path id="Path_41" data-name="Path 41" d="M286.677,547.29l.592,1.223v.117h-4.234a1.987,1.987,0,0,0-.517.038.253.253,0,0,0-.165.146,1.088,1.088,0,0,0-.054.451h-.14v-1.881h.138a1.08,1.08,0,0,0,.054.456.328.328,0,0,0,.138.14,1.929,1.929,0,0,0,.545.038h2.719a4.341,4.341,0,0,0,.7-.031.291.291,0,0,0,.165-.094.326.326,0,0,0,.058-.164.838.838,0,0,0-.125-.375Z" transform="translate(-235.727 -457.224)" fill="#5e2568"/>
      <path id="Path_42" data-name="Path 42" d="M278.628,567.542h-.533v-.672H276.77v-.614h1.325V564.14h.476l3.314,2.319v.411h-3.257Zm0-1.28H281.1l-2.468-1.758Z" transform="translate(-231.224 -471.302)" fill="#5e2568"/>
      <path id="Path_43" data-name="Path 43" d="M39.8,91.042a3.9,3.9,0,0,1-.482.221l-.588-.734c-.082-.086-.184-.186-.316-.3l-1.659.823c-.569.329-.987.589-1.289.742l-.165.082c-.184.081-.629.329-1.343.721l-.165.115-.56.273-.551.329-.28.165a8.777,8.777,0,0,0-.848.532.915.915,0,0,0-.135.143.9.9,0,0,0,.035.13c.023.036.036.094.059.13a4.986,4.986,0,0,0,.235.584l.026.117a1.753,1.753,0,0,1,.1.29.952.952,0,0,1-.237.142.561.561,0,0,1-.232.082c-.054-.071-.137-.2-.225-.344s-.146-.267-.184-.319c-.23-.56-.426-.966-.56-1.226-.076-.114-.122-.232-.193-.355a3.055,3.055,0,0,0-.165-.329c-.072-.145-.28-.481-.635-1.007a1.465,1.465,0,0,1-.183-.268,4.255,4.255,0,0,1-.209-.415.988.988,0,0,0,.189-.122c.084-.026.173-.071.291-.117l.813,1.057a.221.221,0,0,0,.262.03l.224-.145L30.947,92l.278-.146.225-.12.049-.02a.165.165,0,0,1,.112-.074l.823-.453c.076-.046.128-.087.176-.109l.2-.1c.071-.026.151-.072.225-.109s.214-.137.443-.267c-.041-.132-.089-.249-.118-.329l-.527-.973-.262-.464L31.94,87.66l-.658-1.116a2.757,2.757,0,0,0-.306-.444c-.153.074-.515.263-1.093.576l-.295.142-1.081.64-.406.316a.22.22,0,0,0-.043.143,4.674,4.674,0,0,0,.2,1.035,2.567,2.567,0,0,1,.058.268,1.552,1.552,0,0,1-.395.155.53.53,0,0,1-.1-.165l-.344-.62a9.143,9.143,0,0,0-.594-1.259c-.048-.1-.092-.165-.123-.227l-.494-.823a1.011,1.011,0,0,0-.13-.209,2.489,2.489,0,0,1-.314-.451c-.067-.123-.137-.267-.219-.454a3.9,3.9,0,0,1,.467-.227c.3.349.507.583.6.676a2.428,2.428,0,0,0,.357.276l.138-.035.13-.058.146-.1.094-.043a1.519,1.519,0,0,0,.216-.089l.165-.092c.184-.109.295-.174.319-.193l.823-.456.6-.352.823-.438c.2-.1.574-.329,1.152-.658l.918-.52.76-.418c.143-.09.314-.165.523-.276a1.577,1.577,0,0,0-.077-.291,5.34,5.34,0,0,1-.239-1.057l.453-.273c.092.173.153.273.165.3a8.138,8.138,0,0,1,.362.729,16.561,16.561,0,0,0,.889,1.731,13.438,13.438,0,0,0,.834,1.325.737.737,0,0,1,.086.245,1.973,1.973,0,0,1-.464.181l-.387-.433-.355-.462A2.187,2.187,0,0,1,34.936,84a18.9,18.9,0,0,0-1.771.9l-.571.273a6.626,6.626,0,0,1-.783.51,4.856,4.856,0,0,0,.25.523l1.646,3.018.023.071.013.041a.57.57,0,0,1,.063.1c.067.107.12.207.174.285l.092.183a.988.988,0,0,0,.2.248l.494-.24.082-.041a1.948,1.948,0,0,1,.214-.138l2-1.112c.109-.064.222-.133.329-.207l.012-.076-.383-1.052c-.02-.059-.026-.1-.035-.118a.374.374,0,0,1-.01-.183c.082-.071.15-.114.178-.138l.25-.1c.087.165.165.286.224.4s.1.193.143.265a.918.918,0,0,1,.046.122l.482.93c.1.225.255.537.467.92l.084.143c.117.176.176.276.2.3C39.228,90.066,39.473,90.473,39.8,91.042ZM33.556,79.157a6.6,6.6,0,0,0-.247-1.005l-.107-.286c-.1-1.162-.178-1.884-.214-2.185a.949.949,0,0,0-.176.015c-.072.016-.184.031-.357.066v.53a1.384,1.384,0,0,1-.089.675.341.341,0,0,1-.262.146,1.6,1.6,0,0,1-.54-.063c-.954-.178-1.562-.293-1.822-.369L29.311,73.9l1.346-.8.658-.4a.566.566,0,0,1,.2-.067.25.25,0,0,1,.165.046,1.317,1.317,0,0,1,.206.4l.309.782a2.9,2.9,0,0,0,.494-.053l-.064-.354-.257-1.233c-.041-.165-.094-.449-.151-.823-.051-.349-.1-.734-.137-1.185s-.072-.838-.127-1.193a1.259,1.259,0,0,0-.165.018c-.071.015-.2.046-.355.092a2.819,2.819,0,0,0-.054.673,1,1,0,0,1-.084.456,1.346,1.346,0,0,1-.329.28,8.045,8.045,0,0,1-.877.536c-.434.252-.75.436-.956.566-.362.229-.823.509-1.382.823s-1.152.68-1.731,1.063l-2.8,1.743-.123.086.038.329c.031.146.056.3.089.466l4.814,1.009,4.1.859a1.329,1.329,0,0,1,.469.24,2.139,2.139,0,0,1,.291.658c.087.219.155.377.194.462l.51-.066Zm-4.619-2.633c-.165-1.152-.267-1.81-.3-2.018l-.03-.176c-.425.209-.89.477-1.435.8s-.938.586-1.229.783Zm3.209-10.167c.059-.737.125-1.359.2-1.888l.206-1.239a8.987,8.987,0,0,0,.1-1.251,5.359,5.359,0,0,0-.2-1.349,2.688,2.688,0,0,0-.56-.966,1.792,1.792,0,0,0-.658-.551,3.028,3.028,0,0,0-.987-.329,2.159,2.159,0,0,0-1.554.362,3.007,3.007,0,0,0-1.152,1.562A5.646,5.646,0,0,0,27.19,59.7,2.208,2.208,0,0,0,26.634,59a1.81,1.81,0,0,0-.782-.308,2.655,2.655,0,0,0-.78.025,1.748,1.748,0,0,0-.7.329,1.868,1.868,0,0,0-.568.568,2.888,2.888,0,0,0-.329.563,4.962,4.962,0,0,0-.344,1.195l-.063.464c-.041.211-.048.329-.059.383a.912.912,0,0,0-.013.179l-.036.283-.258,2.4-.2,1.646.523.054c.1-.377.165-.614.193-.708a.808.808,0,0,1,.15-.423c.031-.03.048-.054.079-.061a1.982,1.982,0,0,1,.693.025c1.371.165,2.213.262,2.546.308l3.114.421a7.7,7.7,0,0,1,1.193.234,1.316,1.316,0,0,1,.314.176,3.75,3.75,0,0,1,.077.792c0,.165,0,.311,0,.429l.591.105c.1-.958.155-1.521.173-1.733Zm-5.25-2.45a6.684,6.684,0,0,0,.137-.688,2.9,2.9,0,0,0-.165-1.725,1.586,1.586,0,0,0-1.317-.757A1.53,1.53,0,0,0,24.3,61.1a2.439,2.439,0,0,0-.7,1.539c-.013.207-.03.494-.03.823.117.025.272.043.485.066.423.035,1,.107,1.751.206l.62.115a3.755,3.755,0,0,1,.469.051Zm4.675.55a2.366,2.366,0,0,0,.329-.862,3.031,3.031,0,0,0-.061-1.394,1.7,1.7,0,0,0-.594-.871,2.656,2.656,0,0,0-1.1-.4,2.327,2.327,0,0,0-1.172.1,1.894,1.894,0,0,0-.912.782,4.278,4.278,0,0,0-.41,1.532,1.517,1.517,0,0,0-.023.647l.9.118,1.081.186,1.688.214A.946.946,0,0,0,31.571,64.457Zm2.414-7.6c.148-.476.267-.841.354-1.088l.518-1.206c.267-.525.421-.811.456-.874a1,1,0,0,0,.091-.165,1.808,1.808,0,0,1,.089-.253.617.617,0,0,1,.053-.146,1.332,1.332,0,0,0-.237-.1,1.681,1.681,0,0,0-.351-.114c-.132.224-.209.36-.234.392a4.147,4.147,0,0,1-.433.719.349.349,0,0,1-.165-.044l-.26-.1-1.377-.555-.9-.388-1.81-.726c-.421-.165-1.009-.413-1.776-.737a5.025,5.025,0,0,1-.494-.165,2.848,2.848,0,0,1-.494-.257,3.611,3.611,0,0,1,.064-.658c.035-.253.059-.494.069-.7-.117-.054-.225-.1-.3-.142l-.217-.071c-.033.09-.1.3-.216.634-.2.614-.355,1.061-.467,1.317-.025.059-.1.212-.2.449l-.861,1.939.6.229c.035-.056.071-.143.112-.229a3.166,3.166,0,0,1,.543-.857,1.866,1.866,0,0,1,.245.043l.3.1.795.3.355.165.908.352c.028.008.494.214,1.386.6l.38.143,1.555.642.81.329A1.17,1.17,0,0,1,33.4,56a2.765,2.765,0,0,1-.033.764c-.038.232-.054.4-.072.505l.507.2c.028-.087.092-.291.183-.607Zm3.11-6.808c.4-.622.747-1.152,1.066-1.58l.759-.987a8.106,8.106,0,0,0,.681-1.071,6.011,6.011,0,0,0,.457-1.266,3.178,3.178,0,0,0-.038-1.127,2.043,2.043,0,0,0-.329-.8,3.68,3.68,0,0,0-.714-.75,2.2,2.2,0,0,0-1.554-.4,3.111,3.111,0,0,0-1.749.839,7.915,7.915,0,0,0,.165-1.065,2.139,2.139,0,0,0-.178-.874,1.81,1.81,0,0,0-.546-.637,2.157,2.157,0,0,0-.685-.346,1.929,1.929,0,0,0-.77-.058,2.439,2.439,0,0,0-.77.25,4.516,4.516,0,0,0-.553.346,4.377,4.377,0,0,0-.856.892L31.2,41.8c-.135.165-.2.273-.239.318a.586.586,0,0,0-.1.145L30.7,42.5,29.333,44.5l-.941,1.361.444.3.5-.541a.953.953,0,0,1,.329-.3.147.147,0,0,1,.109-.018,3.524,3.524,0,0,1,.6.342c1.129.783,1.833,1.269,2.083,1.465l2.561,1.832a11.044,11.044,0,0,1,.951.772,1.3,1.3,0,0,1,.189.3,2.857,2.857,0,0,1-.3.736c-.071.15-.135.286-.183.393l.469.354c.52-.777.844-1.262.953-1.428Zm-3.487-4.634a4.588,4.588,0,0,0,.439-.54,2.961,2.961,0,0,0,.658-1.6,1.6,1.6,0,0,0-.813-1.287,1.522,1.522,0,0,0-1.267-.265,2.414,2.414,0,0,0-1.341,1.032,7.957,7.957,0,0,0-.415.718c.094.074.224.155.392.28.355.23.841.556,1.438,1l.494.38C33.3,45.192,33.421,45.281,33.608,45.413Zm3.872,2.7a2.261,2.261,0,0,0,.683-.612,3.082,3.082,0,0,0,.6-1.257,1.562,1.562,0,0,0-.118-1.05,2.423,2.423,0,0,0-.787-.876,2.12,2.12,0,0,0-1.083-.451,1.873,1.873,0,0,0-1.168.257,4.759,4.759,0,0,0-1.08,1.152,2.14,2.14,0,0,0-.329.56l.736.533.884.658L37.206,48a.727.727,0,0,0,.273.107Zm7.656-18.379q.795-.316,1.033-.165a4.732,4.732,0,0,1,.693,1.244l1.422,3.219a10.039,10.039,0,0,0,.737,1.392,2.918,2.918,0,0,0,1.057.953,2.87,2.87,0,0,0,1.46.229,5.352,5.352,0,0,0,1.922-.515,6.015,6.015,0,0,0,1.511-.927,3.785,3.785,0,0,0,.917-1.042,2.822,2.822,0,0,0,.365-1.071A2.424,2.424,0,0,0,56.2,32.2a13.207,13.207,0,0,0-.731-1.888l-.676-1.343c-.155-.329-.314-.658-.469-.969a1.389,1.389,0,0,1-.137-.276,3.91,3.91,0,0,1-.165-.374c-.122-.273-.224-.466-.283-.576a2.324,2.324,0,0,1-.181-.347.319.319,0,0,1-.021-.286A2.336,2.336,0,0,1,54,25.825a2.715,2.715,0,0,0,.494-.316.494.494,0,0,0-.061-.193,1.06,1.06,0,0,0-.165-.29l-.118.033a11.882,11.882,0,0,1-1.229.614L51.6,26.19l-.535.232.216.528.1-.021L52,26.634a.843.843,0,0,1,.6,0c.118.046.239.206.379.471l.188.329c.732,1.317,1.336,2.51,1.81,3.6a5.854,5.854,0,0,1,.494,1.443,3.3,3.3,0,0,1-.036.846,1.368,1.368,0,0,1-.237.566,2.167,2.167,0,0,1-.479.589,5.279,5.279,0,0,1-1.137.7,2.654,2.654,0,0,1-1.238.212,1.712,1.712,0,0,1-.861-.29,2.867,2.867,0,0,1-.872-1.08l-.836-1.646-.494-1.188-.273-.523-.267-.639-.12-.244c-.046-.086-.1-.2-.165-.341a2.736,2.736,0,0,1-.286-.841.732.732,0,0,1,.446-.374,5.615,5.615,0,0,0,.755-.4l-.013-.051-.191-.393L49.12,27.3a4.363,4.363,0,0,1-.537.247c-.267.123-.564.272-.9.446s-.694.329-1.052.484c-.107.048-.462.193-1.07.421-.245.1-.494.2-.721.3-.082.044-.165.081-.252.127l.263.523A1.317,1.317,0,0,0,45.136,29.733Zm15.377-5.342a1.712,1.712,0,0,1,.588.37.658.658,0,0,1,.178.295,4.025,4.025,0,0,1,.15,1.18l.082,1.5.074,2.393v.425c0,.165.02.645,0,1.432,0,.265-.021.434-.109.494a1.759,1.759,0,0,1-.727.12h-.291a2.124,2.124,0,0,0-.342.041v.272c0,.089.021.184.021.3a1.265,1.265,0,0,0,.258.021l.425-.039c.262-.026.785-.067,1.568-.107.839.056,1.346.081,1.5.067l.291-.02-.054-.619a1.481,1.481,0,0,0-.2-.043,5.966,5.966,0,0,1-1.257-.114c-.044-.1-.077-.178-.1-.222a2.176,2.176,0,0,1-.035-.275c-.063-.471-.107-.9-.138-1.307l-.082-.961v-.523c0-.178,0-.342-.016-.51l-.173-2.743,1.239,1.048c.512.426,1.078.93,1.71,1.5l.953.92L67.32,30.5l1.853,1.716.925.882.841-.061-.02-.395c0-.04-.015-.165-.041-.359l.013-.4-.04-.39-.031-.9a3.011,3.011,0,0,0-.023-.4l-.165-2.589c0-.165-.028-.318-.035-.444-.053-.416-.089-.987-.12-1.7-.012-.329-.028-.53-.028-.622-.023-.183-.031-.281-.031-.313a.452.452,0,0,1,.059-.275,3.759,3.759,0,0,1,.374-.283,3.177,3.177,0,0,1,.541-.165,1.094,1.094,0,0,0,.329-.148l-.028-.481c-.1,0-.188.008-.308.018l-1.6.105-1.456.089-.176.033v.436a2.3,2.3,0,0,0,.6.151,1.357,1.357,0,0,1,.729.224c.072.064.109.253.122.574,0,.105.056.474.127,1.111a10.051,10.051,0,0,1,.082,1.108c.031.408.059.76.091,1.052s.064.694.1,1.2l.056.854v.184c-3.1-2.887-4.9-4.558-5.4-5.044s-1.139-1.061-1.929-1.723h-.23c-.053,0-.186.012-.456.035s-.41.026-.451.035a1.17,1.17,0,0,1-.165-.008c-.295,0-.451.008-.522.008-.105,0-.329.015-.614.043H60.09l-.645.033.054.517a5.479,5.479,0,0,1,1.014.179Zm13.781,9.1c.494.077.867.142,1.127.2l1.269.329c.556.189.859.314.928.339a1.261,1.261,0,0,0,.181.066c.016,0,.127.02.273.053a.82.82,0,0,1,.133.025c.036-.107.054-.184.079-.244a2.839,2.839,0,0,0,.051-.364c-.23-.1-.377-.151-.411-.178a5.43,5.43,0,0,1-.78-.329.493.493,0,0,1,.026-.165l.067-.28.346-1.435.257-.954.467-1.9c.1-.439.267-1.052.485-1.855.018-.138.059-.3.1-.517a3.171,3.171,0,0,1,.165-.532c.165,0,.4-.025.658-.015s.494-.01.709-.02c.035-.137.064-.24.089-.329a1.4,1.4,0,0,0,.048-.224c-.1-.023-.311-.059-.658-.12-.635-.123-1.093-.211-1.371-.281l-.477-.133-2.021-.6-.135.647a1.345,1.345,0,0,0,.244.082,2.962,2.962,0,0,1,.925.416,1.591,1.591,0,0,1,0,.239l-.076.316-.173.823-.115.377-.235.956c0,.03-.137.513-.4,1.458l-.1.388-.411,1.629-.211.856a1.387,1.387,0,0,1-.281.578,2.864,2.864,0,0,1-.772.076H73.8l-.13.517Zm9.5-6.765a2.407,2.407,0,0,1,.517.415.839.839,0,0,1,.13.369c0,.076-.016.624-.077,1.632l-.2,2.174-.245,3.423c-.114.987-.176,1.549-.209,1.71s-.046.314-.064.472a2.8,2.8,0,0,0,.351.193,1.743,1.743,0,0,0,.329.165c.219-.184.587-.535,1.108-1.047l.132-.082c.408-.36.658-.566.717-.622.244-.224.494-.426.693-.609a7.765,7.765,0,0,0,.615-.53l1.99-1.711a18.778,18.778,0,0,1,1.684-1.363.987.987,0,0,1,.3-.123,6.992,6.992,0,0,1,1.206.118,1.2,1.2,0,0,0,.122-.242l.125-.211c-.165-.076-.392-.165-.658-.28a8.1,8.1,0,0,1-.956-.436c-.357-.2-.7-.4-1.061-.637s-.576-.372-.647-.41a2.5,2.5,0,0,0-.186.288.824.824,0,0,0-.064.23c.064.051.155.1.244.165a1.358,1.358,0,0,1,.22.165,1.423,1.423,0,0,1,.52.513.278.278,0,0,1,.021.285,1.7,1.7,0,0,1-.377.434c-.179.165-.431.41-.759.726a2.952,2.952,0,0,1-.225.234l-.438.36-1.9,1.739-.884.732c.046-.354.081-.732.105-1.142l.165-2.077a17.873,17.873,0,0,1,.2-2.212l.1-.676a.287.287,0,0,1,.059-.153.253.253,0,0,1,.15-.132,1,1,0,0,1,.545.023c.077.016.355.118.813.291.023-.036.105-.224.267-.54l-.469-.255c-.165-.054-.39-.148-.688-.28-.41-.181-.676-.311-.8-.385a21.191,21.191,0,0,1-2.069-1.21c-.053-.025-.183-.11-.395-.234l-.306.568Zm11.859,6.912c.084.091.137.183.214.253a4.606,4.606,0,0,1,.494.658c.043.069.094.14.117.184a.342.342,0,0,1,.074.235,1.309,1.309,0,0,0-.091.117l-.619.671-.6.578-.823.848-.612.571-1.993,1.95-.153.153c-.155.146-.257.25-.306.306a1.57,1.57,0,0,1-.448.318,4.326,4.326,0,0,1-.9-.6,4.376,4.376,0,0,0-.457-.347l-.367.365.647.619.212.221c.643.588,1.152,1.089,1.575,1.521.823.849,1.517,1.59,2.069,2.222.8.9,1.3,1.438,1.481,1.646.132.128.329.311.548.532l.7-.494,1.188-.778.2-.118a2.015,2.015,0,0,1,.248-.2,2.2,2.2,0,0,0-.179-.173,2.138,2.138,0,0,0-.278-.26,3.739,3.739,0,0,1-1.568.367,1.81,1.81,0,0,1-.969-.3,8.921,8.921,0,0,1-1.326-1.152,6.019,6.019,0,0,1-1.183-1.443.408.408,0,0,1,.133-.423L93.823,40.6c.293-.273.642-.607,1.053-1.017a1.517,1.517,0,0,1,.183-.174c.295.239.694.63,1.215,1.152a6.263,6.263,0,0,1,.726.823.527.527,0,0,1,.059.349,2.986,2.986,0,0,1-.441.788,4.459,4.459,0,0,0-.265.406l.367.385.114-.107c.107-.105.267-.258.448-.469.209-.216.352-.377.448-.462s.165-.148.26-.237.355-.329.724-.688c.165-.165.4-.392.7-.722l-.308-.3-.082-.074a7.183,7.183,0,0,1-.956.569.721.721,0,0,1-.39.056,1.729,1.729,0,0,1-.587-.4c-.286-.248-.737-.681-1.336-1.308-.064-.067-.13-.151-.207-.248l.658-.642.9-.851c.6-.591.953-.922,1.037-1.015.337.329.717.711,1.137,1.152.369.372.7.744.987,1.1.165.209.263.319.291.355a1.948,1.948,0,0,1,.291.383,3.4,3.4,0,0,1-.165.81l-.173.591c-.081.194-.146.329-.189.438a2.531,2.531,0,0,0,.165.2l.222.207c.046-.044.1-.074.1-.089l.212-.222,1.112-1.066a.51.51,0,0,0,.176-.36,7.766,7.766,0,0,0-.836-1.033l-.938-.956c-.617-.658-1.317-1.338-2.123-2.1-.53-.512-.846-.823-.968-.956a9.495,9.495,0,0,1-.889-1.03c-.114-.165-.28-.354-.462-.578ZM97.386,48.4a2.139,2.139,0,0,0-.224.123l.165.286a7.246,7.246,0,0,0,.4.736l.522.889c.025.048.066.132.128.248.084.173.308.757.691,1.749l.142.273c.01.026.035.076.077.165a3.724,3.724,0,0,0,.517-.214,6.546,6.546,0,0,0-.194-1.019,1.834,1.834,0,0,1-.067-.571l1.277-.561,1.453-.755a4.185,4.185,0,0,1,.466-.2c.107.2.186.359.239.446a1.45,1.45,0,0,1,.194.749,3.047,3.047,0,0,1-.509.823c-.706.935-1.228,1.6-1.562,2-.122.165-.313.41-.545.759l-.329.42a2.741,2.741,0,0,0,.165.286c.156.255.239.4.262.446l.329.671c.1.206.176.388.237.541l.125.265.122.365.086.132.071.176a.607.607,0,0,0,.165-.067.679.679,0,0,0,.176-.133,2.128,2.128,0,0,0,0-.564,2.323,2.323,0,0,1,0-.63,6.329,6.329,0,0,1,.541-.91l1.213-1.906c.125-.194.285-.459.448-.77.089-.15.165-.272.239-.374a2.8,2.8,0,0,0,1.47.918,2.121,2.121,0,0,0,1.415-.165,2.31,2.31,0,0,0,1.206-1.578,3.483,3.483,0,0,0-.362-2.5,17.733,17.733,0,0,0-.877-1.608l-.446-.8-.184-.346c-.02-.026-.086-.207-.225-.538-.165-.3-.258-.513-.309-.606a3.824,3.824,0,0,0-.347-.6l-.084.013-.392.2c.041.13.143.383.285.755l.107.423c-.248.14-.833.439-1.748.89-.425.206-.867.418-1.356.642l-.367.165-.62.318-.813.369-1.465.729c-.372.176-.581.278-.645.3a1.434,1.434,0,0,1-.219.044,3.569,3.569,0,0,1-.441-.541,1.415,1.415,0,0,0-.39-.441,1.151,1.151,0,0,0-.206.076Zm5.97.823c.086.224.165.372.2.472a2.69,2.69,0,0,0,1.19,1.41,1.47,1.47,0,0,0,1.317-.058,2.723,2.723,0,0,0,.714-.494A1.57,1.57,0,0,0,107.2,50a1.975,1.975,0,0,0,.082-.838,3.786,3.786,0,0,0-.367-.987,2.51,2.51,0,0,0-.3-.5l-.123.044-.877.448-.564.247-.721.365c-.206.084-.466.211-.8.357Zm8.673,12.028a5.665,5.665,0,0,0-.079-1.056,3.4,3.4,0,0,0-1.285-2.286,2.7,2.7,0,0,0-2.111-.443,3.01,3.01,0,0,0-1.142.528,2.61,2.61,0,0,0-.836,1.012,7.939,7.939,0,0,0-.479,2.014,6.068,6.068,0,0,1-.433,1.789,1.42,1.42,0,0,1-.9.691,1.491,1.491,0,0,1-.875-.135,1.573,1.573,0,0,1-.688-.648,2.711,2.711,0,0,1-.349-.838,2.236,2.236,0,0,1-.008-.843,1.734,1.734,0,0,1,.225-.721,2.952,2.952,0,0,1,.494-.612,9.651,9.651,0,0,1,.9-.64l-.143-.658-.278.051c-.127.025-.344.074-.658.138-.6.143-.925.217-.987.221l-.079.023c-.064.03-.112.059-.118.092a1.588,1.588,0,0,0-.094.494l-.092.925A6.874,6.874,0,0,0,102.1,61.6a4.514,4.514,0,0,0,.38,1.234,3.641,3.641,0,0,0,.609.864,4.619,4.619,0,0,0,.648.583,2.055,2.055,0,0,0,.747.313,3.821,3.821,0,0,0,1.4-.01,3.058,3.058,0,0,0,1.007-.364,2.943,2.943,0,0,0,.752-.755,3.107,3.107,0,0,0,.443-1.083,6.87,6.87,0,0,0,.2-1.152,4.268,4.268,0,0,1,.482-1.894,1.372,1.372,0,0,1,.823-.589,1.221,1.221,0,0,1,1,.235,1.713,1.713,0,0,1,.6,1.035,1.772,1.772,0,0,1-.344,1.419,3.879,3.879,0,0,1-1.168.889V62.4l.076.535.03.069a1.48,1.48,0,0,0,.281-.016,11.059,11.059,0,0,0,1.152-.314c.319-.112.563-.2.721-.278a9.287,9.287,0,0,0,.1-1.16Zm-9.112,6c.046.494.058.884.058,1.14l-.043,1.317c-.069.586-.105.918-.11.987a1.526,1.526,0,0,0-.033.184c0,.025,0,.118.013.283V71.3c.115.012.2.025.25.025.1,0,.232-.013.369-.025.046-.262.069-.416.069-.456a7.446,7.446,0,0,1,.15-.823c.076-.008.132-.015.165-.015h.286l1.481.021.987.033,1.96.021c.444.01,1.084.026,1.922.061a4.007,4.007,0,0,1,.507-.012,2.371,2.371,0,0,1,.561.049,5.425,5.425,0,0,1,.189.63,3.716,3.716,0,0,0,.178.676c.125.013.232.026.316.026h.235c0-.1-.012-.329-.026-.681-.038-.658-.038-1.111-.038-1.4a4.284,4.284,0,0,1,.03-.494l.119-2.108h-.647a1.185,1.185,0,0,0-.03.263,2.847,2.847,0,0,1-.188.987,1.664,1.664,0,0,1-.247.048h-.314l-.843.015-.388-.028h-.987c-.028,0-.523-.031-1.5-.081h-.4l-1.687-.051H104.4a1.28,1.28,0,0,1-.629-.143,3,3,0,0,1-.235-.729c-.053-.232-.089-.387-.117-.494l-.54-.008a4.94,4.94,0,0,0,.033.62Zm9.025,8.294a14.719,14.719,0,0,1-1.708-1.112,1.669,1.669,0,0,0-.383.354c-.013.064.039.165.146.329a4.561,4.561,0,0,1,.729,1.175,2.351,2.351,0,0,1-.112.931,12.9,12.9,0,0,1-.43,1.435.118.118,0,0,1-.058.086.136.136,0,0,1-.112.021,12.156,12.156,0,0,1-1.364-.323l-2.71-.7c-1.252-.329-2.148-.586-2.724-.772a1.078,1.078,0,0,1-.329-.183,7.308,7.308,0,0,1-.043-1.121,1.052,1.052,0,0,0-.137-.671l-.063-.012-.165-.041c-.036,0-.1-.025-.165-.038-.023.087-.064.26-.112.538-.13.709-.219,1.144-.248,1.287-.244.9-.421,1.521-.553,1.853a11.6,11.6,0,0,0-.39,1.241,2.148,2.148,0,0,1-.066.262c.082.033.137.058.184.071a2.63,2.63,0,0,0,.314.038,2.743,2.743,0,0,0,.219-.346,2.993,2.993,0,0,0,.248-.494,2.43,2.43,0,0,1,.214-.395,2,2,0,0,1,.765.109l.936.25,2.268.589,2.092.563.974.26a2.532,2.532,0,0,1,.444.151,5.1,5.1,0,0,1-.11.51,14.154,14.154,0,0,1-.441,1.494.417.417,0,0,1-.165.174,3.974,3.974,0,0,1-.658.12,4.507,4.507,0,0,0-.907.2,2.58,2.58,0,0,0-.033.535,2.588,2.588,0,0,0,.329.122l.362.1.629.176c.676.165,1.172.291,1.491.375.03-.091.044-.165.064-.211l.082-.313a1.35,1.35,0,0,0-.176-.125,1.44,1.44,0,0,1-.29-.286l.053-.444.591-2.212.434-1.609.235-.875.026-.135c.076-.288.165-.614.267-.987.148-.586.244-.908.268-.971a3.383,3.383,0,0,1,.545-.184.493.493,0,0,0,.142-.04l.118-.441C112.36,75.8,112.189,75.695,111.942,75.548Zm-4.032,12.52c-.028-.025-.072-.051-.089-.064a.716.716,0,0,0-.112-.038c-.293.295-.451.448-.494.484a1.007,1.007,0,0,1-.28.135c-.454.031-.711.054-.759.054l-1.285-.023-2.641.018a3,3,0,0,0-.439.028,1.818,1.818,0,0,1-1.163-.165l-.143-.089c-.039-.028-.176-.11-.406-.257s-.658-.431-1.3-.834l-.357-.237c.015-.053.023-.114.038-.181l.509-1.3c-.084-.058-.146-.1-.194-.13a1.051,1.051,0,0,0-.2-.114l-.278.423a3.01,3.01,0,0,0-.267.494,1.113,1.113,0,0,1-.156.295l-.329.515-.448.7-.313.444-.494.627-.494.708a1.994,1.994,0,0,0,.165.118.716.716,0,0,0,.143.105.143.143,0,0,0,.153.026,2.7,2.7,0,0,0,.53-.6c.165-.181.267-.3.329-.355a.412.412,0,0,1,.11-.023l1.6,1.012a2.285,2.285,0,0,1,.318.227l.165.107.533.355.191.127a.839.839,0,0,1,.153.239c.15.285.393.9.744,1.81l.681,1.6a4.835,4.835,0,0,1,.533,1.415,2.252,2.252,0,0,1-.237.861l-.023.1.457.3a1.176,1.176,0,0,1,.1-.179c.13-.227.217-.406.29-.558l.064-.1.193-.3a.531.531,0,0,1,.118-.137l.889-1.236a4.374,4.374,0,0,0-.482-.253c-.04.039-.094.1-.165.173a1.809,1.809,0,0,1-.2.212,1.328,1.328,0,0,1-.2.252.568.568,0,0,1-.165.1.819.819,0,0,1-.132-.049.956.956,0,0,1-.193-.285l-.587-1.139,0-.067c-.3-.673-.505-1.208-.645-1.6l-.494-1.221a3.145,3.145,0,0,1,.446-.018h.535a1.154,1.154,0,0,1,.153,0c.476.018.737.025.8.018h.778a10.787,10.787,0,0,1,1.94.025l.079.067v.051c-.091.2-.156.342-.209.462l-.125.3a1.705,1.705,0,0,0-.13.4l.308.211a.807.807,0,0,0,.148.046l.031-.046a.634.634,0,0,0,.044-.1,9.045,9.045,0,0,1,.568-1.01c.211-.306.481-.7.869-1.2a5.791,5.791,0,0,1,.382-.477l.033-.076c.025-.038.077-.1.156-.2l.053-.053a3.664,3.664,0,0,0,.454-.808A1.885,1.885,0,0,1,107.91,88.069Z" transform="translate(-18.797 -19.365)" fill="#fff" fill-rule="evenodd"/>
    </g>
    <g id="Group_1474" data-name="Group 1474" transform="translate(268.744 65.895)">
      <path id="Path_97" data-name="Path 97" d="M192.269,0H0" transform="translate(0 32.04)" fill="none" stroke="#fff" stroke-width="0.6"/>
      <g id="Group_1473" data-name="Group 1473" transform="translate(0.76 0)">
        <path id="Path_44" data-name="Path 44" d="M614.541,148.48c.694,0,1.99.087,4.066.087,2.133,0,3.268-.087,4.036-.087a1.434,1.434,0,0,1-.029.923,9.483,9.483,0,0,0-1.355.26c-.577.2-.721.519-.75,1.413-.029,1.269-.029,2.941-.029,4.931a.357.357,0,0,0,.144.231,36.6,36.6,0,0,0,4.123.058c2.249,0,3.259,0,3.6-.029.058-.029.173-.115.173-.192,0-1.442,0-3.979-.057-5.392a.949.949,0,0,0-.606-.952,6.094,6.094,0,0,0-1.586-.317,1.038,1.038,0,0,1,0-.923c1.038,0,2.134.087,4.123.087,2.076,0,3.229-.087,3.921-.087a1.141,1.141,0,0,1,0,.923,6.682,6.682,0,0,0-1.413.288c-.548.2-.721.49-.75,1.413-.057,1.615-.057,3-.057,6.516,0,2.1,0,4.671.057,5.853.057.779.173,1.211.692,1.384a8.326,8.326,0,0,0,1.817.346,1.373,1.373,0,0,1-.115.961c-.778,0-2.278-.087-4.152-.087-1.759,0-3.46.087-4.123.087a1.226,1.226,0,0,1-.029-.961,7.206,7.206,0,0,0,1.471-.26c.519-.144.75-.49.779-1.384.029-1.182.029-3.575.029-5.45a.192.192,0,0,0-.173-.2c-.548-.029-2.335-.029-3.691-.029-2.97.029-3.922.029-4.094.087a.49.49,0,0,0-.087.173c0,1.73,0,4.123.029,5.19.029.894.144,1.355.836,1.557a11.085,11.085,0,0,0,1.643.317,1.354,1.354,0,0,1-.115.961c-.548,0-1.9-.087-4.3-.087-2.047,0-3.487.087-4.095.087a1.573,1.573,0,0,1,0-.961c.665-.087.98-.144,1.386-.231.769-.2.95-.663,1.007-1.932.029-.606.058-3.2.058-5.738,0-2.8-.029-5.507-.058-6.257-.057-.894-.192-1.211-.769-1.355a9.289,9.289,0,0,0-1.584-.288A1.405,1.405,0,0,1,614.541,148.48Z" transform="translate(-614.408 -146.779)" fill="#fff"/>
        <path id="Path_45" data-name="Path 45" d="M731.293,181a2.448,2.448,0,0,0-2.047-.952,2.158,2.158,0,0,0-1.326.346,8.94,8.94,0,0,0-1.038,1.845c-.116.115-1.009-.317-.98-.519a5.884,5.884,0,0,1,.634-1.816,9.74,9.74,0,0,1,4.267-1.759,3.739,3.739,0,0,1,3.229,1.672,5.1,5.1,0,0,1,.719,2.912c0,1.384-.085,3.374-.085,4.527,0,.577.192,1.124.892,1.124a2.882,2.882,0,0,0,.98-.144,3.294,3.294,0,0,1-.144,1.067,4.416,4.416,0,0,1-2.884,1.067,1.637,1.637,0,0,1-1.672-.836l-.173-.548c0-.058-.087-.058-.116-.058a7.813,7.813,0,0,1-3.287,1.442,2.486,2.486,0,0,1-1.673-.692,3.827,3.827,0,0,1-1.1-2.768,5.3,5.3,0,0,1,.49-1.7c.894-.49,4.421-1.326,5.479-1.817a.514.514,0,0,0,.231-.317,3.153,3.153,0,0,0,.029-.519A2.773,2.773,0,0,0,731.293,181Zm.288,3.316a20.866,20.866,0,0,0-2.768,1.067,2.36,2.36,0,0,0-.259.951,1.93,1.93,0,0,0,1.932,2.047,1.714,1.714,0,0,0,.922-.26.64.64,0,0,0,.231-.577c.058-.807.058-2.6.058-3.085,0-.023-.086-.138-.115-.138Z" transform="translate(-704.142 -170.745)" fill="#fff"/>
        <path id="Path_46" data-name="Path 46" d="M795.809,148.482a5.7,5.7,0,0,1,1.327,3.748,6.288,6.288,0,0,1-2.451,5.277,9.838,9.838,0,0,1-4.669,1.759,10.652,10.652,0,0,1-2.739-.375,3.15,3.15,0,0,0-1.644,0c-.087.029-.259-.144-.259-.2.086-.98.144-3.172.144-7.237-.029-4.21-.029-7.929-.144-8.939-.058-.461-.144-.663-.635-.807a9.276,9.276,0,0,0-1.24-.2,1.262,1.262,0,0,1,.057-.865,24.022,24.022,0,0,0,5.334-1.009c.086.029.192.384.173.519-.231.4-.317.836-.317,4.267v3.864c.029.086.086.115.144.086a9.92,9.92,0,0,1,3.691-1.326A4.121,4.121,0,0,1,795.809,148.482Zm-6.832.807a.546.546,0,0,0-.2.4c-.058,1.24-.058,4.585.029,6.084a1.707,1.707,0,0,0,.49,1.3,2.988,2.988,0,0,0,2.018.75,1.9,1.9,0,0,0,1.615-.807,5.619,5.619,0,0,0,.892-3.316,5.734,5.734,0,0,0-.923-3.489,2.807,2.807,0,0,0-2.535-1.269A3.461,3.461,0,0,0,788.977,149.289Z" transform="translate(-750.955 -139.63)" fill="#fff"/>
        <path id="Path_47" data-name="Path 47" d="M869.518,168.457c-.577,0-1.586-.087-3.287-.087-1.471,0-2.566.087-3.2.087a1.567,1.567,0,0,1,0-.961,5.114,5.114,0,0,0,1.125-.231c.375-.144.461-.4.491-1.1s.058-2.509.058-3.95c0-1.009-.029-2.134-.029-2.653a1.007,1.007,0,0,0-.231-.692,2.776,2.776,0,0,0-1.211-.663,1.194,1.194,0,0,1,.087-.836,17.793,17.793,0,0,0,4.642-.961c0,1.211-.029,3.287-.029,4.959,0,1.5,0,3.431.029,4.758,0,.75.173.98.548,1.124a6.624,6.624,0,0,0,1.125.231A1.4,1.4,0,0,1,869.518,168.457Zm-2.326-14.186a3.415,3.415,0,0,1-1.874.144,1.7,1.7,0,0,1-.894-1.24,2.051,2.051,0,0,1,.173-1.24,3.318,3.318,0,0,1,1.9-.606,1.623,1.623,0,0,1,1.153.346,1.877,1.877,0,0,1,.26.98A2.221,2.221,0,0,1,867.192,154.271Z" transform="translate(-815.178 -149.081)" fill="#fff"/>
        <path id="Path_48" data-name="Path 48" d="M912.651,148.482a5.7,5.7,0,0,1,1.326,3.748,6.289,6.289,0,0,1-2.451,5.277,9.838,9.838,0,0,1-4.671,1.759,10.653,10.653,0,0,1-2.739-.375,3.15,3.15,0,0,0-1.643,0c-.086.029-.259-.144-.259-.2.086-.98.144-3.172.144-7.237-.029-4.21-.029-7.929-.144-8.939-.058-.461-.144-.663-.634-.807a9.289,9.289,0,0,0-1.24-.2,1.265,1.265,0,0,1,.057-.865,24.027,24.027,0,0,0,5.335-1.009c.086.029.192.384.172.519-.231.4-.317.836-.317,4.267v3.864c.029.086.086.115.144.086a9.918,9.918,0,0,1,3.691-1.326A4.125,4.125,0,0,1,912.651,148.482Zm-6.834.807a.547.547,0,0,0-.192.4c-.058,1.24-.058,4.585.029,6.084a1.709,1.709,0,0,0,.49,1.3,2.989,2.989,0,0,0,2.019.75,1.9,1.9,0,0,0,1.615-.807,5.609,5.609,0,0,0,.894-3.316,5.812,5.812,0,0,0-.923-3.489,2.812,2.812,0,0,0-2.537-1.269A3.46,3.46,0,0,0,905.817,149.289Z" transform="translate(-845.335 -139.63)" fill="#fff"/>
        <path id="Path_49" data-name="Path 49" d="M1006.963,148.48c.894,0,2.566.087,4.181.087,1.7,0,3.143-.087,4.152-.087a1.273,1.273,0,0,1,0,.923c-.519.087-.98.173-1.327.26-.692.144-.923.605-.961,1.538-.057,2.307,0,5.363,0,6.891a17.482,17.482,0,0,0,.346,3.4c.4,1.874,1.9,3.2,4.7,3.2,2.076,0,4.267-.692,4.556-4.815.145-2.163.171-6.286.056-8.3-.056-1.211-.317-1.7-1.267-1.874a12.951,12.951,0,0,0-1.615-.288,1.45,1.45,0,0,1,.029-.923c.892,0,2.1.087,3.545.087,1.874,0,2.739-.087,3.344-.087a1.142,1.142,0,0,1,0,.923,10.994,10.994,0,0,0-1.211.259c-.75.2-.98.663-1.038,2.076-.087,2.6-.144,5.959-.346,7.929-.432,5.219-3.429,6.92-7.408,6.92-5,0-6.8-2.393-7.151-5.305-.26-2.018-.2-7.381-.23-10.15-.029-.75-.231-1.24-.894-1.442a8.666,8.666,0,0,0-1.5-.288A1.533,1.533,0,0,1,1006.963,148.48Z" transform="translate(-931.431 -146.779)" fill="#fff"/>
        <path id="Path_50" data-name="Path 50" d="M1110.887,188.537c.4-.115.548-.519.605-1.1.029-.865.058-3.076.058-4.527,0-.836-.029-1.9-.058-2.278-.058-.288-.288-.663-1.413-1.067a1.71,1.71,0,0,1,.144-.779,15.233,15.233,0,0,0,4.422-1.211.293.293,0,0,1,.115.192c0,.317-.029,1.124-.029,1.615a.1.1,0,0,0,.05.08.1.1,0,0,0,.094.006,6.993,6.993,0,0,1,3.775-1.788,3.281,3.281,0,0,1,2.912,1.528,6.2,6.2,0,0,1,.75,3.4c0,1.7,0,4.21.029,5.161a.6.6,0,0,0,.26.49,3.261,3.261,0,0,0,1.413.433,1.593,1.593,0,0,1-.144.961c-.433,0-1.3-.086-3.143-.086-1.5,0-2.189.058-3.075.086a2.133,2.133,0,0,1,0-.961,7.778,7.778,0,0,0,.922-.173c.346-.144.459-.4.49-.961a50.983,50.983,0,0,0-.117-5.911,2.2,2.2,0,0,0-.834-1.442,2.088,2.088,0,0,0-1.413-.432,3.193,3.193,0,0,0-1.672.548.77.77,0,0,0-.26.634c.029,1.932.029,5.017.057,6.545.029.721.192.894.606,1.009a4.74,4.74,0,0,0,.961.173,1.844,1.844,0,0,1-.086.961c-.894-.029-1.845-.087-3.23-.087-1.759,0-2.566.058-3.114.087a1.775,1.775,0,0,1,0-.961A5.515,5.515,0,0,0,1110.887,188.537Z" transform="translate(-1014.65 -170.285)" fill="#fff"/>
        <path id="Path_51" data-name="Path 51" d="M1194.561,168.457c-.576,0-1.585-.087-3.287-.087-1.471,0-2.566.087-3.2.087a1.579,1.579,0,0,1,0-.961,5.115,5.115,0,0,0,1.125-.231c.384-.144.461-.4.49-1.1s.058-2.509.058-3.95c0-1.009-.03-2.134-.03-2.653a1,1,0,0,0-.23-.692,2.77,2.77,0,0,0-1.211-.663,1.2,1.2,0,0,1,.086-.836,17.79,17.79,0,0,0,4.642-.961c0,1.211-.029,3.287-.029,4.959,0,1.5,0,3.431.029,4.758,0,.75.173.98.548,1.124a6.613,6.613,0,0,0,1.124.231A1.4,1.4,0,0,1,1194.561,168.457Zm-2.333-14.186a3.416,3.416,0,0,1-1.875.144,1.7,1.7,0,0,1-.894-1.24,2.052,2.052,0,0,1,.173-1.24,3.318,3.318,0,0,1,1.9-.606,1.622,1.622,0,0,1,1.153.346,1.878,1.878,0,0,1,.259.98A2.222,2.222,0,0,1,1192.228,154.271Z" transform="translate(-1077.74 -149.081)" fill="#fff"/>
        <path id="Path_52" data-name="Path 52" d="M1223.753,179.83c.836.029,2.134.086,3.316.086,1.413,0,2.393-.058,3.027-.086a1.136,1.136,0,0,1,.058.923,8.991,8.991,0,0,0-1.038.259.312.312,0,0,0-.173.385c.346,1.125,1.846,5.017,2.336,6.2.029.058.086.029.115,0,.548-1.355,1.672-4.152,2.047-5.421.26-.769.058-1.009-.26-1.125a6.081,6.081,0,0,0-1.3-.288,1.405,1.405,0,0,1,.115-.923c.4,0,1.538.086,2.595.086.923,0,1.99-.058,2.537-.086a1.28,1.28,0,0,1-.029.923,7.54,7.54,0,0,0-1.009.231c-.462.173-.769.577-1.154,1.384-.75,1.557-1.787,3.95-2.767,6.4-.462,1.211-.75,2.018-.981,2.71a9.869,9.869,0,0,0-1.845.029c-.231-.75-.548-1.586-.894-2.509-.721-1.961-1.644-4.21-2.192-5.565-.836-1.99-.981-2.22-1.643-2.451a7.188,7.188,0,0,0-1.009-.231A1.908,1.908,0,0,1,1223.753,179.83Z" transform="translate(-1106.499 -172.103)" fill="#fff"/>
        <path id="Path_53" data-name="Path 53" d="M1306.29,187.032a3.368,3.368,0,0,1-.115.894,7.054,7.054,0,0,1-5.075,2.48,5.1,5.1,0,0,1-3.749-1.384,6.532,6.532,0,0,1-1.7-4.7,6,6,0,0,1,2.653-5.19,6.985,6.985,0,0,1,3.345-.952c3.085,0,4.152,2.537,4.383,4.152.028.144.26.288.461.346a1.717,1.717,0,0,1-.192.75,51.959,51.959,0,0,1-7.266.663c-.087,0-.145.173-.145.288a4.136,4.136,0,0,0,1.125,2.537,3.715,3.715,0,0,0,2.854,1.1,5.114,5.114,0,0,0,3.316-1.153C1306.2,186.888,1306.29,186.945,1306.29,187.032Zm-7.439-4.383c0,.029.058.173.173.173a29.3,29.3,0,0,0,3.652-.115.319.319,0,0,0,.193-.259c-.145-1.7-.865-3.143-2.115-3.143-1.1-.006-1.876,1.384-1.9,3.345Z" transform="translate(-1164.698 -170.77)" fill="#fff"/>
        <path id="Path_54" data-name="Path 54" d="M1367.5,178.474a1.968,1.968,0,0,1,0,.577,9.811,9.811,0,0,1-1.154,2.364.52.52,0,0,1-.346.087,3.321,3.321,0,0,0-2.163-1.125,1.538,1.538,0,0,0-1.067.606,1.149,1.149,0,0,0-.173.605c-.029,1.643,0,5.277.029,5.709.058.75.144,1.009.721,1.153a8.273,8.273,0,0,0,1.586.26,1.628,1.628,0,0,1-.144.961c-.52,0-2.077-.087-3.893-.087-1.21,0-2.5.087-3.172.087a1.565,1.565,0,0,1,0-.961,3.716,3.716,0,0,0,1.125-.231c.259-.087.433-.317.462-.894.057-.519.086-2.682.086-4.556,0-1.009,0-1.874-.058-2.307-.029-.384-.192-.75-1.5-1.211a2.041,2.041,0,0,1,.144-.75,14.111,14.111,0,0,0,4.411-1.182.27.27,0,0,1,.2.144c-.029.375-.116,1.759-.116,2.22,0,.086.116.086.174.058a13.557,13.557,0,0,1,1.7-1.7,2.752,2.752,0,0,1,1.587-.606A1.71,1.71,0,0,1,1367.5,178.474Z" transform="translate(-1214.775 -170.285)" fill="#fff"/>
        <path id="Path_55" data-name="Path 55" d="M1421.648,181.813a1.574,1.574,0,0,1-.893.058c-.231-1.211-.519-1.961-1.183-2.364a2.512,2.512,0,0,0-1.269-.346,1.431,1.431,0,0,0-1.557,1.384c0,.836.346,1.326,2.768,2.451,2.307,1.038,3,2.018,3,3.547,0,2.393-2.277,3.835-4.959,3.835a10.94,10.94,0,0,1-3.431-.548c-.144-.634-.4-2.912-.433-3.46a1.936,1.936,0,0,1,.923-.288,4.555,4.555,0,0,0,1.816,2.855,3.037,3.037,0,0,0,1.538.4c1.009,0,1.643-.548,1.643-1.326,0-.865-.519-1.355-1.989-2.076-2.769-1.326-3.6-2.393-3.6-4.066,0-1.99,1.558-3.691,4.672-3.691a15.887,15.887,0,0,1,1.99.173l1.326.173A24.05,24.05,0,0,0,1421.648,181.813Z" transform="translate(-1260.047 -170.77)" fill="#fff"/>
        <path id="Path_56" data-name="Path 56" d="M1473.418,168.457c-.576,0-1.585-.087-3.286-.087-1.471,0-2.566.087-3.2.087a1.563,1.563,0,0,1,0-.961,5.111,5.111,0,0,0,1.124-.231c.385-.144.462-.4.49-1.1s.058-2.509.058-3.95c0-1.009-.029-2.134-.029-2.653a1.008,1.008,0,0,0-.23-.692,2.778,2.778,0,0,0-1.211-.663,1.19,1.19,0,0,1,.086-.836,17.792,17.792,0,0,0,4.642-.961c0,1.211-.029,3.287-.029,4.959,0,1.5,0,3.431.029,4.758,0,.75.173.98.548,1.124a6.616,6.616,0,0,0,1.124.231A1.463,1.463,0,0,1,1473.418,168.457Zm-2.335-14.186a3.414,3.414,0,0,1-1.874.144,1.7,1.7,0,0,1-.894-1.24,2.045,2.045,0,0,1,.173-1.24,3.317,3.317,0,0,1,1.9-.606,1.622,1.622,0,0,1,1.153.346,1.879,1.879,0,0,1,.26.98,2.224,2.224,0,0,1-.723,1.615Z" transform="translate(-1302.992 -149.081)" fill="#fff"/>
        <path id="Path_57" data-name="Path 57" d="M1510.9,164.649c-.058,0-.115.115-.115.173-.029,1.182-.029,3.374-.029,4.758a9.546,9.546,0,0,0,.144,2.134,1.5,1.5,0,0,0,1.557,1.125,2.576,2.576,0,0,0,1.615-.433,2.279,2.279,0,0,1-.029.98,4.151,4.151,0,0,1-3.258,1.471,3.02,3.02,0,0,1-2.826-1.413c-.433-.75-.433-1.538-.433-3.229,0-1.5.03-4.094.03-5.305a.278.278,0,0,0-.173-.259c-.4-.029-1.01-.058-1.442-.115a4.218,4.218,0,0,1,.26-1.125,7.514,7.514,0,0,0,1.211-.288c.058,0,.115-.115.145-.231v-2.451a11.568,11.568,0,0,0,2.739-1.471,2.139,2.139,0,0,1,.605-.029c-.057.577-.115,1.961-.115,3.893,0,.087.058.2.115.2.865,0,2.624-.086,3.287-.144a12.719,12.719,0,0,0-.288,1.788C1513.091,164.649,1511.91,164.649,1510.9,164.649Z" transform="translate(-1334.564 -155.22)" fill="#fff"/>
        <path id="Path_58" data-name="Path 58" d="M1551.508,179.83c.4,0,1.73.086,3.4.086,1.557,0,2.508-.086,3.2-.086a1.669,1.669,0,0,1,.057.923,5.463,5.463,0,0,0-.92.263.49.49,0,0,0-.231.519c.461,1.384,2.018,5.334,2.335,6h.115a32.6,32.6,0,0,0,1.988-5.565c.031-.384.031-.75-.518-.923a5.984,5.984,0,0,0-1.268-.288,2.108,2.108,0,0,1,.115-.923c.548,0,1.526.087,2.593.087.98,0,1.9-.058,2.739-.087a1.657,1.657,0,0,1,.029.923,3.77,3.77,0,0,0-1.038.288c-.519.2-.865.605-1.211,1.586a108.706,108.706,0,0,1-6.486,13.783c-.346.634-.779,1.384-.98,1.788l-.317.086a3.515,3.515,0,0,1-1.816-.865,1.15,1.15,0,0,1,.029-.548,33.27,33.27,0,0,0,4.094-5.738,4.236,4.236,0,0,1-.346-.663c-.663-1.615-1.788-4.421-2.8-6.776-.836-1.961-1.1-2.451-1.9-2.71-.289-.087-.635-.144-1.01-.231A1.821,1.821,0,0,1,1551.508,179.83Z" transform="translate(-1371.252 -172.103)" fill="#fff"/>
      </g>
      <g id="Group_1472" data-name="Group 1472" transform="translate(1.109 38.156)">
        <path id="Path_59" data-name="Path 59" d="M621.47,363.461c-.023.067-.317.067-.363.023-.113-1.021-.317-1.538-.817-1.77a2.159,2.159,0,0,0-1-.227,1.338,1.338,0,0,0-1.407,1.384c0,.769.25,1.271,1.907,2.114,1.836.929,2.245,1.609,2.245,2.653,0,1.538-1.407,2.676-3.289,2.676a6.366,6.366,0,0,1-2.245-.43,14.146,14.146,0,0,1-.273-2.359c.023-.067.273-.136.363-.09a2.824,2.824,0,0,0,1.384,2.178,2.184,2.184,0,0,0,1.021.248,1.423,1.423,0,0,0,1.565-1.382c0-.838-.409-1.294-1.634-1.974-1.9-1-2.4-1.768-2.4-2.9,0-1.361,1.067-2.541,3.076-2.541a7.5,7.5,0,0,1,1.293.113,7.679,7.679,0,0,0,.817.09A12.874,12.874,0,0,0,621.47,363.461Z" transform="translate(-616.23 -354.434)" fill="#fff"/>
        <path id="Path_60" data-name="Path 60" d="M676.291,327.315a9.348,9.348,0,0,0,3.108-.725.286.286,0,0,1,.09.2c-.136.25-.183.477-.2,1.972-.046,1.271,0,5.082,0,5.807,0,.023.044.046.09.023a5.374,5.374,0,0,1,3.106-1.384c1.678,0,2.608,1.294,2.608,3.539,0,1.18,0,3.379.023,4.377a.575.575,0,0,0,.159.431,2.3,2.3,0,0,0,1.153.34c.023.069,0,.34-.068.363-.294,0-1.153-.067-2.155-.067s-1.7.044-2.018.067a.491.491,0,0,1,0-.363,5.249,5.249,0,0,0,.884-.181c.273-.137.384-.227.408-1.224a30.772,30.772,0,0,0-.113-4.627,1.972,1.972,0,0,0-2.086-1.588,2.582,2.582,0,0,0-1.73.634.744.744,0,0,0-.271.523c0,1.586,0,4.694.044,5.307.046.7.16.907.59,1.021a5.534,5.534,0,0,0,.748.135.356.356,0,0,1,0,.34c-.271,0-.974-.044-2.268-.044-1,0-1.565.067-1.972.067-.023-.044-.046-.294.023-.363a4.465,4.465,0,0,0,.748-.135c.363-.114.454-.384.477-1.067.044-.544.044-3.312.044-3.879,0-5.828-.021-7.712-.113-8.506-.044-.317-.113-.475-.454-.565-.2-.046-.475-.069-.861-.113A.562.562,0,0,1,676.291,327.315Z" transform="translate(-664.723 -326.59)" fill="#fff"/>
        <path id="Path_61" data-name="Path 61" d="M763.69,362.851a2.114,2.114,0,0,0-1.79-.861,1.538,1.538,0,0,0-.817.2,3.742,3.742,0,0,0-.907,1.634c-.067.067-.431-.227-.431-.409a2.933,2.933,0,0,1,.408-1.088,6.318,6.318,0,0,1,2.883-1.294,2.326,2.326,0,0,1,2.064,1.134,4.388,4.388,0,0,1,.477,2.224c0,1.2-.069,2.9-.069,3.742,0,.408.159,1,.817,1a1.984,1.984,0,0,0,.769-.113,1.466,1.466,0,0,1-.09.454,2.448,2.448,0,0,1-1.768.815,1.053,1.053,0,0,1-1.067-.544,2.556,2.556,0,0,1-.16-.59.061.061,0,0,0-.09-.044,6.672,6.672,0,0,1-2.518,1.178,1.633,1.633,0,0,1-1.153-.5,2.765,2.765,0,0,1-.75-1.951,4.153,4.153,0,0,1,.25-1.088c.613-.363,3.425-1.113,4.2-1.521a.4.4,0,0,0,.137-.2c.023-.273,0-.567,0-.884A2.34,2.34,0,0,0,763.69,362.851Zm.3,2.835a12.921,12.921,0,0,0-2.769,1.09,1.8,1.8,0,0,0-.159.7,1.547,1.547,0,0,0,1.567,1.657,2.541,2.541,0,0,0,1.179-.34.593.593,0,0,0,.2-.477c.023-.7.046-2.2.046-2.585C764.053,365.709,764.015,365.663,763.986,365.686Z" transform="translate(-731.957 -354.414)" fill="#fff"/>
        <path id="Path_62" data-name="Path 62" d="M825.35,360.753a8.864,8.864,0,0,0,2.745-1.134c.044-.023.157.113.137.158-.023.227-.046,1.044-.046,1.52,0,.023.067.023.09.023a6.448,6.448,0,0,1,3.2-1.43,2.9,2.9,0,0,1,2.155,1,4.482,4.482,0,0,1,1,2.858,4.945,4.945,0,0,1-1.9,4.037,6.315,6.315,0,0,1-3.585,1.361,4.023,4.023,0,0,1-.905-.158.154.154,0,0,0-.069.113c0,2.291.023,3.447.069,4.287.021.657.181.794.7.884.3.046.636.069,1.111.113.046.069.023.363-.044.384h-1.044c-1.9.023-3.062.227-3.81.271-.046-.044-.069-.34,0-.385.271-.069.658-.16.907-.25.385-.16.5-.431.521-1,.046-.907.046-2.883.046-5.943,0-3.47.023-4.627-.046-5.383-.023-.34-.067-.59-.271-.727a2.425,2.425,0,0,0-1-.271A.385.385,0,0,1,825.35,360.753Zm3.085.929a.636.636,0,0,0-.273.477c-.044.477-.044,3.856,0,4.421a1.426,1.426,0,0,0,.577,1.294,2.713,2.713,0,0,0,1.611.431,2.589,2.589,0,0,0,1.655-.636,3.921,3.921,0,0,0,1.021-3.016,4.347,4.347,0,0,0-.817-2.745,2.447,2.447,0,0,0-1.922-.907A2.92,2.92,0,0,0,828.436,361.682Z" transform="translate(-784.952 -353.268)" fill="#fff"/>
        <path id="Path_63" data-name="Path 63" d="M910.657,353.5c-.477,0-1.361-.067-2.088-.067-.93,0-1.73.067-2.115.067a.494.494,0,0,1,0-.363,2.512,2.512,0,0,0,.884-.181c.273-.113.385-.294.408-.93.046-.567.046-2.382.046-3.629,0-.884,0-1.678-.023-2.063a.645.645,0,0,0-.137-.454,1.617,1.617,0,0,0-.907-.433.927.927,0,0,1,0-.34,9,9,0,0,0,2.7-.681c-.023.613-.046,2.451-.046,3.833,0,1.226,0,2.835.023,3.925,0,.477.158.68.477.794a3.631,3.631,0,0,0,.838.158C910.724,353.2,910.724,353.475,910.657,353.5Zm-1.7-11.364a1.584,1.584,0,0,1-.863.067.876.876,0,0,1-.475-.817.866.866,0,0,1,.114-.544,1.421,1.421,0,0,1,.907-.34,1,1,0,0,1,.611.2.814.814,0,0,1,.193.523A1.059,1.059,0,0,1,908.956,342.134Z" transform="translate(-850.638 -337.826)" fill="#fff"/>
        <path id="Path_64" data-name="Path 64" d="M958.76,369.448c.317-.113.407-.477.431-.907.067-.794.044-2.359.044-3.675,0-1.134-.021-1.949-.044-2.115-.047-.273-.192-.431-1.067-.681-.023-.046,0-.294.069-.317a7.936,7.936,0,0,0,2.653-.863.1.1,0,0,1,.069.092c-.046.454-.069.961-.092,1.346,0,.067.046.113.092.09a5.489,5.489,0,0,1,3.13-1.507,2.268,2.268,0,0,1,2.018,1.153,4.772,4.772,0,0,1,.544,2.585c0,1.18,0,3.268.023,4.173,0,.273.069.454.294.523a2.94,2.94,0,0,0,.977.248c.023.069,0,.319-.07.363-.317,0-.838-.067-1.972-.067-1.09,0-1.747.044-2.222.067a.5.5,0,0,1,0-.363,5.715,5.715,0,0,0,.861-.135.665.665,0,0,0,.477-.7c.044-1,.067-4.016-.047-4.786a2.61,2.61,0,0,0-.657-1.451,1.821,1.821,0,0,0-1.384-.5,2.69,2.69,0,0,0-1.838.75c-.158.158-.227.34-.227.817,0,1.7,0,3.9.046,4.9.023.657.137.817.408.907a4.021,4.021,0,0,0,.961.2,1,1,0,0,1-.023.363c-.385,0-1.021-.067-2.178-.067-1.315,0-1.7.067-2.063.067a.493.493,0,0,1,0-.363,2.7,2.7,0,0,0,.786-.146Z" transform="translate(-892.254 -354.296)" fill="#fff"/>
        <path id="Path_65" data-name="Path 65" d="M1044.47,361.451a4.305,4.305,0,0,0,1.315.227c.884,0,1.088-.136,1.384-.431.023-.023.157.044.157.113a2.515,2.515,0,0,1-.543,1.111,1.074,1.074,0,0,1-.724.181c-.192,0-.2,0-.577-.023-.023,0-.046.069-.023.114a3.964,3.964,0,0,1,.273,1.5,3.332,3.332,0,0,1-1.294,2.883,4.528,4.528,0,0,1-2.472.952,1.366,1.366,0,0,1-.317.023c-.227.046-.68.273-.68.634,0,.454.5.681.815.727a36.63,36.63,0,0,1,3.7.454,2.237,2.237,0,0,1,1.655,2.245,4.525,4.525,0,0,1-2.675,3.766,5.082,5.082,0,0,1-2.472.613,4,4,0,0,1-2.474-.75,2.639,2.639,0,0,1-1.134-2.132,1.776,1.776,0,0,1,.159-.794,19.956,19.956,0,0,1,2.245-1.882c.023,0,0-.069-.023-.069a1.957,1.957,0,0,1-1.518-1.538,1.462,1.462,0,0,1,.044-.273c.319-.181,1.271-.725,1.588-.975.046-.046.023-.113-.022-.113a3.223,3.223,0,0,1-2.087-3.312,3.4,3.4,0,0,1,1.248-2.653,5.028,5.028,0,0,1,2.654-.977A4.791,4.791,0,0,1,1044.47,361.451Zm1.384,11.749a1.73,1.73,0,0,0-1.18-1.73,8.774,8.774,0,0,0-2.768-.431,1.5,1.5,0,0,0-.815.227,2.335,2.335,0,0,0-1.294,1.9,2.131,2.131,0,0,0,.818,1.678,3.457,3.457,0,0,0,2.335.727C1045.127,375.581,1045.854,374.447,1045.854,373.2Zm-5.536-9.05c0,1.678.769,3.268,2.292,3.268a1.453,1.453,0,0,0,1.044-.408,3.055,3.055,0,0,0,.613-2.178c0-1.407-.577-3.153-2.338-3.153C1040.864,361.677,1040.318,362.742,1040.318,364.149Z" transform="translate(-957.232 -354.442)" fill="#fff"/>
        <path id="Path_66" data-name="Path 66" d="M1156.829,341.8c.384-.137.477-.409.477-.863.023-1.2.023-3.764.046-6.343,0-.044-.046-.181-.09-.181l-1.113-.046a1.11,1.11,0,0,1,.16-.454,3.213,3.213,0,0,0,.974-.317.192.192,0,0,0,.092-.136c0-2.812.576-4.613,2.539-6.011a4.172,4.172,0,0,1,2.019-.815,1.889,1.889,0,0,1,1.7.815v.183a4.6,4.6,0,0,1-.748,1.088.174.174,0,0,1-.18.023,3.206,3.206,0,0,0-2-1.065,1.367,1.367,0,0,0-.951.384c-.749.727-.817,2.691-.84,4.613,0,.137,0,.636.023.769,0,.021.045.134.091.134q1.8-.033,2.177-.067a6.1,6.1,0,0,0-.192.93c-.454,0-1.656-.046-2.018-.023-.023,0-.091.16-.091.181.023,2.361,0,5.19.046,6.307.021.544.227.794.657.884a5.381,5.381,0,0,0,.975.158.675.675,0,0,1-.044.363c-.613,0-1.384-.067-2.406-.067-.543,0-1.634.067-2.131.067-.046-.023-.046-.294,0-.363A7.43,7.43,0,0,0,1156.829,341.8Z" transform="translate(-1052.218 -326.622)" fill="#fff"/>
        <path id="Path_67" data-name="Path 67" d="M1211,361.873a13.573,13.573,0,0,0,2.972-.363,29.618,29.618,0,0,0-.113,4.242,13.684,13.684,0,0,0,.113,2.4,1.723,1.723,0,0,0,1.858,1.382,2.663,2.663,0,0,0,1.771-.657.921.921,0,0,0,.271-.634c.047-.431.023-3.993-.023-5.15a.653.653,0,0,0-.431-.657,10.513,10.513,0,0,0-1.428-.2.412.412,0,0,1,.046-.363,20.478,20.478,0,0,0,3.514-.34,21.722,21.722,0,0,0-.09,2.4l.023,4.49c0,.961.159,1.111.634,1.111a6.734,6.734,0,0,0,.7-.044c0,.044.023.34-.044.384-.817.227-2.247.7-2.768.907-.068,0-.137-.067-.137-.181-.023-.273,0-.907,0-1.294a.088.088,0,0,0-.049-.071.091.091,0,0,0-.087,0,4.694,4.694,0,0,1-2.926,1.428c-2.132,0-2.562-1.474-2.562-3.016,0-1.067.023-3.426-.023-4.446-.023-.408-.044-.68-.317-.794a4,4,0,0,0-.975-.181A.606.606,0,0,1,1211,361.873Z" transform="translate(-1096.61 -354.798)" fill="#fff"/>
        <path id="Path_68" data-name="Path 68" d="M1294.323,350.849c-.044,0-.114.09-.114.137,0,1.292-.021,3.766,0,4.763a4.6,4.6,0,0,0,.159,1.361,1.189,1.189,0,0,0,1.2.794,2.042,2.042,0,0,0,1.248-.363,1.225,1.225,0,0,1-.045.384,2.625,2.625,0,0,1-2.087,1,1.821,1.821,0,0,1-1.769-.961,5.72,5.72,0,0,1-.3-2.585c0-1.2.023-3.449.023-4.356a.152.152,0,0,0-.091-.158c-.18-.046-.817-.069-1.134-.09a4.153,4.153,0,0,1,.181-.546,7.54,7.54,0,0,0,.976-.181.2.2,0,0,0,.068-.136v-1.784a4.938,4.938,0,0,0,1.43-1.134.563.563,0,0,1,.271.046,18.351,18.351,0,0,0-.137,2.835c0,.044.069.135.114.135a24.35,24.35,0,0,0,2.451-.09,6.329,6.329,0,0,0-.192.961C1295.889,350.872,1295.026,350.849,1294.323,350.849Z" transform="translate(-1161.63 -343.069)" fill="#fff"/>
        <path id="Path_69" data-name="Path 69" d="M1347.637,361.873a13.57,13.57,0,0,0,2.972-.363,29.643,29.643,0,0,0-.113,4.242,13.684,13.684,0,0,0,.113,2.4,1.724,1.724,0,0,0,1.859,1.382,2.663,2.663,0,0,0,1.77-.657.915.915,0,0,0,.271-.634c.046-.431.023-3.993-.021-5.15a.657.657,0,0,0-.432-.657,10.526,10.526,0,0,0-1.428-.2.412.412,0,0,1,.046-.363,20.485,20.485,0,0,0,3.514-.34,21.6,21.6,0,0,0-.09,2.4l.023,4.49c0,.961.16,1.111.636,1.111a6.707,6.707,0,0,0,.7-.044c0,.044.024.34-.044.384-.817.227-2.245.7-2.768.907-.067,0-.136-.067-.136-.181-.021-.273,0-.907,0-1.294a.09.09,0,0,0-.048-.071.088.088,0,0,0-.086,0,4.7,4.7,0,0,1-2.928,1.428c-2.132,0-2.562-1.474-2.562-3.016,0-1.067.023-3.426-.023-4.446-.023-.408-.044-.68-.318-.794a3.992,3.992,0,0,0-.974-.181A.6.6,0,0,1,1347.637,361.873Z" transform="translate(-1206.983 -354.798)" fill="#fff"/>
        <path id="Path_70" data-name="Path 70" d="M1434.655,361.412a.832.832,0,0,1,0,.34,4.291,4.291,0,0,1-.681,1.224,1.435,1.435,0,0,1-.18.069,1.921,1.921,0,0,0-1.317-.613c-.475,0-.838.407-1.154.93a2.337,2.337,0,0,0-.205.907c0,1.292.023,3.946.069,4.4s.136.657.431.769a5.619,5.619,0,0,0,1.18.181.415.415,0,0,1-.046.363c-.318,0-1.429-.067-2.291-.067-.612,0-1.792.044-2.176.067a.489.489,0,0,1,0-.363,4.192,4.192,0,0,0,.838-.158c.2-.09.341-.227.363-.636.068-.384.091-2.335.091-4.037q.025-.953-.046-1.9c-.021-.227-.091-.613-1.111-.861,0-.069.023-.273.068-.3a7.852,7.852,0,0,0,2.563-.817c.023,0,.09.046.09.069-.023.407-.023,1.451-.023,1.882,0,.023.069.046.093.023a8.127,8.127,0,0,1,1.345-1.474,1.875,1.875,0,0,1,1.154-.477A1.1,1.1,0,0,1,1434.655,361.412Z" transform="translate(-1272.158 -354.313)" fill="#fff"/>
        <path id="Path_71" data-name="Path 71" d="M1497.548,368.2a.947.947,0,0,1-.046.384,5.055,5.055,0,0,1-3.539,1.769,3.492,3.492,0,0,1-2.653-1.088,5.073,5.073,0,0,1-1.18-3.46,4.451,4.451,0,0,1,1.951-3.969,5.166,5.166,0,0,1,2.307-.727c2.115,0,2.813,2,3,3.076.023.067.066.16.271.181.023.069-.021.273-.091.3a34.117,34.117,0,0,1-5.784.521c-.09,0-.134.136-.134.25a4.406,4.406,0,0,0,.838,2.5,3.043,3.043,0,0,0,2.5,1.153,3.3,3.3,0,0,0,2.472-.961C1497.479,368.128,1497.548,368.151,1497.548,368.2Zm-5.829-3.721c0,.069.046.137.066.137a29.741,29.741,0,0,0,3.833-.158.235.235,0,0,0,.136-.183c-.136-1.153-.769-2.586-2.086-2.586-1.02,0-1.861.971-1.95,2.785Z" transform="translate(-1322.144 -354.474)" fill="#fff"/>
        <path id="Path_72" data-name="Path 72" d="M1566.52,363.461c-.023.067-.317.067-.363.023-.114-1.021-.317-1.538-.817-1.77a2.158,2.158,0,0,0-1-.227,1.338,1.338,0,0,0-1.405,1.384c0,.769.248,1.271,1.906,2.114,1.837.929,2.245,1.609,2.245,2.653,0,1.538-1.407,2.676-3.289,2.676a6.38,6.38,0,0,1-2.245-.43,14.263,14.263,0,0,1-.273-2.359c.023-.067.273-.136.363-.09a2.827,2.827,0,0,0,1.384,2.178,2.19,2.19,0,0,0,1.021.248,1.423,1.423,0,0,0,1.564-1.382c0-.838-.407-1.294-1.634-1.974-1.905-1-2.4-1.768-2.4-2.9,0-1.361,1.065-2.541,3.076-2.541a7.5,7.5,0,0,1,1.293.113,7.692,7.692,0,0,0,.817.09A13.026,13.026,0,0,0,1566.52,363.461Z" transform="translate(-1379.617 -354.434)" fill="#fff"/>
      </g>
    </g>
  </g>
</svg>
