<svg xmlns="http://www.w3.org/2000/svg" width="278.672" height="323.26" viewBox="0 0 278.672 323.26">
  <g id="HU_lion" data-name="HU lion" transform="translate(0)" opacity="0.1" style="isolation: isolate">
    <path id="Path_7" data-name="Path 7" d="M204.227,217.931c-18.422,13.091-32.643,25.884-42.523,38.321l15.083.991s4.955-3.419,6.293-.109-2.061,5.945-2.061,5.945l-10.832.149,5.46,3.667-7.74,9.761.188,15.459c0,2.9,7.214,7.016,7.214,7.016s10.068,4.043,14.706,3.964,20.5-2.478,30.512-2.587,9.355,10.723,9.355,10.723-4.648-4.053-13.111-5.223c-8.284-1.13-25.111-.872-30.463.862s-14.26-2.289-14.26-2.289c-7.046,7.194-6.074,17.253.763,24.289s22.674,5.945,32.217.783,20.929.069,20.929.069a71.651,71.651,0,0,1-31.652,11.347c-15,3.052-25.864-1.13-32.8-12.407-1.635-8.017.991-16.846,7.977-26.518,0,0-5.113-6.174-6.817-7.423s-2.269-10.831-3.112-13.358-5.579-11.644-5.579-11.644c-3.964-6.313-3.647-11.981.476-17.174,11-11.565,25.835-24.041,44.664-37.479q-3.964-13.378,10.108-23.625L230.4,177.777q16.846-50.144,64.978-48.667-51.7,11.614-54.5,51.006-43.335,20.889-36.666,37.8" transform="translate(-151.173 -129.067)" fill="#a381aa" fill-rule="evenodd"/>
    <path id="Path_8" data-name="Path 8" d="M247.1,220.6l-20.988-3.894c-.743,4.955-3.5,11.03-8.056,18.145,9.206-7.73,18.035-10.6,26.657-8.75Z" transform="translate(-155.031 -131.656)" fill="#a381aa" fill-rule="evenodd"/>
    <path id="Path_9" data-name="Path 9" d="M268.84,323.8Q220.4,377.316,231.381,450.322c1.744-34.912,9.772-62.709,29.432-100.891,3.241-6.293,45.05-64.216,45.05-64.216l-26.38,26.757q2.1-19,25.617-53.087c-3.964-29.967-13.081-48.152-27.608-54.415,11.535,12.407,18.333,31.711,20.146,57.943q-26.835,27.331-28.8,61.44" transform="translate(-156.526 -136.207)" fill="#a381aa" fill-rule="evenodd"/>
    <path id="Path_10" data-name="Path 10" d="M256.36,172.419l17.114-8.622q17.837-31.423,70.25-31.146Q277,125.367,256.36,172.419" transform="translate(-158.718 -129.078)" fill="#a381aa" fill-rule="evenodd"/>
    <path id="Path_11" data-name="Path 11" d="M317.58,141.922q67.029,9.037,102.17,60.806-31.455-68.9-102.17-60.806" transform="translate(-165.6 -129.172)" fill="#a381aa" fill-rule="evenodd"/>
    <path id="Path_12" data-name="Path 12" d="M328.969,208.4q9.969-47.25-15.429-52.026c12.615,9.6,14.864,23.972,6.936,42.979Z" transform="translate(-160.244 -129.309)" fill="#a381aa" fill-rule="evenodd"/>
    <path id="Path_13" data-name="Path 13" d="M300.889,195.849l-.565-12.882-11.615,5.569c.228-19.4,5.471-28.738,15.856-27.817q14.538,7.541,7.552,30.463c-3.092,5.658-6.808,7.224-11.248,4.717" transform="translate(-159.03 -129.346)" fill="#a381aa" fill-rule="evenodd"/>
    <path id="Path_14" data-name="Path 14" d="M354.49,167.61s5.074,9.047,6.54,15.3c0,0,16.648-1.981,35.675,22.377-11.892-30.056-33.693-35.992-42.225-37.658" transform="translate(-163.44 -129.417)" fill="#a381aa" fill-rule="evenodd"/>
    <path id="Path_15" data-name="Path 15" d="M371.886,206.6,365.94,189.57a44.7,44.7,0,0,1,28.123,25.577c-11.137-11.654-20.751-9.662-22.137-8.543" transform="translate(-163.549 -130.886)" fill="#a381aa" fill-rule="evenodd"/>
    <path id="Path_16" data-name="Path 16" d="M337,173.9s18.641,22.069,19.552,60.044,7.076,52.085,16.422,69.041c-8.781-28.005-3.965-52.046-3.687-71.865S353.767,187.18,337,173.9" transform="translate(-162.164 -129.463)" fill="#a381aa" fill-rule="evenodd"/>
    <path id="Path_17" data-name="Path 17" d="M380.24,219s7.878,23.783,2.171,48.459,1.218,44.445,8.572,58.616,18.917,22.951,24.031,6.5,0-34.258-5.9-42.166c0,0,12.7,23.506-10.166,41.333-5.688-9.335-4.579-19.819-4.3-38.252S399.2,244.835,380.24,219" transform="translate(-166.162 -132.657)" fill="#a381aa" fill-rule="evenodd"/>
    <path id="Path_18" data-name="Path 18" d="M354.362,394.6c.2-3.349.377-7.512.2-12.506-27.629-31.5-16.985-85.9-16.985-85.9-11.535,32.246-.575,75.523,10.762,91.17a79.828,79.828,0,0,0,6.025,7.244" transform="translate(-161.431 -135.208)" fill="#a381aa" fill-rule="evenodd"/>
    <path id="Path_19" data-name="Path 19" d="M416.607,265.64C393.417,241.786,396.212,226,396.212,226c-5.946,31.136,8.751,42.453,19.036,55.762s22.6,27.747,20.325,48.7C423.5,394.992,388.7,403.89,367.067,391.9a47.382,47.382,0,0,1-1.437,11.486c14.5,9.236,35.11,11.228,59.458-18.343,36.825-44.742,14.668-95.669-8.5-119.412" transform="translate(-166.029 -134.189)" fill="#a381aa" fill-rule="evenodd"/>
    <path id="Path_20" data-name="Path 20" d="M376.607,321.32s-5.045,4.291-2.251,20.969,3.4,38.192-11.3,35.121c0,0,5.945,15.29,13.873,9.028s8.215-19.285,4.212-30.82-5.887-27.748-4.538-34.3" transform="translate(-163.095 -135.481)" fill="#a381aa" fill-rule="evenodd"/>
    <path id="Path_21" data-name="Path 21" d="M360.684,353.1s-4.459,5.717-4.142,27.985-1.248,29.62-11.812,22.792c0,0,2.21,18.3,10.168,14.568s12.04-21.326,9.909-32.474-7.264-21.276-4.162-32.881" transform="translate(-162.062 -137.557)" fill="#a381aa" fill-rule="evenodd"/>
    <path id="Path_22" data-name="Path 22" d="M339.607,381.49a136.939,136.939,0,0,0-3.21,25.864c-.218,13.418-6.759,27.747-18.086,30.553s-14.736-6.938-13.071-13.706c0,0-7.184,25.3,14.36,27.153,16.43,1.319,25.646-19.65,23.179-37.8s-3.607-26.756-3.171-32.068" transform="translate(-160.307 -137.819)" fill="#a381aa" fill-rule="evenodd"/>
    <path id="Path_23" data-name="Path 23" d="M315.761,310s10.256,77.723-25.082,110.426c-16.609,15.389-39.312,11.207-31.919-31.088,0,0-14.577,54.7,17.362,51.8s52.869-68.377,39.639-131.176" transform="translate(-157.987 -137.16)" fill="#a381aa" fill-rule="evenodd"/>
    <path id="Path_24" data-name="Path 24" d="M258.488,390.9s-18.541,31.544-3.964,58.27c5.153,7.927,17.263,8.057,20.811,4.32-11.169,12.021-24.28,9.187-30.532-3.518-9.107-18.759,4.38-49.766,13.745-59.072" transform="translate(-156.483 -137.895)" fill="#a381aa" fill-rule="evenodd"/>
    <path id="Path_25" data-name="Path 25" d="M341.881,228.2s28.332,59.875,1.357,109.85c0,0,19.939-44.009-3.587-93.28,0,0,.089-1.744-2.488,1.4-2.031,2.646-5.381,8.226-8.066,3.093s10.147-26.291,12.784-21.059" transform="translate(-161.339 -132.828)" fill="#a381aa" fill-rule="evenodd"/>
    <path id="Path_26" data-name="Path 26" d="M411.511,207.14s25.964,21.376,30.334,86.839c0,0-2.755-42.76-27.836-68.744-.476,14.072,2.715,26.568,4.786,28.431s3.44-8.7,2.289-14.746c5.54,12.457,6,22.247,1.893,23.932s-16-19.374-11.466-55.712" transform="translate(-166.427 -131.823)" fill="#a381aa" fill-rule="evenodd"/>
    <path id="Path_27" data-name="Path 27" d="M284.232,377.637s7.076-7.383,9.533-11.337c.654,21.8-.218,27.4-13.7,45.287,4.8-9.8,7.055-22.921,4.162-33.951" transform="translate(-158.276 -137.679)" fill="#a381aa" fill-rule="evenodd"/>
    <path id="Path_28" data-name="Path 28" d="M281.473,336.271c1.566-3.22,15.529-9.791,22.04-.99,2.507,4.25-19.542,38.777-52.433,52.917,18.105-13.1,26.023-22.217,36.785-38.648,5.421-9.6-9.751-6.758-6.392-13.318" transform="translate(-157.423 -135.638)" fill="#a381aa" fill-rule="evenodd"/>
  </g>
</svg>
