<svg xmlns="http://www.w3.org/2000/svg" width="202.41" height="69.988" viewBox="0 0 202.41 69.988">
  <g id="header_logo" data-name="header logo" transform="translate(-159.188 -43.89)">
    <g id="Group_1471" data-name="Group 1471" transform="translate(159.188 43.89)">
      <path id="Path_1" data-name="Path 1" d="M64.888,32.077c0-.072,0-.151-.005-.219a32.442,32.442,0,0,0-64.874,0v.169C0,32.169,0,32.307,0,32.453v.474a1.593,1.593,0,0,1,.009.208A32.461,32.461,0,0,0,22.43,63.406a4.256,4.256,0,0,0,.889-1.6l.009-.018v-.051c.067-.321.15-.657.232-1.063l.057-.2c.405-1.675.891-3.241.9-3.265.122-.421.224-.748.312-.967a5.877,5.877,0,0,1,.631-1.053,1.666,1.666,0,0,1,1.366-.657,2.264,2.264,0,0,1,.721.117l.447.185-.021-.476a3.362,3.362,0,0,0-.051-.482A21.731,21.731,0,0,1,22.5,51.954v-.1a21.733,21.733,0,0,1,3.346-40.092l-.031-.089A21.85,21.85,0,0,1,42.39,13.031v.1a21.743,21.743,0,0,1-3.336,40.1l.026.091a21.652,21.652,0,0,1-10.061.759c-1.2,2.5-1.423,6.656-1.423,9.276,0,.338-.023.783-.057,1.269A32.461,32.461,0,0,0,64.882,33.145c.005-.058.005-.109.005-.169,0-.14.01-.278.01-.427v-.1C64.9,32.322,64.888,32.2,64.888,32.077Z" transform="translate(0)" fill="#cda8cf"/>
      <path id="Path_2" data-name="Path 2" d="M39.577,7.93a31.582,31.582,0,0,0-9.462,61.712,4.944,4.944,0,0,0,.328-.778l.009-.018V68.8c.067-.321.15-.657.232-1.063l.057-.2c.405-1.675.891-3.241.9-3.265.122-.421.224-.748.312-.967a5.877,5.877,0,0,1,.631-1.053,1.666,1.666,0,0,1,1.366-.657,2.263,2.263,0,0,1,.721.117l.447.185-.021-.476a2.838,2.838,0,0,0-.451-1.51l2.08.182-.01.089c-1.716,2.248-2,7.243-2,10.236,0,.088,0,.2-.007.3A31.578,31.578,0,1,0,39.577,7.93Z" transform="translate(-7.124 -7.062)" fill="#5e2568"/>
      <path id="Path_3" data-name="Path 3" d="M93.27,115.465A22.236,22.236,0,1,1,115.511,137.7,22.242,22.242,0,0,1,93.27,115.465" transform="translate(-83.059 -83.014)" fill="#cda8cf" fill-rule="evenodd"/>
      <path id="Path_4" data-name="Path 4" d="M217.394,493.227c0-2.993.284-7.992,2-10.236l.01-.089-2.08-.182a2.837,2.837,0,0,1,.451,1.51l.021.476-.447-.185a2.266,2.266,0,0,0-.721-.117,1.666,1.666,0,0,0-1.366.657,5.877,5.877,0,0,0-.631,1.053c-.088.219-.191.547-.312.967-.008.024-.494,1.59-.9,3.265l-.057.2c-.082.4-.165.742-.232,1.063v.052Z" transform="translate(-189.797 -429.873)" fill="#fff" fill-rule="evenodd"/>
      <path id="Path_5" data-name="Path 5" d="M101.62,122.936a21.323,21.323,0,1,1,21.327,21.317,21.329,21.329,0,0,1-21.327-21.317" transform="translate(-90.495 -90.486)" fill="#fff" fill-rule="evenodd"/>
      <path id="Path_6" data-name="Path 6" d="M116.67,135.215a19.608,19.608,0,1,1,19.607,19.612,19.608,19.608,0,0,1-19.607-19.612" transform="translate(-103.897 -102.953)" fill="#d5c195" fill-rule="evenodd"/>
      <path id="Path_7" data-name="Path 7" d="M157.034,138.885a22.986,22.986,0,0,0-4.7,4.234l1.666.109s.547-.378.7-.012-.228.657-.228.657l-1.2.016.6.405-.855,1.078.021,1.708c0,.321.8.775.8.775a6.366,6.366,0,0,0,1.625.438c.512-.009,2.265-.274,3.371-.286s1.033,1.185,1.033,1.185a2.951,2.951,0,0,0-1.448-.577,11.614,11.614,0,0,0-3.365.1,2.858,2.858,0,0,1-1.575-.253,1.854,1.854,0,0,0,.084,2.683c.755.777,2.5.657,3.559.086a2.878,2.878,0,0,1,2.312.008,7.916,7.916,0,0,1-3.5,1.254,3.117,3.117,0,0,1-3.624-1.371,3.751,3.751,0,0,1,.881-2.93,8.9,8.9,0,0,0-.753-.82c-.188-.138-.251-1.2-.344-1.476s-.616-1.286-.616-1.286a1.506,1.506,0,0,1,.053-1.9,34.57,34.57,0,0,1,4.934-4.14,2.283,2.283,0,0,1,1.117-2.61l2.34-1.51q1.861-5.54,7.178-5.376-5.711,1.283-6.021,5.635-4.787,2.308-4.051,4.175" transform="translate(-134.623 -114.938)" fill="#5e2568" fill-rule="evenodd"/>
      <path id="Path_8" data-name="Path 8" d="M221.269,217.14l-2.319-.43a5.519,5.519,0,0,1-.89,2,3.408,3.408,0,0,1,2.945-.967Z" transform="translate(-194.187 -192.985)" fill="#5e2568" fill-rule="evenodd"/>
      <path id="Path_9" data-name="Path 9" d="M233.715,217.653a16.247,16.247,0,0,0-4.138,13.977,25.234,25.234,0,0,1,3.251-11.146c.358-.7,4.977-7.094,4.977-7.094l-2.914,2.956q.232-2.1,2.83-5.865c-.438-3.311-1.445-5.32-3.05-6.011,1.274,1.371,2.025,3.5,2.226,6.4a10.354,10.354,0,0,0-3.181,6.788" transform="translate(-204.243 -182.085)" fill="#5e2568" fill-rule="evenodd"/>
      <path id="Path_10" data-name="Path 10" d="M256.36,136.176l1.891-.952q1.971-3.471,7.761-3.441-7.371-.8-9.652,4.393" transform="translate(-228.295 -117.259)" fill="#5e2568" fill-rule="evenodd"/>
      <path id="Path_11" data-name="Path 11" d="M317.58,141.165a15.45,15.45,0,0,1,11.287,6.718q-3.475-7.612-11.287-6.718" transform="translate(-282.812 -125.627)" fill="#5e2568" fill-rule="evenodd"/>
      <path id="Path_12" data-name="Path 12" d="M315.245,162.118q1.1-5.22-1.7-5.748c1.394,1.061,1.642,2.648.766,4.748Z" transform="translate(-279.215 -139.251)" fill="#5e2568" fill-rule="evenodd"/>
      <path id="Path_13" data-name="Path 13" d="M290.056,164.545l-.062-1.423-1.283.615c.025-2.144.6-3.175,1.752-3.073q1.606.833.834,3.365c-.342.625-.752.8-1.243.521" transform="translate(-257.102 -143.069)" fill="#5e2568" fill-rule="evenodd"/>
      <path id="Path_14" data-name="Path 14" d="M354.481,167.61a8.473,8.473,0,0,1,.723,1.69s1.839-.219,3.941,2.472a6.176,6.176,0,0,0-4.665-4.16" transform="translate(-315.672 -149.261)" fill="#5e2568" fill-rule="evenodd"/>
      <path id="Path_15" data-name="Path 15" d="M366.6,191.452l-.657-1.882a4.939,4.939,0,0,1,3.107,2.826c-1.23-1.287-2.292-1.067-2.446-.944" transform="translate(-325.878 -168.816)" fill="#5e2568" fill-rule="evenodd"/>
      <path id="Path_16" data-name="Path 16" d="M337,173.9a11.291,11.291,0,0,1,2.16,6.633c.1,4.2.782,5.754,1.814,7.627-.97-3.094-.438-5.75-.407-7.939s-1.714-4.854-3.567-6.321" transform="translate(-300.107 -154.862)" fill="#5e2568" fill-rule="evenodd"/>
      <path id="Path_17" data-name="Path 17" d="M380.24,219a11.106,11.106,0,0,1,.24,5.353,9.15,9.15,0,0,0,.947,6.476c.812,1.565,2.09,2.535,2.655.718a5.7,5.7,0,0,0-.651-4.658,3.617,3.617,0,0,1-1.123,4.566c-.628-1.031-.506-2.19-.475-4.226s.5-5.375-1.592-8.229" transform="translate(-338.612 -195.024)" fill="#5e2568" fill-rule="evenodd"/>
      <path id="Path_18" data-name="Path 18" d="M335.067,307.071c.022-.37.042-.83.022-1.382-3.052-3.48-1.876-9.49-1.876-9.49a12.949,12.949,0,0,0,1.189,10.072,8.814,8.814,0,0,0,.666.8" transform="translate(-296.251 -263.773)" fill="#5e2568" fill-rule="evenodd"/>
      <path id="Path_19" data-name="Path 19" d="M371.262,230.379c-2.562-2.635-2.253-4.379-2.253-4.379-.657,3.44.967,4.69,2.1,6.16s2.5,3.065,2.245,5.38c-1.333,7.129-5.178,8.112-7.568,6.788a5.234,5.234,0,0,1-.159,1.269c1.6,1.02,3.879,1.24,6.569-2.026,4.068-4.943,1.62-10.569-.939-13.192" transform="translate(-325.602 -201.258)" fill="#5e2568" fill-rule="evenodd"/>
      <path id="Path_20" data-name="Path 20" d="M364.557,321.32s-.557.474-.249,2.317.376,4.219-1.248,3.88c0,0,.657,1.689,1.533,1s.908-2.13.465-3.4a9.435,9.435,0,0,1-.5-3.789" transform="translate(-323.313 -286.143)" fill="#5e2568" fill-rule="evenodd"/>
      <path id="Path_21" data-name="Path 21" d="M346.493,353.091s-.493.632-.458,3.092-.138,3.272-1.3,2.518c0,0,.244,2.022,1.123,1.609s1.33-2.356,1.095-3.588-.8-2.35-.46-3.632" transform="translate(-306.99 -314.435)" fill="#5e2568" fill-rule="evenodd"/>
      <path id="Path_22" data-name="Path 22" d="M308.013,381.49a15.129,15.129,0,0,0-.355,2.857c-.024,1.482-.747,3.065-2,3.375s-1.628-.766-1.444-1.514c0,0-.794,2.795,1.586,3,1.815.146,2.833-2.171,2.561-4.176a21.4,21.4,0,0,1-.35-3.543" transform="translate(-270.798 -339.726)" fill="#5e2568" fill-rule="evenodd"/>
      <path id="Path_23" data-name="Path 23" d="M262.1,309.964s1.133,8.586-2.771,12.2c-1.835,1.7-4.343,1.238-3.526-3.434,0,0-1.61,6.043,1.918,5.722s5.841-7.554,4.379-14.492" transform="translate(-227.475 -276.026)" fill="#5e2568" fill-rule="evenodd"/>
      <path id="Path_24" data-name="Path 24" d="M243.624,390.9s-2.048,3.485-.438,6.437a1.708,1.708,0,0,0,2.3.477c-1.234,1.328-2.682,1.015-3.373-.389-1.006-2.072.484-5.5,1.518-6.526" transform="translate(-215.309 -348.105)" fill="#5e2568" fill-rule="evenodd"/>
      <path id="Path_25" data-name="Path 25" d="M330.182,227.468s3.13,6.615.15,12.136a13.051,13.051,0,0,0-.4-10.305s.01-.193-.275.154c-.224.292-.595.909-.891.342s1.121-2.9,1.412-2.326" transform="translate(-292.741 -202.484)" fill="#5e2568" fill-rule="evenodd"/>
      <path id="Path_26" data-name="Path 26" d="M410.607,207.14s2.868,2.361,3.351,9.593c0,0-.3-4.724-3.075-7.594a6.244,6.244,0,0,0,.529,3.141c.229.206.38-.961.253-1.629.612,1.376.662,2.458.209,2.644s-1.768-2.14-1.267-6.155" transform="translate(-365.555 -184.463)" fill="#5e2568" fill-rule="evenodd"/>
      <path id="Path_27" data-name="Path 27" d="M280.53,367.552a11.527,11.527,0,0,0,1.053-1.252c.072,2.408-.024,3.027-1.513,5a5.7,5.7,0,0,0,.46-3.751" transform="translate(-249.409 -326.198)" fill="#5e2568" fill-rule="evenodd"/>
      <path id="Path_28" data-name="Path 28" d="M254.438,331.472c.173-.356,1.716-1.082,2.435-.109.277.47-2.159,4.284-5.792,5.846a13.906,13.906,0,0,0,4.064-4.27c.6-1.061-1.077-.747-.706-1.471" transform="translate(-223.592 -294.653)" fill="#5e2568" fill-rule="evenodd"/>
      <path id="Path_29" data-name="Path 29" d="M215.616,556.657c.477-.193.559.04-.158.314-4.57,1.76-9.728,1.635-14.326.666a67.591,67.591,0,0,1-10.042-2.815l.438-.972s23.511,3.042,24.085,2.807" transform="translate(-170.17 -493.216)" fill="#deca95" fill-rule="evenodd"/>
      <path id="Path_30" data-name="Path 30" d="M206.221,478.945l.3-.705c.47.227,5.006,2.45,7.444,3.284,5.26,1.811,10.059,2.972,13.527,2.972a27.3,27.3,0,0,0,4.937-.413,18.652,18.652,0,0,0,3.784-1.108,9.751,9.751,0,0,0,2.613-2.38c.3-.381.547-.614.564-.4.337,3.1-3.307,5.2-8.418,5.863-5.194.674-10.166-1.691-15-2.782a24.716,24.716,0,0,1-9.759-4.328" transform="translate(-183.644 -425.884)" fill="#cda8cf" fill-rule="evenodd"/>
      <path id="Path_31" data-name="Path 31" d="M206.23,481.537l.363-.577c.473.219,4.947,2.315,7.384,3.153,5.26,1.812,10.059,2.974,13.527,2.974a26.616,26.616,0,0,0,4.937-.418,17.618,17.618,0,0,0,5.156-1.752c.24-.089-.055.242-.162.338-1.475,1.329-5,2.263-6.65,2.471-5.2.666-9.968-.766-14.8-1.871a24.641,24.641,0,0,1-9.759-4.321" transform="translate(-183.653 -428.306)" fill="#deca95" fill-rule="evenodd"/>
      <path id="Path_32" data-name="Path 32" d="M221.64,492.718l.367.555s.149.172-1.171,1.253a21.409,21.409,0,0,1-4.719,3.116c-4.585,1.662-9.47,1.336-14.245.253a55.208,55.208,0,0,1-9.952-3.133l2.221-7.242a70.018,70.018,0,0,0,6.89,3.107c5.312,1.823,8.539,2.855,13.714,2.9a22.177,22.177,0,0,0,6.9-.808" transform="translate(-170.909 -434.148)" fill="#cda8cf" fill-rule="evenodd"/>
      <path id="Path_33" data-name="Path 33" d="M207.682,502.773c5.385,1.85,8.709,2.913,14,2.947,4.779.046,6.416-.687,6.416-.687a21.56,21.56,0,0,1-5.593,3.684c-3.424,1.273-9.022,1.182-13.685.068a69.63,69.63,0,0,1-9.1-2.771l1.861-5.973a53.9,53.9,0,0,0,6.1,2.737" transform="translate(-177.856 -445.297)" fill="#deca95" fill-rule="evenodd"/>
      <path id="Path_34" data-name="Path 34" d="M263.3,473.88s-3.065,1.652-2.98,11.426c.033,3.958,1.019,5.754,1.019,5.754l-4.85-3.1-4.794,3.12s.519-4.065.519-5.722.068-8.744,2.451-10.533a.316.316,0,0,1,.269-.089,19.174,19.174,0,0,0,8.365-.853" transform="translate(-224.145 -422.001)" fill="#deca95" fill-rule="evenodd"/>
      <path id="Path_35" data-name="Path 35" d="M246.78,488.409l.071-.952c.013-.109.509-4.065.509-5.682,0-3.323.344-9.126,2.615-10.883a.789.789,0,0,1,.542-.21h.083l.153.02c.466.039,1.263.109,2.262.109a16.41,16.41,0,0,0,5.742-.95l.386.853c-.021.013-3.085,1.506-3.04,10.761.037,4.542.57,4.324.766,5.2l.612,1.689-5.374-3.43Zm5.335-4.186,4.231,2.513a10.356,10.356,0,0,1-.876-5c-.044-5.958,1.066-9,2.01-10.491a19.04,19.04,0,0,1-4.464.506h0c-1.038,0-1.855-.074-2.344-.109l-.109-.013c-1.416,1.075-2.241,4.87-2.465,10.139-.08,1.921-.328,2.545-.562,5.356Z" transform="translate(-219.763 -418.421)" fill="#cda8cf"/>
      <path id="Path_36" data-name="Path 36" d="M268.781,494.8l-3.251,2.153.019-.219a16.357,16.357,0,0,0,.234-3.065c0-5.182.82-8.832,2.3-10.291l.142.15c-1.439,1.413-2.237,5.015-2.237,10.138a14.448,14.448,0,0,1-.213,2.872l3.007-1.98,3.154,2.08c-.536-1.473-.778-1.363-.766-3.016.064-4.418.557-8.019,1.7-10.408l.185.09c-1.133,2.359-1.708,5.923-1.669,10.318.009,1.3.438,2.08,1.009,3.872Z" transform="translate(-236.46 -430.309)" fill="#cda8cf"/>
      <path id="Path_37" data-name="Path 37" d="M170.7,484.6c.08-.356.159-.717.25-1.074a.725.725,0,0,1,.05-.219c.412-1.7.9-3.273.9-3.273.115-.4.224-.759.321-1a7.017,7.017,0,0,1,.669-1.124,2.189,2.189,0,0,1,2.452-.63c-.051-1.582-1.2-2.5-2.991-2.353s-2.408,2.164-2.44,3.118-1.128,1.5-1.732,1.934c-.623.428-1.364.5-1.759.937-.416.438.536,1.268,1.455.927l.723-.276a5.746,5.746,0,0,1-.845,2.38,1.816,1.816,0,0,1-1.917.489s-.165,2.6,2.253,2.529a2.919,2.919,0,0,0,2.608-2.337V484.6" transform="translate(-147.683 -422.92)" fill="#deca95" fill-rule="evenodd"/>
      <path id="Path_38" data-name="Path 38" d="M165.5,484.8h0a2.316,2.316,0,0,1-1.752-.682,3.17,3.17,0,0,1-.7-2.181l.022-.4.389.124a1.86,1.86,0,0,0,.54.08,1.212,1.212,0,0,0,1.019-.46,4.6,4.6,0,0,0,.686-1.7l-.195.081a1.632,1.632,0,0,1-.563.109,1.51,1.51,0,0,1-1.354-.773.682.682,0,0,1,.1-.757,2.678,2.678,0,0,1,1.023-.6,3.984,3.984,0,0,0,.8-.393,3.868,3.868,0,0,1,.328-.219c.556-.37,1.239-.832,1.258-1.465.036-1.044.754-3.25,2.727-3.417.129-.008.268-.016.391-.016a2.662,2.662,0,0,1,2.944,2.677l.021.476-.447-.185a2.267,2.267,0,0,0-.721-.117,1.667,1.667,0,0,0-1.366.657,5.853,5.853,0,0,0-.631,1.054c-.088.219-.19.547-.312.966-.008.024-.494,1.589-.9,3.265l-.057.2c-.082.4-.165.742-.232,1.063v.051l-.009.018a3.186,3.186,0,0,1-2.9,2.556Zm-1.823-2.461a2.322,2.322,0,0,0,.53,1.353,1.666,1.666,0,0,0,1.293.483h.091a2.617,2.617,0,0,0,2.316-2.08v-.029c.071-.328.149-.674.242-1.071a1.062,1.062,0,0,1,.061-.27c.411-1.677.9-3.244.9-3.26.127-.438.233-.785.328-1.025l.011-.02a6.52,6.52,0,0,1,.706-1.181,2.3,2.3,0,0,1,1.861-.89,2.709,2.709,0,0,1,.485.04,2.076,2.076,0,0,0-2.282-1.642c-.1,0-.219,0-.338.01-1.563.135-2.125,1.958-2.157,2.822-.019.951-.9,1.533-1.533,1.958-.123.073-.219.145-.32.211a4,4,0,0,1-.936.464,2.229,2.229,0,0,0-.782.438c-.007.008-.019.024,0,.083a.922.922,0,0,0,.787.4.984.984,0,0,0,.338-.06l1.2-.467-.061.513a6.05,6.05,0,0,1-.9,2.541,1.83,1.83,0,0,1-1.52.711A1.692,1.692,0,0,1,163.673,482.34Z" transform="translate(-145.188 -420.443)" fill="#cda8cf"/>
      <path id="Path_39" data-name="Path 39" d="M288.374,499.092l-.644-.231V496.89h.1a8.541,8.541,0,0,0,1.29,1.227,1.654,1.654,0,0,0,.915.356.729.729,0,0,0,.521-.2.617.617,0,0,0,.2-.46.778.778,0,0,0-.137-.443.949.949,0,0,0-.427-.3v-.081a1.085,1.085,0,0,1,.7.312.862.862,0,0,1,.245.636.942.942,0,0,1-.256.672.826.826,0,0,1-.625.276,1.2,1.2,0,0,1-.5-.119,3.316,3.316,0,0,1-.848-.589c-.446-.41-.706-.657-.8-.766v.876a1.936,1.936,0,0,0,.023.37.626.626,0,0,0,.076.193.516.516,0,0,0,.177.147Z" transform="translate(-256.23 -442.492)" fill="#5e2568"/>
      <path id="Path_40" data-name="Path 40" d="M285.01,521.156a2.547,2.547,0,0,1,.978.177,1.423,1.423,0,0,1,.61.462.822.822,0,0,1,.162.457.889.889,0,0,1-.394.69,2.106,2.106,0,0,1-1.319.374,2.664,2.664,0,0,1-.985-.16,1.236,1.236,0,0,1-.58-.429.841.841,0,0,1-.19-.5.91.91,0,0,1,.559-.785A2.315,2.315,0,0,1,285.01,521.156Zm-.065.484a3.088,3.088,0,0,0-1.12.171c-.25.1-.372.229-.372.419a.409.409,0,0,0,.123.271.711.711,0,0,0,.4.219,4.794,4.794,0,0,0,1.19.109,3.245,3.245,0,0,0,.95-.118.849.849,0,0,0,.4-.231.364.364,0,0,0,.083-.241.394.394,0,0,0-.151-.3,1.267,1.267,0,0,0-.646-.238,5.328,5.328,0,0,0-.86-.06Z" transform="translate(-252.276 -464.101)" fill="#5e2568"/>
      <path id="Path_41" data-name="Path 41" d="M285.165,547.29l.394.813v.078h-2.817a1.321,1.321,0,0,0-.344.025.168.168,0,0,0-.109.1.723.723,0,0,0-.036.3h-.093v-1.251h.092a.719.719,0,0,0,.036.3.219.219,0,0,0,.092.093,1.283,1.283,0,0,0,.362.025h1.809a2.884,2.884,0,0,0,.468-.021.193.193,0,0,0,.109-.063.217.217,0,0,0,.038-.109.557.557,0,0,0-.083-.25Z" transform="translate(-251.27 -487.374)" fill="#5e2568"/>
      <path id="Path_42" data-name="Path 42" d="M278.006,566.4h-.355v-.447h-.881v-.408h.881V564.14h.316l2.2,1.543v.274h-2.167Zm0-.852h1.642l-1.642-1.169Z" transform="translate(-246.47 -502.38)" fill="#5e2568"/>
      <path id="Path_43" data-name="Path 43" d="M34.008,68.325a2.593,2.593,0,0,1-.321.147l-.391-.488c-.055-.057-.123-.124-.21-.2l-1.1.547c-.379.219-.657.392-.857.494l-.109.055c-.123.054-.418.219-.893.48l-.109.077-.372.182-.367.219-.186.109a5.839,5.839,0,0,0-.564.354.609.609,0,0,0-.09.1.6.6,0,0,0,.023.086c.015.024.024.062.039.086a3.317,3.317,0,0,0,.157.389l.018.078a1.166,1.166,0,0,1,.067.193.633.633,0,0,1-.158.094.373.373,0,0,1-.154.055c-.036-.047-.091-.131-.15-.229s-.1-.177-.123-.212c-.153-.372-.284-.643-.372-.816-.05-.076-.081-.154-.128-.236a2.033,2.033,0,0,0-.109-.219c-.048-.1-.186-.32-.423-.67A.974.974,0,0,1,27,68.812a2.831,2.831,0,0,1-.139-.276.657.657,0,0,0,.126-.081c.056-.018.115-.047.194-.078l.541.7a.147.147,0,0,0,.174.02l.149-.1.076-.042.185-.1.15-.08.033-.013a.109.109,0,0,1,.074-.049l.547-.3c.05-.031.085-.058.117-.072l.136-.069c.047-.018.1-.048.15-.072s.142-.091.295-.177c-.027-.088-.059-.165-.079-.219l-.35-.647-.174-.309-.424-.781-.438-.742a1.834,1.834,0,0,0-.2-.3c-.1.049-.343.175-.727.383l-.2.094-.719.426-.27.21a.147.147,0,0,0-.028.1,3.11,3.11,0,0,0,.134.689,1.707,1.707,0,0,1,.038.178,1.032,1.032,0,0,1-.263.1.353.353,0,0,1-.067-.109l-.229-.413a6.083,6.083,0,0,0-.4-.838c-.032-.067-.061-.109-.082-.151L25,65.158a.673.673,0,0,0-.086-.139,1.656,1.656,0,0,1-.209-.3c-.045-.082-.091-.177-.146-.3a2.6,2.6,0,0,1,.311-.151c.2.232.337.388.4.45a1.615,1.615,0,0,0,.238.184l.092-.023.086-.038.1-.065.062-.028a1.011,1.011,0,0,0,.143-.059l.109-.061c.123-.072.2-.116.212-.128l.547-.3.4-.234.547-.291c.134-.067.382-.219.766-.438l.611-.346.506-.278c.1-.06.209-.109.348-.184a1.049,1.049,0,0,0-.051-.194,3.553,3.553,0,0,1-.159-.7l.3-.182c.061.115.1.182.109.2a5.414,5.414,0,0,1,.241.485,11.017,11.017,0,0,0,.591,1.152,8.939,8.939,0,0,0,.555.881.49.49,0,0,1,.057.163,1.312,1.312,0,0,1-.309.12l-.257-.288-.236-.308a1.455,1.455,0,0,1-.109-.109,12.578,12.578,0,0,0-1.178.6l-.38.182a4.408,4.408,0,0,1-.521.339,3.232,3.232,0,0,0,.166.348l1.095,2.008.015.047.009.027a.38.38,0,0,1,.042.067c.045.071.08.138.116.189l.061.122a.657.657,0,0,0,.136.165l.328-.16.055-.027a1.3,1.3,0,0,1,.142-.092l1.331-.74c.072-.043.148-.089.219-.138l.008-.05-.255-.7c-.013-.039-.018-.063-.023-.079a.249.249,0,0,1-.007-.122c.055-.047.1-.076.118-.092l.166-.068c.058.109.109.19.149.265s.063.128.1.176a.611.611,0,0,1,.031.081l.321.619c.067.15.17.357.311.612l.056.1c.078.117.117.184.13.2C33.628,67.676,33.791,67.946,34.008,68.325Zm-4.154-7.906a4.388,4.388,0,0,0-.164-.669l-.071-.19c-.067-.773-.118-1.254-.142-1.454a.631.631,0,0,0-.117.01c-.048.011-.123.021-.238.044v.353a.921.921,0,0,1-.059.449.227.227,0,0,1-.174.1,1.065,1.065,0,0,1-.359-.042c-.635-.118-1.039-.195-1.212-.245l-.287-1.85.9-.535.438-.269a.377.377,0,0,1,.13-.045.166.166,0,0,1,.109.031.876.876,0,0,1,.137.266l.206.52a1.928,1.928,0,0,0,.328-.035l-.043-.235-.171-.82c-.027-.109-.062-.3-.1-.547-.034-.232-.065-.488-.091-.788s-.048-.557-.084-.794a.837.837,0,0,0-.109.012c-.047.01-.131.031-.236.061a1.876,1.876,0,0,0-.036.448.665.665,0,0,1-.056.3.9.9,0,0,1-.219.186,5.352,5.352,0,0,1-.584.357c-.289.168-.5.29-.636.377-.241.152-.547.338-.92.547s-.766.452-1.152.707l-1.864,1.159-.082.057.025.219c.021.1.037.2.059.31l3.2.671,2.726.571a.884.884,0,0,1,.312.16,1.423,1.423,0,0,1,.194.438c.058.146.1.251.129.308l.339-.044Zm-3.073-1.752c-.109-.766-.177-1.2-.2-1.342l-.02-.117c-.282.139-.592.317-.955.532s-.624.39-.818.521ZM28.916,51.9c.039-.49.083-.9.136-1.256l.137-.824a5.979,5.979,0,0,0,.063-.832,3.565,3.565,0,0,0-.13-.9,1.788,1.788,0,0,0-.372-.643,1.192,1.192,0,0,0-.438-.367,2.014,2.014,0,0,0-.657-.219,1.436,1.436,0,0,0-1.033.241,2,2,0,0,0-.766,1.039,3.756,3.756,0,0,0-.235-.671,1.469,1.469,0,0,0-.37-.462,1.2,1.2,0,0,0-.52-.2,1.766,1.766,0,0,0-.519.016,1.163,1.163,0,0,0-.469.219,1.243,1.243,0,0,0-.378.378,1.921,1.921,0,0,0-.219.374,3.3,3.3,0,0,0-.229.795l-.042.309c-.027.14-.032.219-.039.255a.606.606,0,0,0-.009.119l-.024.188-.172,1.6L22.5,52.154l.348.036c.069-.251.109-.408.128-.471a.537.537,0,0,1,.1-.281c.021-.02.032-.036.053-.041a1.319,1.319,0,0,1,.461.016c.912.109,1.472.174,1.694.2l2.071.28a5.121,5.121,0,0,1,.794.155.875.875,0,0,1,.209.117,2.5,2.5,0,0,1,.051.527c0,.109,0,.207,0,.286l.393.07c.067-.637.1-1.012.115-1.153Zm-3.492-1.63a4.447,4.447,0,0,0,.091-.458,1.929,1.929,0,0,0-.109-1.147,1.055,1.055,0,0,0-.876-.5,1.018,1.018,0,0,0-.833.244,1.623,1.623,0,0,0-.465,1.024c-.009.138-.02.328-.02.547.078.016.181.028.323.044.281.023.662.071,1.165.137l.413.077a2.5,2.5,0,0,1,.312.034Zm3.11.366a1.574,1.574,0,0,0,.219-.574,2.017,2.017,0,0,0-.041-.927,1.13,1.13,0,0,0-.4-.579,1.767,1.767,0,0,0-.733-.269,1.548,1.548,0,0,0-.779.068,1.26,1.26,0,0,0-.607.52,2.846,2.846,0,0,0-.273,1.019,1.009,1.009,0,0,0-.015.43l.6.079.719.124,1.123.142A.629.629,0,0,0,28.534,50.639Zm1.606-5.057c.1-.316.177-.559.235-.724l.345-.8c.177-.349.28-.54.3-.581a.664.664,0,0,0,.06-.109,1.2,1.2,0,0,1,.059-.169.411.411,0,0,1,.035-.1.886.886,0,0,0-.158-.063,1.118,1.118,0,0,0-.233-.076c-.088.149-.139.24-.155.261a2.758,2.758,0,0,1-.288.478.232.232,0,0,1-.109-.03l-.173-.067-.916-.369-.6-.258-1.2-.483c-.28-.109-.671-.275-1.181-.49a3.343,3.343,0,0,1-.328-.109,1.9,1.9,0,0,1-.328-.171,2.4,2.4,0,0,1,.043-.438c.023-.169.039-.328.046-.465-.078-.036-.15-.067-.2-.094l-.145-.047c-.022.06-.067.2-.143.421-.134.408-.236.706-.311.876-.016.039-.063.141-.136.3l-.573,1.29.4.152c.023-.037.047-.1.074-.152a2.106,2.106,0,0,1,.361-.57,1.241,1.241,0,0,1,.163.028l.2.069.529.2.236.109.6.234c.019.005.328.142.922.4l.253.1,1.035.427.539.219a.778.778,0,0,1,.351.236,1.839,1.839,0,0,1-.022.508c-.025.154-.036.268-.048.336l.337.134c.019-.058.061-.194.122-.4Zm2.069-4.529c.267-.414.5-.766.709-1.051l.5-.657a5.393,5.393,0,0,0,.453-.713,4,4,0,0,0,.3-.842,2.114,2.114,0,0,0-.025-.75,1.359,1.359,0,0,0-.219-.53,2.448,2.448,0,0,0-.475-.5,1.46,1.46,0,0,0-1.033-.266,2.069,2.069,0,0,0-1.164.558,5.265,5.265,0,0,0,.109-.708,1.423,1.423,0,0,0-.118-.581,1.2,1.2,0,0,0-.363-.424,1.435,1.435,0,0,0-.455-.23,1.283,1.283,0,0,0-.512-.038,1.622,1.622,0,0,0-.512.166,3,3,0,0,0-.368.23,2.912,2.912,0,0,0-.569.593l-.185.256c-.09.109-.136.182-.159.211a.39.39,0,0,0-.068.1l-.109.158-.909,1.327-.626.905.3.2.335-.36a.634.634,0,0,1,.219-.2.1.1,0,0,1,.072-.012,2.344,2.344,0,0,1,.4.228c.751.521,1.22.844,1.386.974l1.7,1.218a7.347,7.347,0,0,1,.633.513.863.863,0,0,1,.126.2,1.9,1.9,0,0,1-.2.489c-.047.1-.09.19-.122.262l.312.235c.346-.517.562-.84.634-.95ZM29.89,37.97a3.053,3.053,0,0,0,.292-.359,1.97,1.97,0,0,0,.438-1.066,1.066,1.066,0,0,0-.541-.856,1.013,1.013,0,0,0-.843-.176,1.606,1.606,0,0,0-.892.686,5.294,5.294,0,0,0-.276.477c.062.049.149.1.261.186.236.153.559.37.957.668l.328.253C29.682,37.824,29.765,37.883,29.89,37.97Zm2.576,1.8a1.5,1.5,0,0,0,.454-.407,2.05,2.05,0,0,0,.4-.836,1.039,1.039,0,0,0-.079-.7,1.612,1.612,0,0,0-.523-.582,1.41,1.41,0,0,0-.72-.3,1.246,1.246,0,0,0-.777.171,3.166,3.166,0,0,0-.718.766,1.423,1.423,0,0,0-.219.372l.489.355.588.438.921.651a.484.484,0,0,0,.182.071Zm5.093-12.226q.529-.21.688-.109a3.148,3.148,0,0,1,.461.828l.946,2.141a6.678,6.678,0,0,0,.49.926,1.941,1.941,0,0,0,.7.634,1.909,1.909,0,0,0,.971.152,3.56,3.56,0,0,0,1.279-.343,4,4,0,0,0,1.005-.616,2.518,2.518,0,0,0,.61-.693,1.877,1.877,0,0,0,.243-.713,1.613,1.613,0,0,0-.037-.565,8.785,8.785,0,0,0-.486-1.256l-.45-.893c-.1-.219-.209-.438-.312-.645a.924.924,0,0,1-.091-.184,2.6,2.6,0,0,1-.109-.249c-.081-.182-.149-.31-.188-.383a1.546,1.546,0,0,1-.12-.231.212.212,0,0,1-.014-.19,1.554,1.554,0,0,1,.308-.211,1.806,1.806,0,0,0,.328-.21.328.328,0,0,0-.041-.128.7.7,0,0,0-.109-.193l-.079.022a7.9,7.9,0,0,1-.818.408l-.876.344-.356.154.143.351.066-.014.415-.2a.561.561,0,0,1,.4,0c.079.031.159.137.252.313l.125.219c.487.876.889,1.67,1.2,2.4a3.894,3.894,0,0,1,.328.96,2.2,2.2,0,0,1-.024.563.91.91,0,0,1-.158.377,1.442,1.442,0,0,1-.319.392,3.512,3.512,0,0,1-.756.467,1.766,1.766,0,0,1-.823.141,1.139,1.139,0,0,1-.573-.193,1.907,1.907,0,0,1-.58-.718L40.644,29.3l-.328-.79-.182-.348-.177-.425-.08-.162c-.031-.057-.067-.131-.109-.227a1.82,1.82,0,0,1-.19-.559.487.487,0,0,1,.3-.249,3.735,3.735,0,0,0,.5-.265l-.009-.034-.127-.262-.031-.059a2.9,2.9,0,0,1-.357.164c-.177.082-.375.181-.6.3s-.462.219-.7.322c-.071.032-.308.128-.712.28-.163.068-.328.134-.48.2-.055.03-.109.054-.168.084l.175.348A.876.876,0,0,0,37.559,27.539Zm10.23-3.554a1.139,1.139,0,0,1,.391.246.438.438,0,0,1,.118.2,2.678,2.678,0,0,1,.1.785l.055,1L48.5,27.8v.282c0,.109.013.429,0,.952,0,.176-.014.289-.072.328a1.17,1.17,0,0,1-.484.08h-.194a1.413,1.413,0,0,0-.228.027v.181c0,.059.014.123.014.2a.842.842,0,0,0,.172.014l.282-.026c.174-.018.522-.045,1.043-.071.558.037.9.054,1,.045l.194-.013-.036-.412a.985.985,0,0,0-.13-.028,3.968,3.968,0,0,1-.836-.076c-.03-.067-.051-.118-.067-.148a1.446,1.446,0,0,1-.023-.183c-.042-.313-.071-.6-.092-.869l-.055-.639V27.1c0-.118,0-.228-.011-.339l-.115-1.825.824.7c.34.284.717.619,1.137,1l.634.612.859.806,1.233,1.142.615.587.559-.041-.013-.263c0-.026-.01-.109-.027-.239l.009-.264-.026-.259-.021-.6a2,2,0,0,0-.015-.265l-.109-1.722c0-.109-.019-.211-.023-.3-.035-.277-.059-.657-.08-1.129-.008-.219-.019-.353-.019-.414-.015-.122-.021-.187-.021-.208a.3.3,0,0,1,.039-.183,2.5,2.5,0,0,1,.249-.188,2.113,2.113,0,0,1,.36-.109.728.728,0,0,0,.219-.1l-.019-.32c-.063,0-.125.005-.2.012l-1.064.07-.969.059-.117.022v.29a1.533,1.533,0,0,0,.4.1.9.9,0,0,1,.485.149c.048.043.072.169.081.382,0,.07.037.315.084.739a6.687,6.687,0,0,1,.055.737c.021.272.039.506.06.7s.043.462.065.8l.037.568v.123c-2.063-1.92-3.258-3.033-3.59-3.355s-.758-.706-1.283-1.146h-.153c-.035,0-.124.008-.3.023s-.273.018-.3.023a.778.778,0,0,1-.109-.005c-.2,0-.3.005-.347.005-.07,0-.219.01-.408.028h-.139l-.429.022.036.344a3.645,3.645,0,0,1,.674.119Zm9.168,6.056c.328.051.577.094.75.132l.844.219c.37.126.571.209.617.226a.839.839,0,0,0,.12.044c.011,0,.084.013.182.035a.546.546,0,0,1,.089.016c.024-.071.036-.123.053-.162a1.889,1.889,0,0,0,.034-.242c-.153-.066-.251-.1-.274-.118a3.612,3.612,0,0,1-.519-.219.328.328,0,0,1,.018-.109l.045-.186.23-.955.171-.635.311-1.263c.068-.292.177-.7.323-1.234.012-.092.039-.2.068-.344a2.11,2.11,0,0,1,.109-.354c.109,0,.264-.016.438-.01s.328-.007.472-.013c.023-.091.043-.16.059-.219a.929.929,0,0,0,.032-.149c-.063-.015-.207-.039-.438-.08-.423-.082-.727-.14-.912-.187l-.317-.089-1.344-.4-.09.43a.9.9,0,0,0,.162.055,1.971,1.971,0,0,1,.615.277,1.058,1.058,0,0,1,0,.159l-.05.21-.115.547-.077.251-.157.636c0,.02-.091.342-.268.97l-.066.258L57.8,28.623l-.14.569a.923.923,0,0,1-.187.384,1.905,1.905,0,0,1-.513.05h-.328l-.086.344Zm6.317-4.5a1.6,1.6,0,0,1,.344.276.558.558,0,0,1,.086.245c0,.05-.011.415-.051,1.086l-.132,1.446-.163,2.277c-.076.657-.117,1.03-.139,1.137s-.031.209-.043.314a1.861,1.861,0,0,0,.233.128,1.16,1.16,0,0,0,.219.109c.146-.123.391-.356.737-.7l.088-.055c.272-.24.438-.377.477-.414.162-.149.328-.284.461-.405a5.166,5.166,0,0,0,.409-.353L67.122,29.5a12.493,12.493,0,0,1,1.12-.906.657.657,0,0,1,.2-.082,4.652,4.652,0,0,1,.8.079.8.8,0,0,0,.081-.161l.083-.14c-.109-.05-.261-.109-.438-.186a5.387,5.387,0,0,1-.636-.29c-.238-.13-.469-.265-.706-.424s-.383-.247-.43-.273a1.665,1.665,0,0,0-.124.192.548.548,0,0,0-.043.153c.043.034.1.067.162.109a.9.9,0,0,1,.147.109.947.947,0,0,1,.346.342.185.185,0,0,1,.014.189,1.132,1.132,0,0,1-.251.289c-.119.109-.287.273-.5.483a1.962,1.962,0,0,1-.15.155l-.291.24-1.267,1.157-.588.487c.031-.235.054-.487.07-.76l.109-1.382a11.89,11.89,0,0,1,.131-1.471l.066-.45a.191.191,0,0,1,.039-.1.169.169,0,0,1,.1-.088.662.662,0,0,1,.362.015c.051.011.236.079.541.194.015-.024.07-.149.177-.359l-.312-.17c-.109-.036-.259-.1-.458-.186-.273-.12-.45-.207-.534-.256a14.1,14.1,0,0,1-1.376-.8c-.035-.016-.122-.073-.263-.155l-.2.378Zm7.889,4.6c.056.06.091.122.142.169a3.064,3.064,0,0,1,.328.438c.028.046.062.093.078.123a.228.228,0,0,1,.049.157.871.871,0,0,0-.06.078l-.412.447-.4.384-.547.564-.407.38-1.326,1.3-.1.1c-.1.1-.171.166-.2.2a1.044,1.044,0,0,1-.3.211,2.878,2.878,0,0,1-.6-.4,2.912,2.912,0,0,0-.3-.231l-.244.243.43.412.141.147c.428.391.766.725,1.048,1.012.547.565,1.009,1.058,1.376,1.478.533.6.868.957.985,1.095.088.085.219.207.365.354l.464-.328.79-.518.135-.079a1.341,1.341,0,0,1,.165-.13,1.461,1.461,0,0,0-.119-.115,1.422,1.422,0,0,0-.185-.173,2.487,2.487,0,0,1-1.043.244,1.2,1.2,0,0,1-.645-.2,5.935,5.935,0,0,1-.882-.766,4,4,0,0,1-.787-.96.271.271,0,0,1,.089-.281l.766-.728c.195-.182.427-.4.7-.677a1.009,1.009,0,0,1,.122-.116c.2.159.462.419.808.766a4.167,4.167,0,0,1,.483.547.35.35,0,0,1,.039.232,1.986,1.986,0,0,1-.293.524,2.967,2.967,0,0,0-.176.27l.244.256.076-.071c.071-.07.177-.172.3-.312.139-.143.234-.251.3-.308s.109-.1.173-.158.236-.219.482-.458c.109-.109.268-.261.466-.481l-.2-.2-.055-.049a4.779,4.779,0,0,1-.636.379.48.48,0,0,1-.259.037,1.15,1.15,0,0,1-.391-.269c-.19-.165-.49-.453-.889-.87-.043-.045-.086-.1-.138-.165l.438-.427.6-.566c.4-.393.634-.613.69-.675.224.219.477.473.756.766.245.247.465.495.657.73.109.139.175.212.194.236a1.3,1.3,0,0,1,.194.255,2.264,2.264,0,0,1-.109.539L74.4,34.9c-.054.129-.1.219-.126.291a1.684,1.684,0,0,0,.109.13l.148.138c.031-.03.063-.049.068-.059l.141-.148.74-.709a.339.339,0,0,0,.117-.24,5.167,5.167,0,0,0-.556-.688l-.624-.636c-.411-.438-.876-.89-1.412-1.4-.352-.34-.563-.547-.644-.636a6.316,6.316,0,0,1-.591-.685c-.076-.109-.186-.235-.308-.384Zm1.156,9.82a1.424,1.424,0,0,0-.149.082l.109.19a4.822,4.822,0,0,0,.264.489l.347.591c.016.032.044.088.085.165.056.115.2.5.46,1.164l.094.182c.007.018.023.05.051.109a2.477,2.477,0,0,0,.344-.142,4.354,4.354,0,0,0-.129-.678,1.22,1.22,0,0,1-.045-.38l.85-.373.967-.5a2.784,2.784,0,0,1,.31-.134c.071.136.124.239.159.3a.965.965,0,0,1,.129.5,2.027,2.027,0,0,1-.338.547c-.47.622-.817,1.062-1.039,1.33-.081.109-.208.273-.362.5l-.219.279a1.824,1.824,0,0,0,.109.19c.1.17.159.266.174.3l.219.447c.065.137.117.258.158.36l.083.176.081.243.057.088.047.117a.4.4,0,0,0,.109-.045.452.452,0,0,0,.117-.089,1.415,1.415,0,0,0,0-.376,1.545,1.545,0,0,1,0-.419,4.21,4.21,0,0,1,.36-.605l.807-1.268c.083-.129.189-.305.3-.512.059-.1.109-.181.159-.249a1.861,1.861,0,0,0,.978.611,1.411,1.411,0,0,0,.941-.109,1.537,1.537,0,0,0,.8-1.05,2.317,2.317,0,0,0-.241-1.665,11.8,11.8,0,0,0-.584-1.07l-.3-.535-.123-.23c-.013-.018-.057-.138-.15-.358-.109-.2-.172-.342-.206-.4a2.543,2.543,0,0,0-.231-.4l-.056.009-.261.134c.027.087.1.255.189.5l.071.281c-.165.093-.554.292-1.163.592-.282.137-.577.278-.9.427l-.244.109L75.1,39.6l-.541.245-.974.485c-.247.117-.386.185-.429.2a.954.954,0,0,1-.146.03,2.374,2.374,0,0,1-.293-.36.942.942,0,0,0-.259-.293.766.766,0,0,0-.137.05Zm3.972.547c.057.149.109.247.136.314a1.79,1.79,0,0,0,.792.938.978.978,0,0,0,.876-.038,1.811,1.811,0,0,0,.475-.328,1.044,1.044,0,0,0,.279-.37,1.314,1.314,0,0,0,.055-.557,2.518,2.518,0,0,0-.244-.657,1.67,1.67,0,0,0-.2-.335l-.082.03-.584.3-.376.164-.48.243c-.137.056-.31.14-.532.238Zm5.769,8a3.768,3.768,0,0,0-.053-.7,2.258,2.258,0,0,0-.855-1.521,1.8,1.8,0,0,0-1.4-.294,2,2,0,0,0-.76.351,1.736,1.736,0,0,0-.556.673,5.281,5.281,0,0,0-.319,1.34,4.037,4.037,0,0,1-.288,1.19.945.945,0,0,1-.6.46.992.992,0,0,1-.582-.09,1.047,1.047,0,0,1-.458-.431,1.8,1.8,0,0,1-.232-.557,1.488,1.488,0,0,1-.005-.561,1.154,1.154,0,0,1,.15-.48,1.964,1.964,0,0,1,.328-.407,6.421,6.421,0,0,1,.6-.426l-.1-.438-.185.034c-.084.016-.229.049-.438.092-.4.1-.615.145-.657.147L75.6,46.9c-.043.02-.074.039-.079.061a1.057,1.057,0,0,0-.062.328l-.061.615a4.573,4.573,0,0,0,.061.828,3,3,0,0,0,.253.821,2.422,2.422,0,0,0,.405.575,3.072,3.072,0,0,0,.431.388,1.367,1.367,0,0,0,.5.208,2.542,2.542,0,0,0,.928-.007,2.035,2.035,0,0,0,.67-.242,1.958,1.958,0,0,0,.5-.5,2.067,2.067,0,0,0,.294-.72,4.57,4.57,0,0,0,.131-.766,2.839,2.839,0,0,1,.321-1.26.913.913,0,0,1,.547-.392.812.812,0,0,1,.663.157,1.14,1.14,0,0,1,.4.689,1.179,1.179,0,0,1-.229.944,2.58,2.58,0,0,1-.777.591v.056l.05.356.02.046a.985.985,0,0,0,.187-.011,7.356,7.356,0,0,0,.766-.209c.212-.074.374-.135.48-.185a6.177,6.177,0,0,0,.065-.772ZM76,52.5c.031.328.038.588.038.759l-.028.876c-.046.39-.07.611-.073.657a1.015,1.015,0,0,0-.022.123c0,.016,0,.079.009.188v.092c.077.008.13.016.166.016.068,0,.154-.009.245-.016.031-.174.046-.277.046-.3a4.952,4.952,0,0,1,.1-.547c.05-.005.088-.01.109-.01h.191l.985.014.657.022,1.3.014c.3.007.721.018,1.279.04a2.666,2.666,0,0,1,.337-.008,1.578,1.578,0,0,1,.373.033,3.609,3.609,0,0,1,.126.419,2.472,2.472,0,0,0,.118.45c.083.009.154.018.21.018h.157c0-.063-.008-.219-.018-.453-.025-.438-.025-.739-.025-.928a2.85,2.85,0,0,1,.02-.328l.079-1.4h-.43a.788.788,0,0,0-.02.175,1.894,1.894,0,0,1-.125.657,1.107,1.107,0,0,1-.164.032h-.209l-.561.01-.258-.019h-.657c-.019,0-.348-.021-1-.054h-.268l-1.122-.034h-.578a.851.851,0,0,1-.418-.1,1.994,1.994,0,0,1-.157-.485c-.035-.154-.059-.257-.078-.328l-.359-.005A3.285,3.285,0,0,0,76,52.49Zm6,5.518a9.792,9.792,0,0,1-1.136-.74,1.11,1.11,0,0,0-.255.235c-.009.043.026.109.1.219a3.034,3.034,0,0,1,.485.782,1.564,1.564,0,0,1-.074.62,8.582,8.582,0,0,1-.286.955.079.079,0,0,1-.038.057.091.091,0,0,1-.074.014,8.087,8.087,0,0,1-.908-.215l-1.8-.463c-.833-.219-1.429-.39-1.812-.513a.717.717,0,0,1-.219-.122,4.862,4.862,0,0,1-.028-.746.7.7,0,0,0-.091-.447l-.042-.008-.109-.027c-.024,0-.063-.016-.109-.025-.015.058-.043.173-.074.358-.086.472-.146.761-.165.856-.162.6-.28,1.012-.368,1.233a7.715,7.715,0,0,0-.259.825,1.429,1.429,0,0,1-.044.174c.055.022.091.038.123.047a1.75,1.75,0,0,0,.209.025,1.826,1.826,0,0,0,.146-.23,1.991,1.991,0,0,0,.165-.328,1.616,1.616,0,0,1,.142-.263,1.332,1.332,0,0,1,.509.072l.623.166,1.509.392L79.5,61.3l.648.173a1.685,1.685,0,0,1,.3.1,3.4,3.4,0,0,1-.073.339,9.417,9.417,0,0,1-.293.994.277.277,0,0,1-.109.116,2.644,2.644,0,0,1-.438.08,3,3,0,0,0-.6.134,1.717,1.717,0,0,0-.022.356,1.721,1.721,0,0,0,.219.081l.241.066.418.117c.45.109.779.194.992.25.02-.06.03-.109.043-.14l.055-.208a.9.9,0,0,0-.117-.083.958.958,0,0,1-.193-.19l.035-.3.393-1.471.289-1.071.157-.582.018-.09c.05-.192.109-.408.177-.657.1-.39.162-.6.178-.646a2.251,2.251,0,0,1,.362-.123.328.328,0,0,0,.094-.026l.079-.293C82.279,58.184,82.165,58.115,82,58.018Zm-2.682,8.329c-.019-.016-.048-.034-.059-.043a.476.476,0,0,0-.074-.025c-.195.2-.3.3-.328.322a.67.67,0,0,1-.186.09c-.3.021-.473.036-.5.036l-.855-.015-1.757.012a2,2,0,0,0-.292.019,1.21,1.21,0,0,1-.774-.109l-.1-.059c-.026-.019-.117-.073-.27-.171s-.438-.287-.865-.555l-.238-.158c.01-.035.015-.076.025-.12l.338-.862c-.056-.038-.1-.067-.129-.086a.7.7,0,0,0-.131-.076l-.185.281a2,2,0,0,0-.177.328.741.741,0,0,1-.1.2l-.219.343-.3.466-.208.3-.328.417-.328.471a1.327,1.327,0,0,0,.109.079.476.476,0,0,0,.1.07.1.1,0,0,0,.1.018,1.794,1.794,0,0,0,.353-.4c.109-.12.177-.2.219-.236a.274.274,0,0,1,.073-.015l1.066.673a1.52,1.52,0,0,1,.211.151l.109.071.355.236.127.084a.558.558,0,0,1,.1.159c.1.189.262.6.495,1.2l.453,1.063a3.217,3.217,0,0,1,.355.942,1.5,1.5,0,0,1-.158.573l-.015.063.3.2a.782.782,0,0,1,.067-.119c.086-.151.145-.27.193-.371l.043-.069.128-.2a.353.353,0,0,1,.079-.091l.591-.822a2.91,2.91,0,0,0-.321-.169c-.026.026-.062.065-.11.115a1.2,1.2,0,0,1-.134.141.883.883,0,0,1-.13.167.378.378,0,0,1-.109.069.545.545,0,0,1-.088-.033.636.636,0,0,1-.128-.189l-.391-.758,0-.045c-.2-.448-.336-.8-.429-1.066l-.328-.812a2.092,2.092,0,0,1,.3-.012h.356a.769.769,0,0,1,.1,0c.316.012.49.016.535.012h.518a7.176,7.176,0,0,1,1.291.016l.053.045v.034c-.06.132-.1.228-.139.308l-.083.2a1.134,1.134,0,0,0-.086.264l.2.14a.537.537,0,0,0,.1.031l.021-.031a.421.421,0,0,0,.03-.069,6.017,6.017,0,0,1,.378-.672c.14-.2.32-.467.578-.8a3.854,3.854,0,0,1,.254-.317l.022-.05c.016-.025.051-.067.1-.13l.035-.035a2.437,2.437,0,0,0,.3-.538A1.255,1.255,0,0,1,79.319,66.347Z" transform="translate(-20.037 -20.642)" fill="#fff" fill-rule="evenodd"/>
    </g>
    <g id="Group_1474" data-name="Group 1474" transform="translate(232.07 58.529)">
      <path id="Path_97" data-name="Path 97" d="M127.906,0H0" transform="translate(0 21.314)" fill="none" stroke="#5e2568" stroke-width="0.6"/>
      <g id="Group_1473" data-name="Group 1473" transform="translate(0.505 0)">
        <path id="Path_44" data-name="Path 44" d="M614.5,148.48c.462,0,1.324.058,2.7.058,1.419,0,2.174-.058,2.685-.058a.954.954,0,0,1-.019.614,6.307,6.307,0,0,0-.9.173c-.384.134-.48.345-.5.94-.019.844-.019,1.957-.019,3.28a.237.237,0,0,0,.1.153,24.356,24.356,0,0,0,2.743.038c1.5,0,2.168,0,2.4-.019.038-.019.115-.077.115-.128,0-.959,0-2.647-.038-3.587a.631.631,0,0,0-.4-.633,4.054,4.054,0,0,0-1.055-.211.69.69,0,0,1,0-.614c.69,0,1.419.058,2.743.058,1.381,0,2.148-.058,2.609-.058a.759.759,0,0,1,0,.614,4.445,4.445,0,0,0-.94.192c-.364.134-.48.326-.5.94-.038,1.074-.038,1.995-.038,4.335,0,1.4,0,3.107.038,3.894.038.518.115.806.46.921a5.538,5.538,0,0,0,1.208.23.914.914,0,0,1-.077.639c-.518,0-1.515-.058-2.762-.058-1.17,0-2.3.058-2.743.058a.815.815,0,0,1-.019-.639,4.793,4.793,0,0,0,.978-.173c.345-.1.5-.326.518-.921.019-.786.019-2.379.019-3.625a.128.128,0,0,0-.115-.134c-.364-.019-1.553-.019-2.455-.019-1.976.019-2.609.019-2.724.058a.324.324,0,0,0-.058.115c0,1.151,0,2.743.019,3.453.019.595.1.9.556,1.036a7.374,7.374,0,0,0,1.093.211.9.9,0,0,1-.077.639c-.365,0-1.266-.058-2.858-.058-1.362,0-2.32.058-2.724.058a1.046,1.046,0,0,1,0-.639c.442-.058.652-.1.922-.153.512-.134.632-.441.67-1.285.019-.4.038-2.129.038-3.817,0-1.861-.019-3.664-.038-4.162-.038-.595-.128-.806-.511-.9a6.179,6.179,0,0,0-1.054-.192A.935.935,0,0,1,614.5,148.48Z" transform="translate(-614.408 -147.348)" fill="#5e2568"/>
        <path id="Path_45" data-name="Path 45" d="M729.352,180.049a1.629,1.629,0,0,0-1.362-.633,1.435,1.435,0,0,0-.882.23,5.95,5.95,0,0,0-.69,1.228c-.077.077-.671-.211-.652-.345a3.914,3.914,0,0,1,.422-1.208,6.48,6.48,0,0,1,2.839-1.17,2.487,2.487,0,0,1,2.148,1.113,3.393,3.393,0,0,1,.478,1.937c0,.921-.056,2.244-.056,3.012,0,.384.128.748.593.748a1.917,1.917,0,0,0,.652-.1,2.191,2.191,0,0,1-.1.71,2.938,2.938,0,0,1-1.918.71,1.089,1.089,0,0,1-1.112-.556l-.115-.364c0-.038-.058-.038-.077-.038a5.2,5.2,0,0,1-2.187.959,1.654,1.654,0,0,1-1.113-.46,2.545,2.545,0,0,1-.729-1.841,3.525,3.525,0,0,1,.326-1.132c.595-.326,2.941-.882,3.645-1.208a.342.342,0,0,0,.154-.211,2.1,2.1,0,0,0,.019-.345A1.844,1.844,0,0,0,729.352,180.049Zm.192,2.206a13.883,13.883,0,0,0-1.841.71,1.569,1.569,0,0,0-.172.633,1.284,1.284,0,0,0,1.285,1.362,1.14,1.14,0,0,0,.614-.173.426.426,0,0,0,.154-.384c.038-.537.038-1.726.038-2.052,0-.015-.057-.092-.077-.092Z" transform="translate(-711.29 -173.224)" fill="#5e2568"/>
        <path id="Path_46" data-name="Path 46" d="M791.671,145.519a3.79,3.79,0,0,1,.883,2.494,4.183,4.183,0,0,1-1.631,3.51,6.545,6.545,0,0,1-3.106,1.17,7.086,7.086,0,0,1-1.822-.249,2.1,2.1,0,0,0-1.093,0c-.058.019-.173-.1-.173-.134.057-.652.1-2.11.1-4.815-.019-2.8-.019-5.275-.1-5.946-.038-.307-.1-.441-.422-.537a6.17,6.17,0,0,0-.825-.134.839.839,0,0,1,.038-.575,15.981,15.981,0,0,0,3.549-.671c.057.019.128.256.115.345-.154.269-.211.556-.211,2.839v2.57c.019.058.057.077.1.058a6.6,6.6,0,0,1,2.455-.882A2.741,2.741,0,0,1,791.671,145.519Zm-4.545.537a.364.364,0,0,0-.134.269c-.038.825-.038,3.05.019,4.047a1.136,1.136,0,0,0,.326.863,1.988,1.988,0,0,0,1.343.5,1.264,1.264,0,0,0,1.074-.537,3.738,3.738,0,0,0,.593-2.206,3.814,3.814,0,0,0-.614-2.321,1.867,1.867,0,0,0-1.687-.844A2.3,2.3,0,0,0,787.126,146.056Z" transform="translate(-761.832 -139.63)" fill="#5e2568"/>
        <path id="Path_47" data-name="Path 47" d="M867.321,162.724c-.384,0-1.055-.058-2.187-.058-.978,0-1.707.058-2.129.058a1.042,1.042,0,0,1,0-.639,3.4,3.4,0,0,0,.748-.153c.249-.1.307-.269.326-.729s.038-1.669.038-2.628c0-.671-.019-1.419-.019-1.765a.67.67,0,0,0-.153-.46,1.847,1.847,0,0,0-.806-.441.8.8,0,0,1,.058-.556,11.837,11.837,0,0,0,3.088-.639c0,.806-.019,2.187-.019,3.3,0,1,0,2.283.019,3.165,0,.5.115.652.364.748a4.406,4.406,0,0,0,.748.153A.933.933,0,0,1,867.321,162.724Zm-1.547-9.437a2.272,2.272,0,0,1-1.247.1,1.132,1.132,0,0,1-.595-.825,1.364,1.364,0,0,1,.115-.825,2.207,2.207,0,0,1,1.266-.4,1.079,1.079,0,0,1,.767.23,1.249,1.249,0,0,1,.173.652A1.478,1.478,0,0,1,865.774,153.287Z" transform="translate(-831.171 -149.834)" fill="#5e2568"/>
        <path id="Path_48" data-name="Path 48" d="M908.512,145.519a3.79,3.79,0,0,1,.882,2.494,4.184,4.184,0,0,1-1.63,3.51,6.545,6.545,0,0,1-3.108,1.17,7.087,7.087,0,0,1-1.822-.249,2.1,2.1,0,0,0-1.093,0c-.057.019-.172-.1-.172-.134.057-.652.1-2.11.1-4.815-.019-2.8-.019-5.275-.1-5.946-.038-.307-.1-.441-.422-.537a6.18,6.18,0,0,0-.825-.134.841.841,0,0,1,.038-.575,15.983,15.983,0,0,0,3.549-.671c.057.019.128.256.115.345-.153.269-.211.556-.211,2.839v2.57c.019.058.057.077.1.058a6.6,6.6,0,0,1,2.455-.882A2.744,2.744,0,0,1,908.512,145.519Zm-4.546.537a.364.364,0,0,0-.128.269c-.038.825-.038,3.05.019,4.047a1.137,1.137,0,0,0,.326.863,1.988,1.988,0,0,0,1.343.5,1.265,1.265,0,0,0,1.074-.537,3.731,3.731,0,0,0,.594-2.206,3.867,3.867,0,0,0-.614-2.321,1.871,1.871,0,0,0-1.688-.844A2.3,2.3,0,0,0,903.966,146.056Z" transform="translate(-863.731 -139.63)" fill="#5e2568"/>
        <path id="Path_49" data-name="Path 49" d="M1006.932,148.48c.595,0,1.707.058,2.781.058,1.132,0,2.091-.058,2.762-.058a.847.847,0,0,1,0,.614c-.345.058-.652.115-.883.173-.461.1-.614.4-.64,1.023-.038,1.535,0,3.568,0,4.584a11.626,11.626,0,0,0,.23,2.263c.269,1.247,1.266,2.129,3.127,2.129,1.381,0,2.839-.46,3.031-3.2.1-1.439.114-4.182.037-5.524-.037-.806-.211-1.132-.843-1.247a8.614,8.614,0,0,0-1.074-.192.965.965,0,0,1,.019-.614c.593,0,1.4.058,2.358.058,1.247,0,1.822-.058,2.225-.058a.76.76,0,0,1,0,.614,7.314,7.314,0,0,0-.805.173c-.5.134-.652.441-.691,1.381-.058,1.726-.1,3.964-.23,5.275-.288,3.472-2.281,4.6-4.928,4.6-3.325,0-4.527-1.592-4.757-3.529-.173-1.343-.134-4.911-.153-6.752-.02-.5-.154-.825-.595-.959a5.766,5.766,0,0,0-1-.192A1.02,1.02,0,0,1,1006.932,148.48Z" transform="translate(-956.685 -147.348)" fill="#5e2568"/>
        <path id="Path_50" data-name="Path 50" d="M1110.555,184.869c.268-.077.364-.345.4-.729.019-.576.038-2.046.038-3.012,0-.556-.019-1.266-.038-1.515-.038-.192-.192-.441-.94-.71a1.139,1.139,0,0,1,.1-.518,10.134,10.134,0,0,0,2.942-.806.194.194,0,0,1,.077.128c0,.211-.019.748-.019,1.074a.068.068,0,0,0,.033.053.07.07,0,0,0,.063,0,4.653,4.653,0,0,1,2.511-1.189,2.183,2.183,0,0,1,1.937,1.017,4.126,4.126,0,0,1,.5,2.263c0,1.132,0,2.8.019,3.434a.4.4,0,0,0,.173.326,2.169,2.169,0,0,0,.94.288,1.06,1.06,0,0,1-.1.639c-.288,0-.863-.058-2.091-.058-1,0-1.457.038-2.046.058a1.419,1.419,0,0,1,0-.639,5.18,5.18,0,0,0,.614-.115c.23-.1.305-.269.326-.639a33.907,33.907,0,0,0-.078-3.932,1.465,1.465,0,0,0-.555-.959,1.389,1.389,0,0,0-.94-.288,2.123,2.123,0,0,0-1.112.364.512.512,0,0,0-.173.422c.019,1.285.019,3.338.038,4.354.019.48.128.595.4.671a3.151,3.151,0,0,0,.639.115,1.226,1.226,0,0,1-.057.639c-.595-.019-1.228-.058-2.149-.058-1.17,0-1.707.038-2.072.058a1.182,1.182,0,0,1,0-.639A3.668,3.668,0,0,0,1110.555,184.869Z" transform="translate(-1046.534 -172.727)" fill="#5e2568"/>
        <path id="Path_51" data-name="Path 51" d="M1192.364,162.724c-.383,0-1.055-.058-2.186-.058-.978,0-1.707.058-2.129.058a1.05,1.05,0,0,1,0-.639,3.4,3.4,0,0,0,.748-.153c.255-.1.307-.269.326-.729s.038-1.669.038-2.628c0-.671-.02-1.419-.02-1.765a.667.667,0,0,0-.153-.46,1.843,1.843,0,0,0-.806-.441.8.8,0,0,1,.057-.556,11.836,11.836,0,0,0,3.088-.639c0,.806-.019,2.187-.019,3.3,0,1,0,2.283.019,3.165,0,.5.115.652.365.748a4.4,4.4,0,0,0,.748.153A.929.929,0,0,1,1192.364,162.724Zm-1.552-9.437a2.272,2.272,0,0,1-1.247.1,1.13,1.13,0,0,1-.594-.825,1.365,1.365,0,0,1,.115-.825,2.208,2.208,0,0,1,1.266-.4,1.079,1.079,0,0,1,.767.23,1.249,1.249,0,0,1,.172.652A1.478,1.478,0,0,1,1190.812,153.287Z" transform="translate(-1114.649 -149.834)" fill="#5e2568"/>
        <path id="Path_52" data-name="Path 52" d="M1223.7,179.83c.556.019,1.419.057,2.206.057.94,0,1.592-.038,2.014-.057a.756.756,0,0,1,.038.614,5.981,5.981,0,0,0-.69.173.207.207,0,0,0-.115.256c.23.748,1.228,3.338,1.554,4.124.019.038.057.019.077,0,.365-.9,1.112-2.762,1.362-3.606.173-.512.038-.671-.173-.748a4.045,4.045,0,0,0-.863-.192.934.934,0,0,1,.077-.614c.269,0,1.023.057,1.726.057.614,0,1.324-.038,1.688-.057a.852.852,0,0,1-.019.614,5.019,5.019,0,0,0-.671.153c-.307.115-.512.384-.767.921-.5,1.036-1.189,2.628-1.841,4.258-.307.806-.5,1.343-.652,1.8a6.563,6.563,0,0,0-1.228.019c-.153-.5-.364-1.055-.595-1.669-.48-1.3-1.093-2.8-1.458-3.7-.556-1.324-.652-1.477-1.093-1.63a4.787,4.787,0,0,0-.672-.153A1.269,1.269,0,0,1,1223.7,179.83Z" transform="translate(-1145.699 -174.689)" fill="#5e2568"/>
        <path id="Path_53" data-name="Path 53" d="M1302.728,184.069a2.238,2.238,0,0,1-.077.595,4.692,4.692,0,0,1-3.376,1.65,3.39,3.39,0,0,1-2.494-.921,4.345,4.345,0,0,1-1.132-3.127,3.992,3.992,0,0,1,1.765-3.453,4.647,4.647,0,0,1,2.225-.633,2.942,2.942,0,0,1,2.916,2.762c.019.1.173.192.307.23a1.143,1.143,0,0,1-.128.5,34.568,34.568,0,0,1-4.833.441c-.058,0-.1.115-.1.192a2.751,2.751,0,0,0,.748,1.688,2.472,2.472,0,0,0,1.9.729,3.4,3.4,0,0,0,2.206-.767C1302.669,183.973,1302.728,184.011,1302.728,184.069Zm-4.949-2.916c0,.019.038.115.115.115a19.491,19.491,0,0,0,2.429-.077.212.212,0,0,0,.128-.173c-.1-1.132-.576-2.091-1.407-2.091-.73,0-1.248.921-1.267,2.225Z" transform="translate(-1208.535 -173.25)" fill="#5e2568"/>
        <path id="Path_54" data-name="Path 54" d="M1364.2,178.175a1.3,1.3,0,0,1,0,.384,6.529,6.529,0,0,1-.767,1.573.346.346,0,0,1-.23.058,2.209,2.209,0,0,0-1.439-.748,1.023,1.023,0,0,0-.71.4.764.764,0,0,0-.115.4c-.019,1.093,0,3.51.019,3.8.039.5.1.671.479.767a5.505,5.505,0,0,0,1.055.173,1.083,1.083,0,0,1-.1.639c-.346,0-1.381-.058-2.59-.058-.805,0-1.662.058-2.11.058a1.041,1.041,0,0,1,0-.639,2.472,2.472,0,0,0,.748-.153c.172-.058.288-.211.307-.595.038-.345.057-1.784.057-3.031,0-.671,0-1.247-.038-1.535-.019-.256-.128-.5-1-.806a1.357,1.357,0,0,1,.1-.5,9.387,9.387,0,0,0,2.935-.786.18.18,0,0,1,.134.1c-.019.249-.077,1.17-.077,1.477,0,.058.077.058.115.038a9.02,9.02,0,0,1,1.131-1.132,1.831,1.831,0,0,1,1.056-.4A1.138,1.138,0,0,1,1364.2,178.175Z" transform="translate(-1262.601 -172.727)" fill="#5e2568"/>
        <path id="Path_55" data-name="Path 55" d="M1418.984,180.6a1.047,1.047,0,0,1-.594.038c-.154-.806-.345-1.3-.787-1.573a1.671,1.671,0,0,0-.844-.23.952.952,0,0,0-1.036.921c0,.556.23.882,1.841,1.63,1.535.691,1.995,1.343,1.995,2.359,0,1.592-1.515,2.551-3.3,2.551a7.278,7.278,0,0,1-2.282-.364c-.1-.422-.269-1.937-.288-2.3a1.288,1.288,0,0,1,.614-.192,3.031,3.031,0,0,0,1.208,1.9,2.02,2.02,0,0,0,1.023.269c.671,0,1.093-.364,1.093-.882,0-.575-.345-.9-1.323-1.381-1.842-.882-2.4-1.592-2.4-2.7,0-1.324,1.036-2.455,3.108-2.455a10.57,10.57,0,0,1,1.323.115l.882.115A16,16,0,0,0,1418.984,180.6Z" transform="translate(-1311.479 -173.25)" fill="#5e2568"/>
        <path id="Path_56" data-name="Path 56" d="M1471.221,162.724c-.383,0-1.055-.058-2.186-.058-.978,0-1.707.058-2.129.058a1.04,1.04,0,0,1,0-.639,3.4,3.4,0,0,0,.748-.153c.256-.1.307-.269.326-.729s.039-1.669.039-2.628c0-.671-.019-1.419-.019-1.765a.67.67,0,0,0-.153-.46,1.848,1.848,0,0,0-.806-.441.791.791,0,0,1,.057-.556,11.837,11.837,0,0,0,3.088-.639c0,.806-.019,2.187-.019,3.3,0,1,0,2.283.019,3.165,0,.5.115.652.365.748a4.4,4.4,0,0,0,.748.153A.973.973,0,0,1,1471.221,162.724Zm-1.553-9.437a2.271,2.271,0,0,1-1.247.1,1.131,1.131,0,0,1-.595-.825,1.361,1.361,0,0,1,.115-.825,2.207,2.207,0,0,1,1.266-.4,1.079,1.079,0,0,1,.767.23,1.249,1.249,0,0,1,.173.652,1.48,1.48,0,0,1-.481,1.074Z" transform="translate(-1357.846 -149.834)" fill="#5e2568"/>
        <path id="Path_57" data-name="Path 57" d="M1509.24,162.735c-.039,0-.077.077-.077.115-.019.786-.019,2.244-.019,3.165a6.351,6.351,0,0,0,.1,1.419,1,1,0,0,0,1.036.748,1.714,1.714,0,0,0,1.074-.288,1.517,1.517,0,0,1-.019.652,2.762,2.762,0,0,1-2.167.978,2.009,2.009,0,0,1-1.88-.94,4.153,4.153,0,0,1-.288-2.148c0-1,.02-2.724.02-3.529a.185.185,0,0,0-.115-.173c-.269-.019-.672-.038-.959-.077a2.808,2.808,0,0,1,.173-.748,5,5,0,0,0,.806-.192c.038,0,.077-.077.1-.153v-1.63a7.693,7.693,0,0,0,1.822-.978,1.423,1.423,0,0,1,.4-.019c-.038.384-.077,1.3-.077,2.59,0,.058.038.134.077.134.575,0,1.745-.058,2.187-.1a8.444,8.444,0,0,0-.192,1.189C1510.7,162.735,1509.912,162.735,1509.24,162.735Z" transform="translate(-1391.933 -156.462)" fill="#5e2568"/>
        <path id="Path_58" data-name="Path 58" d="M1551.458,179.83c.268,0,1.151.057,2.263.057,1.036,0,1.669-.057,2.13-.057a1.111,1.111,0,0,1,.038.614,3.637,3.637,0,0,0-.612.175.326.326,0,0,0-.154.345c.307.921,1.343,3.549,1.554,3.99h.077a21.689,21.689,0,0,0,1.322-3.7c.02-.256.02-.5-.344-.614a3.981,3.981,0,0,0-.844-.192,1.4,1.4,0,0,1,.077-.614c.365,0,1.015.058,1.725.058.652,0,1.266-.038,1.822-.058a1.1,1.1,0,0,1,.019.614,2.506,2.506,0,0,0-.691.192c-.345.134-.575.4-.806,1.055a72.308,72.308,0,0,1-4.315,9.169c-.23.422-.518.921-.652,1.189l-.211.057a2.338,2.338,0,0,1-1.208-.575.766.766,0,0,1,.019-.364,22.131,22.131,0,0,0,2.724-3.817,2.817,2.817,0,0,1-.23-.441c-.441-1.074-1.189-2.941-1.861-4.508-.556-1.3-.729-1.63-1.266-1.8-.192-.058-.422-.1-.672-.153A1.212,1.212,0,0,1,1551.458,179.83Z" transform="translate(-1431.543 -174.689)" fill="#5e2568"/>
      </g>
      <g id="Group_1472" data-name="Group 1472" transform="translate(0.738 25.383)">
        <path id="Path_59" data-name="Path 59" d="M619.716,362.657c-.015.045-.211.045-.242.015-.075-.679-.211-1.023-.543-1.178a1.437,1.437,0,0,0-.664-.151.89.89,0,0,0-.936.921c0,.512.166.845,1.269,1.407,1.221.618,1.494,1.07,1.494,1.765a1.963,1.963,0,0,1-2.188,1.78,4.235,4.235,0,0,1-1.494-.286,9.41,9.41,0,0,1-.182-1.569c.015-.045.182-.091.242-.06a1.879,1.879,0,0,0,.921,1.449,1.452,1.452,0,0,0,.679.165.947.947,0,0,0,1.041-.919c0-.558-.272-.861-1.087-1.313-1.267-.664-1.6-1.176-1.6-1.931,0-.905.71-1.691,2.046-1.691a4.987,4.987,0,0,1,.861.075,5.116,5.116,0,0,0,.544.06A8.559,8.559,0,0,0,619.716,362.657Z" transform="translate(-616.23 -356.652)" fill="#5e2568"/>
        <path id="Path_60" data-name="Path 60" d="M676.282,327.072a6.219,6.219,0,0,0,2.068-.482.19.19,0,0,1,.06.135c-.091.166-.122.317-.136,1.312-.031.845,0,3.381,0,3.863,0,.015.029.031.06.015A3.575,3.575,0,0,1,680.4,331c1.116,0,1.735.861,1.735,2.354,0,.785,0,2.248.016,2.912a.383.383,0,0,0,.106.286,1.532,1.532,0,0,0,.767.226c.015.046,0,.226-.045.242-.2,0-.767-.045-1.433-.045s-1.132.029-1.343.045a.327.327,0,0,1,0-.242,3.492,3.492,0,0,0,.588-.12c.182-.091.256-.151.271-.815a20.473,20.473,0,0,0-.075-3.078,1.312,1.312,0,0,0-1.388-1.056,1.717,1.717,0,0,0-1.151.422.5.5,0,0,0-.18.348c0,1.055,0,3.123.029,3.531.031.467.106.6.393.679a3.685,3.685,0,0,0,.5.09.236.236,0,0,1,0,.226c-.18,0-.648-.029-1.509-.029-.664,0-1.041.045-1.312.045-.015-.029-.031-.2.015-.242a2.974,2.974,0,0,0,.5-.09c.242-.076.3-.256.317-.71.029-.362.029-2.2.029-2.58,0-3.877-.014-5.13-.075-5.659-.03-.211-.075-.316-.3-.376-.135-.031-.316-.046-.573-.075A.374.374,0,0,1,676.282,327.072Z" transform="translate(-668.586 -326.59)" fill="#5e2568"/>
        <path id="Path_61" data-name="Path 61" d="M762.286,362.243a1.407,1.407,0,0,0-1.19-.573,1.023,1.023,0,0,0-.544.136,2.489,2.489,0,0,0-.6,1.087c-.045.045-.286-.151-.286-.272a1.951,1.951,0,0,1,.271-.724,4.2,4.2,0,0,1,1.918-.861,1.547,1.547,0,0,1,1.373.755,2.918,2.918,0,0,1,.317,1.48c0,.8-.046,1.931-.046,2.49,0,.271.106.664.543.664a1.32,1.32,0,0,0,.512-.075.973.973,0,0,1-.06.3,1.628,1.628,0,0,1-1.176.542.7.7,0,0,1-.71-.362,1.7,1.7,0,0,1-.106-.393.041.041,0,0,0-.06-.029,4.439,4.439,0,0,1-1.675.784,1.086,1.086,0,0,1-.767-.331,1.84,1.84,0,0,1-.5-1.3,2.766,2.766,0,0,1,.166-.724c.408-.242,2.279-.74,2.792-1.012a.268.268,0,0,0,.091-.136c.015-.182,0-.377,0-.588A1.557,1.557,0,0,0,762.286,362.243Zm.2,1.886a8.6,8.6,0,0,0-1.842.725,1.2,1.2,0,0,0-.106.467,1.029,1.029,0,0,0,1.042,1.1,1.691,1.691,0,0,0,.784-.226.394.394,0,0,0,.135-.317c.015-.468.031-1.464.031-1.72C762.528,364.144,762.5,364.114,762.483,364.129Z" transform="translate(-741.176 -356.63)" fill="#5e2568"/>
        <path id="Path_62" data-name="Path 62" d="M825.268,360.373a5.9,5.9,0,0,0,1.826-.754c.03-.015.1.075.091.1-.016.151-.031.694-.031,1.011,0,.015.045.015.06.015a4.29,4.29,0,0,1,2.128-.951,1.932,1.932,0,0,1,1.433.664,2.981,2.981,0,0,1,.664,1.9,3.29,3.29,0,0,1-1.267,2.685,4.2,4.2,0,0,1-2.385.905,2.677,2.677,0,0,1-.6-.1.1.1,0,0,0-.046.075c0,1.524.016,2.293.046,2.852.014.437.12.528.467.588.2.031.423.046.739.075.03.046.015.242-.03.256h-.694c-1.267.015-2.037.151-2.535.18-.031-.029-.046-.226,0-.256.18-.046.438-.106.6-.166.256-.106.331-.286.347-.664.031-.6.031-1.918.031-3.954,0-2.308.015-3.078-.031-3.581-.015-.226-.045-.393-.18-.483a1.614,1.614,0,0,0-.665-.18A.256.256,0,0,1,825.268,360.373Zm2.052.618a.424.424,0,0,0-.182.317c-.03.317-.03,2.565,0,2.941a.949.949,0,0,0,.384.861,1.8,1.8,0,0,0,1.072.286,1.722,1.722,0,0,0,1.1-.423,2.608,2.608,0,0,0,.679-2.006,2.891,2.891,0,0,0-.544-1.826,1.628,1.628,0,0,0-1.279-.6A1.942,1.942,0,0,0,827.32,360.99Z" transform="translate(-798.393 -355.393)" fill="#5e2568"/>
        <path id="Path_63" data-name="Path 63" d="M909.239,349.147c-.317,0-.906-.045-1.389-.045-.619,0-1.151.045-1.407.045a.329.329,0,0,1,0-.242,1.671,1.671,0,0,0,.588-.12c.182-.075.256-.2.271-.619.031-.377.031-1.584.031-2.414,0-.588,0-1.116-.015-1.372a.429.429,0,0,0-.091-.3,1.076,1.076,0,0,0-.6-.288.616.616,0,0,1,0-.226,5.986,5.986,0,0,0,1.8-.453c-.015.408-.031,1.631-.031,2.55,0,.816,0,1.886.015,2.611,0,.317.1.453.317.528a2.416,2.416,0,0,0,.558.1C909.283,348.951,909.283,349.132,909.239,349.147Zm-1.132-7.56a1.054,1.054,0,0,1-.574.045.583.583,0,0,1-.316-.544.576.576,0,0,1,.076-.362.945.945,0,0,1,.6-.226.663.663,0,0,1,.406.136.541.541,0,0,1,.128.348A.7.7,0,0,1,908.107,341.587Z" transform="translate(-869.311 -338.721)" fill="#5e2568"/>
        <path id="Path_64" data-name="Path 64" d="M958.486,366.583c.211-.075.271-.317.286-.6.045-.528.029-1.569.029-2.445,0-.754-.014-1.3-.029-1.407-.031-.182-.128-.287-.71-.453-.015-.031,0-.2.046-.211a5.28,5.28,0,0,0,1.765-.574.069.069,0,0,1,.046.061c-.031.3-.046.639-.061.9,0,.045.03.076.061.06a3.652,3.652,0,0,1,2.082-1,1.509,1.509,0,0,1,1.343.767,3.174,3.174,0,0,1,.362,1.72c0,.785,0,2.174.015,2.776,0,.182.046.3.2.348a1.957,1.957,0,0,0,.65.165c.015.046,0,.212-.046.242-.211,0-.557-.045-1.312-.045-.725,0-1.162.029-1.478.045a.33.33,0,0,1,0-.242,3.806,3.806,0,0,0,.573-.09.443.443,0,0,0,.317-.468c.029-.664.045-2.671-.031-3.184a1.737,1.737,0,0,0-.437-.965,1.211,1.211,0,0,0-.921-.332,1.79,1.79,0,0,0-1.222.5c-.105.1-.151.226-.151.543,0,1.132,0,2.595.03,3.258.016.437.091.544.271.6a2.676,2.676,0,0,0,.64.136.666.666,0,0,1-.015.242c-.256,0-.679-.045-1.449-.045-.875,0-1.132.045-1.372.045a.328.328,0,0,1,0-.242,1.8,1.8,0,0,0,.523-.1Z" transform="translate(-914.243 -356.504)" fill="#5e2568"/>
        <path id="Path_65" data-name="Path 65" d="M1042.431,361.323a2.865,2.865,0,0,0,.875.151c.588,0,.724-.091.921-.286.016-.015.1.029.1.076a1.673,1.673,0,0,1-.362.739.715.715,0,0,1-.482.12c-.128,0-.136,0-.384-.015-.016,0-.031.046-.016.076a2.638,2.638,0,0,1,.182,1,2.217,2.217,0,0,1-.861,1.918,3.012,3.012,0,0,1-1.645.633.908.908,0,0,1-.211.015c-.151.031-.453.182-.453.422,0,.3.331.453.542.483a24.36,24.36,0,0,1,2.46.3,1.488,1.488,0,0,1,1.1,1.494,3.011,3.011,0,0,1-1.78,2.505,3.381,3.381,0,0,1-1.645.408,2.663,2.663,0,0,1-1.646-.5,1.756,1.756,0,0,1-.754-1.418,1.181,1.181,0,0,1,.106-.528,13.268,13.268,0,0,1,1.493-1.252c.016,0,0-.046-.016-.046a1.3,1.3,0,0,1-1.01-1.023.971.971,0,0,1,.029-.182c.212-.12.845-.482,1.056-.648.031-.031.015-.075-.014-.075a2.144,2.144,0,0,1-1.389-2.2,2.263,2.263,0,0,1,.83-1.765,3.345,3.345,0,0,1,1.766-.65A3.187,3.187,0,0,1,1042.431,361.323Zm.921,7.816a1.151,1.151,0,0,0-.785-1.151,5.837,5.837,0,0,0-1.841-.286,1,1,0,0,0-.542.151,1.553,1.553,0,0,0-.861,1.267,1.418,1.418,0,0,0,.544,1.116,2.3,2.3,0,0,0,1.553.483C1042.869,370.724,1043.352,369.969,1043.352,369.139Zm-3.683-6.021c0,1.116.512,2.174,1.525,2.174a.967.967,0,0,0,.694-.271,2.032,2.032,0,0,0,.408-1.449c0-.936-.384-2.1-1.555-2.1C1040.032,361.474,1039.669,362.183,1039.669,363.119Z" transform="translate(-984.397 -356.661)" fill="#5e2568"/>
        <path id="Path_66" data-name="Path 66" d="M1156.541,336.72c.255-.091.317-.272.317-.574.015-.8.015-2.5.031-4.22,0-.029-.031-.12-.06-.12l-.741-.031a.736.736,0,0,1,.106-.3,2.139,2.139,0,0,0,.648-.211.128.128,0,0,0,.061-.091c0-1.871.383-3.069,1.689-4a2.775,2.775,0,0,1,1.343-.542,1.256,1.256,0,0,1,1.132.542v.122a3.052,3.052,0,0,1-.5.724.116.116,0,0,1-.12.015,2.133,2.133,0,0,0-1.329-.708.91.91,0,0,0-.633.256c-.5.483-.544,1.79-.559,3.069,0,.091,0,.423.015.512,0,.014.03.089.06.089q1.2-.022,1.448-.045a4.068,4.068,0,0,0-.127.619c-.3,0-1.1-.031-1.343-.015-.016,0-.06.106-.06.12.015,1.57,0,3.453.031,4.2.014.362.151.528.437.588a3.582,3.582,0,0,0,.649.1.448.448,0,0,1-.029.242c-.408,0-.921-.045-1.6-.045-.362,0-1.087.045-1.418.045-.031-.015-.031-.2,0-.242A4.938,4.938,0,0,0,1156.541,336.72Z" transform="translate(-1086.949 -326.625)" fill="#5e2568"/>
        <path id="Path_67" data-name="Path 67" d="M1210.974,361.752a9.03,9.03,0,0,0,1.977-.242,19.708,19.708,0,0,0-.075,2.822,9.1,9.1,0,0,0,.075,1.6,1.147,1.147,0,0,0,1.236.919,1.772,1.772,0,0,0,1.178-.437.613.613,0,0,0,.18-.422c.031-.286.015-2.656-.015-3.426a.434.434,0,0,0-.286-.437,7,7,0,0,0-.95-.136.274.274,0,0,1,.031-.242,13.62,13.62,0,0,0,2.338-.226,14.46,14.46,0,0,0-.06,1.6l.015,2.987c0,.639.106.739.422.739a4.486,4.486,0,0,0,.468-.029c0,.029.015.226-.029.256-.543.151-1.495.468-1.842.6-.045,0-.091-.045-.091-.12-.015-.182,0-.6,0-.861a.059.059,0,0,0-.033-.047.06.06,0,0,0-.058,0,3.123,3.123,0,0,1-1.946.95c-1.418,0-1.7-.981-1.7-2.006,0-.71.015-2.279-.015-2.958-.015-.271-.03-.453-.211-.528a2.656,2.656,0,0,0-.649-.12A.4.4,0,0,1,1210.974,361.752Z" transform="translate(-1134.877 -357.045)" fill="#5e2568"/>
        <path id="Path_68" data-name="Path 68" d="M1293.351,349.557c-.03,0-.076.06-.076.091,0,.859-.014,2.505,0,3.169a3.063,3.063,0,0,0,.106.905.791.791,0,0,0,.8.528,1.359,1.359,0,0,0,.83-.242.815.815,0,0,1-.03.256,1.746,1.746,0,0,1-1.388.665,1.212,1.212,0,0,1-1.177-.639,3.806,3.806,0,0,1-.2-1.72c0-.8.016-2.294.016-2.9a.1.1,0,0,0-.06-.1c-.12-.031-.543-.046-.754-.06a2.763,2.763,0,0,1,.12-.363,5.022,5.022,0,0,0,.649-.12.134.134,0,0,0,.045-.091v-1.187a3.285,3.285,0,0,0,.951-.754.375.375,0,0,1,.18.031,12.212,12.212,0,0,0-.091,1.886c0,.029.046.09.076.09a16.2,16.2,0,0,0,1.63-.06,4.208,4.208,0,0,0-.128.639C1294.393,349.573,1293.819,349.557,1293.351,349.557Z" transform="translate(-1205.078 -344.382)" fill="#5e2568"/>
        <path id="Path_69" data-name="Path 69" d="M1347.613,361.752a9.029,9.029,0,0,0,1.977-.242,19.708,19.708,0,0,0-.075,2.822,9.1,9.1,0,0,0,.075,1.6,1.147,1.147,0,0,0,1.237.919,1.772,1.772,0,0,0,1.178-.437.608.608,0,0,0,.18-.422c.031-.286.015-2.656-.014-3.426a.437.437,0,0,0-.288-.437,7.009,7.009,0,0,0-.95-.136.274.274,0,0,1,.031-.242,13.624,13.624,0,0,0,2.338-.226,14.372,14.372,0,0,0-.06,1.6l.015,2.987c0,.639.106.739.423.739a4.467,4.467,0,0,0,.467-.029c0,.029.016.226-.029.256-.543.151-1.494.468-1.841.6-.045,0-.091-.045-.091-.12-.014-.182,0-.6,0-.861a.06.06,0,0,0-.032-.047.058.058,0,0,0-.057,0,3.128,3.128,0,0,1-1.948.95c-1.418,0-1.7-.981-1.7-2.006,0-.71.015-2.279-.015-2.958-.016-.271-.029-.453-.211-.528a2.655,2.655,0,0,0-.648-.12A.4.4,0,0,1,1347.613,361.752Z" transform="translate(-1254.043 -357.045)" fill="#5e2568"/>
        <path id="Path_70" data-name="Path 70" d="M1432.51,361.244a.553.553,0,0,1,0,.226,2.855,2.855,0,0,1-.453.814.956.956,0,0,1-.12.046,1.278,1.278,0,0,0-.876-.408c-.316,0-.558.271-.767.619a1.554,1.554,0,0,0-.137.6c0,.859.015,2.625.046,2.927s.091.437.286.512a3.738,3.738,0,0,0,.785.12.276.276,0,0,1-.031.242c-.211,0-.95-.045-1.524-.045-.407,0-1.193.029-1.448.045a.326.326,0,0,1,0-.242,2.79,2.79,0,0,0,.557-.1c.136-.06.227-.151.242-.423.045-.256.06-1.554.06-2.685q.016-.634-.031-1.267c-.014-.151-.06-.408-.739-.573,0-.046.015-.182.046-.2a5.222,5.222,0,0,0,1.705-.544c.015,0,.06.031.06.046-.015.271-.015.965-.015,1.252,0,.015.046.031.062.015a5.409,5.409,0,0,1,.895-.981,1.247,1.247,0,0,1,.768-.317A.732.732,0,0,1,1432.51,361.244Z" transform="translate(-1324.41 -356.521)" fill="#5e2568"/>
        <path id="Path_71" data-name="Path 71" d="M1495.065,365.827a.631.631,0,0,1-.031.256,3.363,3.363,0,0,1-2.354,1.177,2.323,2.323,0,0,1-1.765-.724,3.374,3.374,0,0,1-.785-2.3,2.961,2.961,0,0,1,1.3-2.641,3.436,3.436,0,0,1,1.534-.483c1.407,0,1.871,1.329,1.993,2.046.015.045.044.106.18.12.015.046-.014.182-.06.2a22.7,22.7,0,0,1-3.848.347c-.06,0-.089.091-.089.166a2.931,2.931,0,0,0,.558,1.662,2.024,2.024,0,0,0,1.662.767,2.2,2.2,0,0,0,1.645-.64C1495.019,365.779,1495.065,365.794,1495.065,365.827Zm-3.878-2.476c0,.046.031.091.044.091a19.781,19.781,0,0,0,2.55-.1.156.156,0,0,0,.091-.121c-.091-.767-.511-1.72-1.387-1.72-.679,0-1.238.646-1.3,1.853Z" transform="translate(-1378.378 -356.696)" fill="#5e2568"/>
        <path id="Path_72" data-name="Path 72" d="M1564.766,362.657c-.015.045-.211.045-.241.015-.076-.679-.211-1.023-.544-1.178a1.436,1.436,0,0,0-.664-.151.89.89,0,0,0-.935.921c0,.512.165.845,1.268,1.407,1.222.618,1.493,1.07,1.493,1.765a1.963,1.963,0,0,1-2.188,1.78,4.244,4.244,0,0,1-1.494-.286,9.481,9.481,0,0,1-.182-1.569c.016-.045.182-.091.242-.06a1.88,1.88,0,0,0,.921,1.449,1.457,1.457,0,0,0,.679.165.947.947,0,0,0,1.041-.919c0-.558-.271-.861-1.087-1.313-1.267-.664-1.6-1.176-1.6-1.931,0-.905.708-1.691,2.046-1.691a4.988,4.988,0,0,1,.861.075,5.122,5.122,0,0,0,.543.06A8.672,8.672,0,0,0,1564.766,362.657Z" transform="translate(-1440.429 -356.652)" fill="#5e2568"/>
      </g>
    </g>
  </g>
</svg>
