<svg id="twitter" xmlns="http://www.w3.org/2000/svg" width="28.312" height="26.948" viewBox="0 0 28.312 26.948">
  <path id="_003-twitter" data-name="003-twitter" d="M28.311,51.19a10.753,10.753,0,0,1-3.344,1.074,6.679,6.679,0,0,0,2.553-3.758,10.633,10.633,0,0,1-3.68,1.646A5.46,5.46,0,0,0,19.6,48c-3.213,0-5.8,3.055-5.8,6.8a8.16,8.16,0,0,0,.134,1.551A15.784,15.784,0,0,1,1.971,49.24a7.762,7.762,0,0,0-.794,3.437,7.179,7.179,0,0,0,2.578,5.651,5.106,5.106,0,0,1-2.622-.837v.075c0,3.3,2.012,6.049,4.65,6.681a5,5,0,0,1-1.522.224,4.407,4.407,0,0,1-1.1-.116A6.064,6.064,0,0,0,8.585,69.09a10.631,10.631,0,0,1-7.2,2.9A9.3,9.3,0,0,1,0,71.9a14.659,14.659,0,0,0,8.9,3.051c10.681,0,16.52-10.365,16.52-19.349,0-.3-.009-.591-.021-.879A12.869,12.869,0,0,0,28.311,51.19Z" transform="translate(0 -48)" fill="#fff"/>
</svg>
